RANK	DB	ID	ALT_ID	CONSENSUS	TP	TP%	FP	FP%	ENR_RATIO	SCORE_THR	PVALUE	LOG_PVALUE	EVALUE	LOG_EVALUE	QVALUE	LOG_QVALUE
1	xstreme.nrmix.100bp.txt	6-GCCACCAGRGGGCRG	STREME-6	GCCACCAGRGGGCRG	80	17.78	22	4.89	3.52	7.4	3.95e-10	-21.65	5.59e-7	-14.40	4.49e-7	-14.62
2	xstreme.nrmix.100bp.txt	DHWTGCTGAGTCAT	MEME-1	DHWTGCTGAGTCAT	32	7.11	2	0.44	11	14	2.10e-8	-17.68	2.96e-5	-10.43	1.19e-5	-11.34
3	JASPAR2018_CORE_non-redundant.meme	MA0766.1	GATA5	WGATAASR	88	19.56	36	8.00	2.41	9	2.96e-7	-15.03	4.18e-4	-7.78	8.80e-5	-9.34
4	xstreme.nrmix.100bp.txt	2-CCCCTCCCCT	STREME-2	CCCCTCCCCT	85	18.89	34	7.56	2.46	8.7	3.10e-7	-14.99	4.38e-4	-7.73	8.80e-5	-9.34
5	JASPAR2018_CORE_non-redundant.meme	MA0300.1	GAT1	YYGATAAG	93	20.67	43	9.56	2.14	5.2	2.09e-6	-13.08	2.95e-3	-5.83	4.74e-4	-7.65
6	JASPAR2018_CORE_non-redundant.meme	MA0036.3	GATA2	NBCTTATCTNH	81	18.00	35	7.78	2.28	8.2	3.01e-6	-12.71	4.25e-3	-5.46	5.69e-4	-7.47
7	JASPAR2018_CORE_non-redundant.meme	MA0035.3	Gata1	TYCTTATCTSY	66	14.67	26	5.78	2.48	5.7	6.81e-6	-11.90	9.63e-3	-4.64	9.76e-4	-6.93
8	xstreme.nrmix.100bp.txt	MA0466.1	CEBPB	KATTGCAYMAY	38	8.44	9	2.00	3.9	8.9	7.67e-6	-11.78	1.08e-2	-4.52	9.76e-4	-6.93
9	JASPAR2018_CORE_non-redundant.meme	MA0501.1	MAF::NFE2	ATGACTCAGCANWTY	55	12.22	19	4.22	2.8	7.6	7.73e-6	-11.77	1.09e-2	-4.52	9.76e-4	-6.93
10	xstreme.nrmix.100bp.txt	1-VTTATC	STREME-1	VTTATC	73	16.22	32	7.11	2.24	11	1.35e-5	-11.21	1.91e-2	-3.96	1.53e-3	-6.48
11	JASPAR2018_CORE_non-redundant.meme	MA0028.2	ELK1	ACCGGAAGTR	35	7.78	9	2.00	3.6	7.6	3.60e-5	-10.23	5.09e-2	-2.98	3.64e-3	-5.62
12	JASPAR2018_CORE_non-redundant.meme	MA0639.1	DBP	NRTTACGTAAYV	81	18.00	40	8.89	2	0.35	4.10e-5	-10.10	5.79e-2	-2.85	3.64e-3	-5.62
13	JASPAR2018_CORE_non-redundant.meme	MA0591.1	Bach1::Mafk	RSSATGACTCAGCAB	70	15.56	32	7.11	2.15	2.3	4.29e-5	-10.06	6.06e-2	-2.80	3.64e-3	-5.62
14	JASPAR2018_CORE_non-redundant.meme	MA0102.3	CEBPA	ATTGCAYAAYH	51	11.33	19	4.22	2.6	7.5	4.49e-5	-10.01	6.34e-2	-2.76	3.64e-3	-5.62
15	JASPAR2018_CORE_non-redundant.meme	MA0843.1	TEF	BRTTACRTAAYM	17	3.78	1	0.22	9	7.4	6.32e-5	-9.67	8.94e-2	-2.41	4.79e-3	-5.34
16	JASPAR2018_CORE_non-redundant.meme	MA0617.1	Id2	RCACGTGR	26	5.78	5	1.11	4.5	12	7.51e-5	-9.50	1.06e-1	-2.24	5.33e-3	-5.23
17	JASPAR2018_CORE_non-redundant.meme	MA0147.3	MYC	NNCCACGTGCNB	61	13.56	27	6.00	2.21	7.4	9.13e-5	-9.30	1.29e-1	-2.05	6.10e-3	-5.10
18	JASPAR2018_CORE_non-redundant.meme	MA0478.1	FOSL2	KRRTGASTCAB	38	8.44	12	2.67	3	12	1.03e-4	-9.18	1.46e-1	-1.92	6.51e-3	-5.03
19	JASPAR2018_CORE_non-redundant.meme	MA1104.1	GATA6	NDNAGATAAGADD	56	12.44	24	5.33	2.28	8.9	1.21e-4	-9.02	1.70e-1	-1.77	7.21e-3	-4.93
20	JASPAR2018_CORE_non-redundant.meme	MA0475.2	FLI1	ACCGGAARTR	64	14.22	30	6.67	2.1	6	1.42e-4	-8.86	2.01e-1	-1.60	8.09e-3	-4.82
21	JASPAR2018_CORE_non-redundant.meme	MA0823.1	HEY1	GRCACGTGCC	37	8.22	12	2.67	2.92	9.1	1.63e-4	-8.72	2.31e-1	-1.47	8.24e-3	-4.80
22	JASPAR2018_CORE_non-redundant.meme	MA0289.1	DAL80	CGATAAG	77	17.11	40	8.89	1.9	6.9	1.64e-4	-8.71	2.32e-1	-1.46	8.24e-3	-4.80
23	xstreme.nrmix.100bp.txt	CCDCYYCC	MEME-4	CCDCYYCC	69	15.33	34	7.56	2	11	1.67e-4	-8.70	2.36e-1	-1.44	8.24e-3	-4.80
24	JASPAR2018_CORE_non-redundant.meme	MA0764.1	ETV4	ACCGGAAGTR	74	16.44	38	8.44	1.92	7.4	1.86e-4	-8.59	2.64e-1	-1.33	8.70e-3	-4.74
25	JASPAR2018_CORE_non-redundant.meme	MA0062.2	Gabpa	CCGGAAGTGVV	49	10.89	20	4.44	2.38	7.5	1.92e-4	-8.56	2.71e-1	-1.31	8.70e-3	-4.74
26	JASPAR2018_CORE_non-redundant.meme	MA0656.1	JDP2(var.2)	GATGACGTCAYC	20	4.44	3	0.67	5.25	5	2.09e-4	-8.48	2.95e-1	-1.22	9.11e-3	-4.70
27	JASPAR2018_CORE_non-redundant.meme	MA0309.1	GZF3	YGATAASR	100	22.22	59	13.11	1.68	4.9	2.24e-4	-8.41	3.16e-1	-1.15	9.41e-3	-4.67
28	JASPAR2018_CORE_non-redundant.meme	MA0488.1	JUN	DDRATGATGTCAT	36	8.00	12	2.67	2.85	6.3	2.57e-4	-8.27	3.63e-1	-1.01	1.04e-2	-4.56
29	JASPAR2018_CORE_non-redundant.meme	MA0447.1	gt	RTTACGTAAY	45	10.00	18	4.00	2.42	4.8	2.90e-4	-8.14	4.11e-1	-0.89	1.11e-2	-4.50
30	JASPAR2018_CORE_non-redundant.meme	MA0988.1	PHYPADRAFT_143875	NVCACGTGBN	29	6.44	8	1.78	3.33	10	2.93e-4	-8.14	4.14e-1	-0.88	1.11e-2	-4.50
31	JASPAR2018_CORE_non-redundant.meme	MA0474.2	ERG	ACCGGAARTV	75	16.67	40	8.89	1.85	6.6	3.19e-4	-8.05	4.51e-1	-0.80	1.17e-2	-4.45
32	JASPAR2018_CORE_non-redundant.meme	MA0759.1	ELK3	ACCGGAAGTD	43	9.56	17	3.78	2.44	8.4	3.56e-4	-7.94	5.04e-1	-0.69	1.27e-2	-4.37
33	JASPAR2018_CORE_non-redundant.meme	MA0409.1	TYE7	CACGTGA	30	6.67	9	2.00	3.1	11	4.14e-4	-7.79	5.85e-1	-0.54	1.41e-2	-4.26
34	JASPAR2018_CORE_non-redundant.meme	MA0491.1	JUND	DRTGASTCATS	47	10.44	20	4.44	2.29	8.4	4.21e-4	-7.77	5.95e-1	-0.52	1.41e-2	-4.26
35	JASPAR2018_CORE_non-redundant.meme	MA0156.2	FEV	ACCGGAAGTN	66	14.67	34	7.56	1.91	7	4.66e-4	-7.67	6.59e-1	-0.42	1.51e-2	-4.19
36	JASPAR2018_CORE_non-redundant.meme	MA0477.1	FOSL1	RRTGASTCAKV	52	11.56	24	5.33	2.12	7.5	5.45e-4	-7.52	7.70e-1	-0.26	1.69e-2	-4.08
37	JASPAR2018_CORE_non-redundant.meme	MA0960.1	BHLH104	GGCACGTGCC	34	7.56	12	2.67	2.69	3.5	6.20e-4	-7.39	8.76e-1	-0.13	1.69e-2	-4.08
38	JASPAR2018_CORE_non-redundant.meme	MA0492.1	JUND(var.2)	DDDRATGABGTCATN	53	11.78	25	5.56	2.08	0.37	6.27e-4	-7.38	8.86e-1	-0.12	1.69e-2	-4.08
39	JASPAR2018_CORE_non-redundant.meme	MA1362.1	bHLH77	RWDWNGBCACGTGMK	43	9.56	18	4.00	2.32	5.5	6.43e-4	-7.35	9.09e-1	-0.10	1.69e-2	-4.08
40	JASPAR2018_CORE_non-redundant.meme	MA0834.1	ATF7	NDATGACGTCATMV	22	4.89	5	1.11	3.83	3.1	6.45e-4	-7.35	9.12e-1	-0.09	1.69e-2	-4.08
41	JASPAR2018_CORE_non-redundant.meme	MA0931.1	ABI5	NGMCACGTGK	22	4.89	5	1.11	3.83	11	6.45e-4	-7.35	9.12e-1	-0.09	1.69e-2	-4.08
42	xstreme.nrmix.100bp.txt	4-CAACCACA	STREME-4	CAACCACA	57	12.67	28	6.22	2	8.2	6.50e-4	-7.34	9.19e-1	-0.08	1.69e-2	-4.08
43	JASPAR2018_CORE_non-redundant.meme	MA1135.1	FOSB::JUNB	KRTGASTCAT	57	12.67	28	6.22	2	8.6	6.50e-4	-7.34	9.19e-1	-0.08	1.69e-2	-4.08
44	JASPAR2018_CORE_non-redundant.meme	MA0476.1	FOS	DVTGASTCATB	40	8.89	16	3.56	2.41	11	6.55e-4	-7.33	9.25e-1	-0.08	1.69e-2	-4.08
45	JASPAR2018_CORE_non-redundant.meme	MA1139.1	FOSL2::JUNB(var.2)	DATGACGTCATH	20	4.44	4	0.89	4.2	9.1	6.71e-4	-7.31	9.49e-1	-0.05	1.69e-2	-4.08
46	JASPAR2018_CORE_non-redundant.meme	MA1399.1	At5g08520	DWWDWRGATAAGR	102	22.67	64	14.22	1.58	0.98	7.12e-4	-7.25	1.01e0	0.01	1.76e-2	-4.04
47	JASPAR2018_CORE_non-redundant.meme	MA1144.1	FOSL2::JUND	KATGACTCAT	58	12.89	29	6.44	1.97	8.4	7.33e-4	-7.22	1.04e0	0.04	1.76e-2	-4.04
48	JASPAR2018_CORE_non-redundant.meme	MA0685.1	SP4	BWRGCCACGCCCMCTYH	32	7.11	11	2.44	2.75	4	7.42e-4	-7.21	1.05e0	0.05	1.76e-2	-4.04
49	JASPAR2018_CORE_non-redundant.meme	MA0140.2	GATA1::TAL1	MTTATCWSNNNNNHVCAG	81	18.00	47	10.44	1.71	0.66	7.80e-4	-7.16	1.10e0	0.10	1.81e-2	-4.01
50	JASPAR2018_CORE_non-redundant.meme	MA0482.1	Gata4	YCTTATCTSHB	63	14.00	33	7.33	1.88	5.4	8.13e-4	-7.12	1.15e0	0.14	1.85e-2	-3.99
51	JASPAR2018_CORE_non-redundant.meme	MA0281.1	CBF1	GCACGTGA	25	5.56	7	1.56	3.25	11	8.76e-4	-7.04	1.24e0	0.21	1.91e-2	-3.96
52	JASPAR2018_CORE_non-redundant.meme	MA0838.1	CEBPG	ATTRCGCAAY	25	5.56	7	1.56	3.25	8	8.76e-4	-7.04	1.24e0	0.21	1.91e-2	-3.96
53	JASPAR2018_CORE_non-redundant.meme	MA1021.1	PHYPADRAFT_48267	YCACGTGC	42	9.33	18	4.00	2.26	6.4	9.46e-4	-6.96	1.34e0	0.29	2.03e-2	-3.90
54	JASPAR2018_CORE_non-redundant.meme	MA0645.1	ETV6	MSCGGAAGTR	23	5.11	6	1.33	3.43	11	9.85e-4	-6.92	1.39e0	0.33	2.04e-2	-3.89
55	JASPAR2018_CORE_non-redundant.meme	MA1134.1	FOS::JUNB	KATGASTCATHN	53	11.78	26	5.78	2	9	1.01e-3	-6.89	1.43e0	0.36	2.04e-2	-3.89
56	JASPAR2018_CORE_non-redundant.meme	MA1186.1	At1g49010	HWWAWYCTTATCYWH	153	34.00	110	24.44	1.39	1.7	1.03e-3	-6.88	1.45e0	0.37	2.04e-2	-3.89
57	JASPAR2018_CORE_non-redundant.meme	MA0531.1	CTCF	CCRMYAGRTGGCGCY	57	12.67	29	6.44	1.93	6.5	1.03e-3	-6.88	1.45e0	0.37	2.04e-2	-3.89
58	JASPAR2018_CORE_non-redundant.meme	MA1126.1	FOS::JUN(var.2)	DRTGACGTCATHNDTN	28	6.22	9	2.00	2.9	9.5	1.04e-3	-6.87	1.47e0	0.39	2.04e-2	-3.89
59	JASPAR2018_CORE_non-redundant.meme	MA0622.1	Mlxip	BCACGTGK	21	4.67	5	1.11	3.67	13	1.08e-3	-6.83	1.53e0	0.43	2.08e-2	-3.87
60	JASPAR2018_CORE_non-redundant.meme	MA1102.1	CTCFL	CRSCAGGGGGCRSB	50	11.11	24	5.33	2.04	8.4	1.11e-3	-6.80	1.57e0	0.45	2.11e-2	-3.86
61	JASPAR2018_CORE_non-redundant.meme	MA0840.1	Creb5	NATGACGTCAYH	19	4.22	4	0.89	4	6.4	1.15e-3	-6.77	1.63e0	0.49	2.14e-2	-3.84
62	JASPAR2018_CORE_non-redundant.meme	MA1129.1	FOSL1::JUN(var.2)	ATGACGTCAT	173	38.44	129	28.67	1.34	3.5	1.19e-3	-6.74	1.68e0	0.52	2.17e-2	-3.83
63	JASPAR2018_CORE_non-redundant.meme	MA0017.2	NR2F1	CARAGGTCAMVNG	77	17.11	45	10.00	1.7	3.6	1.22e-3	-6.71	1.72e0	0.54	2.17e-2	-3.83
64	JASPAR2018_CORE_non-redundant.meme	MA1033.1	OJ1058_F05.8	MCACGTGK	26	5.78	8	1.78	3	6.9	1.22e-3	-6.71	1.73e0	0.55	2.17e-2	-3.83
65	JASPAR2018_CORE_non-redundant.meme	MA1132.1	JUN::JUNB	KATGACKCAT	81	18.00	49	10.89	1.64	7.9	1.59e-3	-6.45	2.24e0	0.81	2.77e-2	-3.58
66	JASPAR2018_CORE_non-redundant.meme	MA1025.1	HBI1	NNBGCACGTGCN	50	11.11	25	5.56	1.96	7.4	1.78e-3	-6.33	2.51e0	0.92	3.02e-2	-3.50
67	JASPAR2018_CORE_non-redundant.meme	MA1138.1	FOSL2::JUNB	KRTGASTCAT	54	12.00	28	6.22	1.9	9	1.78e-3	-6.33	2.52e0	0.92	3.02e-2	-3.50
68	JASPAR2018_CORE_non-redundant.meme	MA0542.1	elt-3	TCTTATCA	25	5.56	8	1.78	2.89	0.79	1.93e-3	-6.25	2.73e0	1.01	3.21e-2	-3.44
69	JASPAR2018_CORE_non-redundant.meme	MA1074.1	UNE10	CCACGTGM	18	4.00	4	0.89	3.8	13	1.95e-3	-6.24	2.76e0	1.02	3.21e-2	-3.44
70	JASPAR2018_CORE_non-redundant.meme	MA1348.1	TGA9	GMTGACGTCAY	16	3.56	3	0.67	4.25	7.2	2.02e-3	-6.20	2.86e0	1.05	3.28e-2	-3.42
71	JASPAR2018_CORE_non-redundant.meme	MA0098.3	ETS1	ACCGGAARTR	98	21.78	64	14.22	1.52	5	2.05e-3	-6.19	2.90e0	1.06	3.28e-2	-3.42
72	JASPAR2018_CORE_non-redundant.meme	MA0148.3	FOXA1	YNBNTGTTTACWYWD	28	6.22	10	2.22	2.64	6.7	2.12e-3	-6.16	2.99e0	1.10	3.34e-2	-3.40
73	JASPAR2018_CORE_non-redundant.meme	MA0139.1	CTCF	YGRCCASYAGRKGGCRSYR	167	37.11	126	28.00	1.32	0.38	2.20e-3	-6.12	3.11e0	1.13	3.42e-2	-3.38
74	JASPAR2018_CORE_non-redundant.meme	MA1101.1	BACH2	NMTGACTCAGCANH	61	13.56	34	7.56	1.77	7.2	2.29e-3	-6.08	3.24e0	1.18	3.52e-2	-3.35
75	JASPAR2018_CORE_non-redundant.meme	MA1136.1	FOSB::JUNB(var.2)	RTGACGTCAT	174	38.67	133	29.56	1.31	3	2.44e-3	-6.02	3.45e0	1.24	3.69e-2	-3.30
76	JASPAR2018_CORE_non-redundant.meme	MA0761.1	ETV1	ACCGGAAGTD	89	19.78	57	12.67	1.55	6.5	2.47e-3	-6.00	3.49e0	1.25	3.69e-2	-3.30
77	JASPAR2018_CORE_non-redundant.meme	MA0059.1	MAX::MYC	RASCACGTGGT	26	5.78	9	2.00	2.7	9	2.54e-3	-5.98	3.59e0	1.28	3.75e-2	-3.28
78	JASPAR2018_CORE_non-redundant.meme	MA0740.1	KLF14	KRCCACGCCCMCYT	142	31.56	104	23.11	1.36	0.35	2.80e-3	-5.88	3.95e0	1.37	4.07e-2	-3.20
79	JASPAR2018_CORE_non-redundant.meme	MA0605.1	Atf3	GATGACGT	133	29.56	96	21.33	1.38	3.5	2.90e-3	-5.84	4.10e0	1.41	4.13e-2	-3.19
80	JASPAR2018_CORE_non-redundant.meme	MA1130.1	FOSL2::JUN	NNRTGAGTCAYN	64	14.22	37	8.22	1.71	8.4	2.91e-3	-5.84	4.12e0	1.41	4.13e-2	-3.19
81	JASPAR2018_CORE_non-redundant.meme	MA1196.1	At5g05790	AWYCTTATCYTNWTH	145	32.22	107	23.78	1.35	0.11	2.98e-3	-5.82	4.21e0	1.44	4.14e-2	-3.18
82	JASPAR2018_CORE_non-redundant.meme	MA1336.1	TGA3	DRTGACGTCAKCAW	11	2.44	1	0.22	6	10	3.01e-3	-5.80	4.26e0	1.45	4.14e-2	-3.18
83	JASPAR2018_CORE_non-redundant.meme	MA0072.1	RORA(var.2)	NWWAWBTAGGTCAR	24	5.33	8	1.78	2.78	2	3.03e-3	-5.80	4.28e0	1.45	4.14e-2	-3.18
84	JASPAR2018_CORE_non-redundant.meme	MA0837.1	CEBPE	VTTRCGCAAY	117	26.00	82	18.22	1.42	3.9	3.11e-3	-5.77	4.40e0	1.48	4.20e-2	-3.17
85	JASPAR2018_CORE_non-redundant.meme	MA0833.1	ATF4	GKATGAYGCAATM	27	6.00	10	2.22	2.55	8.1	3.23e-3	-5.73	4.57e0	1.52	4.20e-2	-3.17
86	JASPAR2018_CORE_non-redundant.meme	MA1052.1	RAP2-6	GCGCCGCC	27	6.00	10	2.22	2.55	12	3.23e-3	-5.73	4.57e0	1.52	4.20e-2	-3.17
87	JASPAR2018_CORE_non-redundant.meme	MA1111.1	NR2F2	NAAAGGTCANR	27	6.00	10	2.22	2.55	9.7	3.23e-3	-5.73	4.57e0	1.52	4.20e-2	-3.17
88	JASPAR2018_CORE_non-redundant.meme	MA0489.1	JUN(var.2)	RRRRRRTGASTCAT	56	12.44	31	6.89	1.78	7.1	3.25e-3	-5.73	4.60e0	1.53	4.20e-2	-3.17
89	JASPAR2018_CORE_non-redundant.meme	MA0026.1	Eip74EF	CCGGAAR	169	37.56	130	28.89	1.3	4.7	3.56e-3	-5.64	5.03e0	1.61	4.52e-2	-3.10
90	JASPAR2018_CORE_non-redundant.meme	MA0829.1	Srebf1(var.2)	ATCACGTGAY	22	4.89	7	1.56	2.88	8.7	3.58e-3	-5.63	5.07e0	1.62	4.52e-2	-3.10
91	JASPAR2018_CORE_non-redundant.meme	MA1256.1	RAP212	NGRHDRHDRYGGCGGCGGHGR	41	9.11	20	4.44	2	6.2	3.77e-3	-5.58	5.33e0	1.67	4.67e-2	-3.06
92	JASPAR2018_CORE_non-redundant.meme	MA1069.1	TGA6	NATGACGTCA	8	1.78	0	0.00	9	14	3.79e-3	-5.58	5.35e0	1.68	4.67e-2	-3.06
93	JASPAR2018_CORE_non-redundant.meme	MA0493.1	Klf1	RRCCACACCCW	125	27.78	90	20.00	1.38	3.5	3.89e-3	-5.55	5.50e0	1.70	4.75e-2	-3.05
94	JASPAR2018_CORE_non-redundant.meme	MA1333.1	AT4G18890	YGCACGTGTGR	28	6.22	11	2.44	2.42	1.3	4.01e-3	-5.52	5.67e0	1.73	4.84e-2	-3.03
95	JASPAR2018_CORE_non-redundant.meme	MA1131.1	FOSL2::JUN(var.2)	GRTGACGTMAT	163	36.22	125	27.78	1.3	1.7	4.07e-3	-5.50	5.75e0	1.75	4.87e-2	-3.02
96	JASPAR2018_CORE_non-redundant.meme	MA0093.2	USF1	VYCAYGTGACC	50	11.11	27	6.00	1.82	7	4.19e-3	-5.47	5.93e0	1.78	4.90e-2	-3.02
97	JASPAR2018_CORE_non-redundant.meme	MA0357.1	PHO4	SCACGTGS	20	4.44	6	1.33	3	9.1	4.19e-3	-5.47	5.93e0	1.78	4.90e-2	-3.02
98	JASPAR2018_CORE_non-redundant.meme	MA0079.3	SP1	GCCCCKCCCCC	110	24.44	77	17.11	1.42	6.9	4.22e-3	-5.47	5.97e0	1.79	4.90e-2	-3.02
99	JASPAR2018_CORE_non-redundant.meme	MA1108.1	MXI1	NVVCCACGTGSNB	46	10.22	24	5.33	1.88	7.4	4.27e-3	-5.46	6.04e0	1.80	4.90e-2	-3.02
100	JASPAR2018_CORE_non-redundant.meme	MA0415.1	YAP1	NBKWNMTTACGTAAKVYNNT	82	18.22	53	11.78	1.54	0.32	4.39e-3	-5.43	6.20e0	1.82	4.98e-2	-3.00

# SEA (Simple Enrichment Analysis): Version 5.5.5 compiled on Nov 29 2023 at 23:04:47
# The format of this file is described at https://meme-suite.org/meme/doc/sea-output-format.html.
# sea --oc sea_example_output_files --p nrmix.100bp.fa --m JASPAR2018_CORE_non-redundant.meme --m xstreme.nrmix.100bp.txt --qvalue
