rank	motif_DB	motif_ID	motif_alt_ID	consensus	p-value	adj_p-value	E-value	tests	FASTA_max	pos	neg	U	pleft	pright	pboth	adj_pleft	adj_pright	adj_pboth
1	common/Jaspar-subset.meme	MA0039.2	Klf4	DGGGYGKGGC	1.55e-11	1.55e-11	2.01e-10	1	169	169	0	8.314e+03	1.00e0	1.55e-11	3.10e-11	1.00e0	1.55e-11	3.10e-11
2	common/Jaspar-subset.meme	MA0140.1	Tal1::Gata1	CTGBNNNNNDSAGATAAG	3.82e-11	3.82e-11	4.96e-10	1	169	169	0	8.434e+03	1.00e0	3.82e-11	7.63e-11	1.00e0	3.82e-11	7.63e-11
3	common/Jaspar-subset.meme	MA0035.2	Gata1	DSAGATAAGVV	4.85e-11	4.85e-11	6.31e-10	1	169	169	0	8.467e+03	1.00e0	4.85e-11	9.70e-11	1.00e0	4.85e-11	9.70e-11
4	common/Jaspar-subset.meme	MA0309.1	GZF3	YGATAASR	1.01e-7	1.01e-7	1.32e-6	1	169	169	0	9.612e+03	1.00e0	1.01e-7	2.03e-7	1.00e0	1.01e-7	2.03e-7
5	common/Jaspar-subset.meme	MA0300.1	GAT1	YYGATAAG	2.26e-7	2.26e-7	2.93e-6	1	169	169	0	9.748e+03	1.00e0	2.26e-7	4.51e-7	1.00e0	2.26e-7	4.51e-7
6	common/Jaspar-subset.meme	MA0079.1	SP1	KRGGCDGGGT	6.22e-6	6.22e-6	8.09e-5	1	169	169	0	1.036e+04	1.00e0	6.22e-6	1.24e-5	1.00e0	6.22e-6	1.24e-5
7	common/Jaspar-subset.meme	MA0270.1	AFT2	SACACCCB	7.02e-4	7.02e-4	9.12e-3	1	169	169	0	1.141e+04	9.99e-1	7.02e-4	1.40e-3	9.99e-1	7.02e-4	1.40e-3
8	common/Jaspar-subset.meme	MA0443.1	btd	RRGGGGCGKR	1.57e-3	1.57e-3	2.04e-2	1	169	169	0	1.163e+04	9.98e-1	1.57e-3	3.14e-3	9.98e-1	1.57e-3	3.14e-3
9	common/Jaspar-subset2.meme	MA0443.1	btd	RRGGGGCGKR	1.57e-3	1.57e-3	2.04e-2	1	169	169	0	1.163e+04	9.98e-1	1.57e-3	3.14e-3	9.98e-1	1.57e-3	3.14e-3
10	common/Jaspar-subset.meme	MA0079.2	SP1	CCCCKCCCCC	1.52e-2	1.52e-2	1.98e-1	1	169	169	0	1.234e+04	9.85e-1	1.52e-2	3.04e-2	9.85e-1	1.52e-2	3.04e-2
11	common/Jaspar-subset2.meme	MA0039.1	Klf4	WARRGRAAGG	2.47e-2	2.47e-2	3.21e-1	1	169	169	0	1.252e+04	9.75e-1	2.47e-2	4.94e-2	9.75e-1	2.47e-2	4.94e-2
12	common/Jaspar-subset.meme	MA0091.1	TAL1::TCF3	NSAMCATCTGKT	4.02e-2	4.02e-2	5.23e-1	1	169	169	0	1.271e+04	9.60e-1	4.02e-2	8.04e-2	9.60e-1	4.02e-2	8.04e-2
13	common/Jaspar-subset.meme	MA0163.1	PLAG1	GGGGCCCWAGGGGG	6.35e-1	6.35e-1	8.26e0	1	169	169	0	1.459e+04	3.65e-1	6.35e-1	7.30e-1	3.65e-1	6.35e-1	7.30e-1

# AME (Analysis of Motif Enrichment): Version 5.5.4 compiled on Jul 11 2023 at 19:17:48
# The format of this file is described at https://meme-suite.org/meme/doc/ame-output-format.html.
# ame --verbose 1 --method ranksum --scoring sum --oc results/ame24 --evalue-report-threshold 100 --fix-partition 169 common/Klf1-200-100.combined.nofasta.fa common/Jaspar-subset.meme common/Jaspar-subset2.meme
