rank	motif_DB	motif_ID	motif_alt_ID	consensus	p-value	adj_p-value	E-value	tests	FASTA_max	pos	neg	Spearmans_CC
1	common/Jaspar-subset.meme	MA0039.2	Klf4	DGGGYGKGGC	2.55e-27	7.88e-25	1.02e-23	309	-32.8	107	0	0.784
2	common/Jaspar-subset.meme	MA0270.1	AFT2	SACACCCB	4.06e-6	1.25e-3	1.63e-2	309	-9.34	184	0	0.32
5	common/Jaspar-subset.meme	MA0309.1	GZF3	YGATAASR	6.05e-4	1.70e-1	2.22e0	309	6.02	225	0	0.214
6	common/Jaspar-subset.meme	MA0079.1	SP1	KRGGCDGGGT	6.18e-4	1.74e-1	2.26e0	309	49.7	338	0	0.175
7	common/Jaspar-subset.meme	MA0079.2	SP1	CCCCKCCCCC	1.50e-2	9.90e-1	1.29e1	309	49.7	338	0	0.118
8	common/Jaspar-subset.meme	MA0300.1	GAT1	YYGATAAG	1.92e-2	9.97e-1	1.30e1	309	37.4	311	0	0.117
9	common/Jaspar-subset.meme	MA0035.2	Gata1	DSAGATAAGVV	2.64e-2	1.00e0	1.30e1	309	49.7	338	0	0.105
10	common/Jaspar-subset2.meme	MA0039.1	Klf4	WARRGRAAGG	2.90e-2	1.00e0	1.30e1	309	46.4	334	0	0.104
11	common/Jaspar-subset.meme	MA0443.1	btd	RRGGGGCGKR	5.00e-1	1.00e0	1.30e1	309	-73.6	30	0	0
12	common/Jaspar-subset.meme	MA0140.1	Tal1::Gata1	CTGBNNNNNDSAGATAAG	5.00e-1	1.00e0	1.30e1	309	-73.6	30	0	0
13	common/Jaspar-subset2.meme	MA0443.1	btd	RRGGGGCGKR	5.00e-1	1.00e0	1.30e1	309	-73.6	30	0	0

# AME (Analysis of Motif Enrichment): Version 5.5.4 compiled on Jul 11 2023 at 19:17:48
# The format of this file is described at https://meme-suite.org/meme/doc/ame-output-format.html.
# ame --verbose 1 --method spearman --scoring totalhits --oc results/ame33 --evalue-report-threshold 100 --hit-lo-fraction 0.85 --bgfile --uniform-- common/Klf1-200-100.combined.fa common/Jaspar-subset.meme common/Jaspar-subset2.meme
