matches	sec_pos	pri_match	pri_strand	sec_match	sec_strand	same_opp	down_up	gap	seq_name	adj_p-value	pri_bed_chr	pri_bed_start	pri_bed_end	pri_browser	sec_bed_chr	sec_bed_start	sec_bed_end	sec_browser
acagaaAGGGCGTGTTccacGGGGAGTGGCtcattggagaggtggcagtg	  7	GGGGAGTGGC	+	AGGGCGTGTT	+	s	u	  4	chr11:99087547-99088047	1.0e+00	chr11	99087809	99087819	chr11:99087810-99087819	chr11	99087795	99087805	chr11:99087796-99087805
cggagcggacaaccggaggaAGGGCGGGGCtcgtaacggaAGGGCGGGCC	 41	AGGGCGGGGC	+	AGGGCGGGCC	+	s	d	 10	chr12:70465143-70465643	1.0e+00	chr12	70465260	70465270	chr12:70465261-70465270	chr12	70465280	70465290	chr12:70465281-70465290
cagctAGGGAGGAGCggccaGGGGCGGAGCgcgacgacggggagcgggaa	  6	GGGGCGGAGC	+	AGGGAGGAGC	+	s	u	  5	chr12:84938047-84938547	3.6e-01	chr12	84938186	84938196	chr12:84938187-84938196	chr12	84938171	84938181	chr12:84938172-84938181
gttccactttaaccactccgTGGGTGGGGCtgctgtctGGGGTGGGACta	 39	TGGGTGGGGC	+	GGGGTGGGAC	+	s	d	  8	chr12:85791924-85792424	1.0e+00	chr12	85792306	85792316	chr12:85792307-85792316	chr12	85792324	85792334	chr12:85792325-85792334
ctgcactaatatttacataaAGGGCGTGGTGGGGTGGGGTagcagcaaag	 31	AGGGCGTGGT	+	GGGGTGGGGT	+	s	d	  0	chr13:81067499-81067999	9.5e-01	chr13	81067753	81067763	chr13:81067754-81067763	chr13	81067763	81067773	chr13:81067764-81067773
cagatGGGGCATGGCgggtgGGGGTGGGGTgaagaggcggtttcttatct	  6	GGGGTGGGGT	+	GGGGCATGGC	+	s	u	  5	chr14:119195311-119195811	3.6e-01	chr14	119195504	119195514	chr14:119195505-119195514	chr14	119195489	119195499	chr14:119195490-119195499
ttcctgcaatatggagccagAGGGCGTGGCgcaTGGGCGGCGCgagggtg	 34	AGGGCGTGGC	+	TGGGCGGCGC	+	s	d	  3	chr14:21299129-21299629	1.0e+00	chr14	21299170	21299180	chr14:21299171-21299180	chr14	21299183	21299193	chr14:21299184-21299193
cGGGGAGTGGGcagggcgagGAGGCGGGGCcagcgccggacgtcccgccc	  2	GAGGCGGGGC	+	GGGGAGTGGG	+	s	u	  9	chr14:63796626-63797126	1.0e+00	chr14	63796702	63796712	chr14:63796703-63796712	chr14	63796683	63796693	chr14:63796684-63796693
cggggagTGGGCAGGGCgagGAGGCGGGGCcagcgccggacgtcccgccc	  8	GAGGCGGGGC	+	TGGGCAGGGC	+	s	u	  3	chr14:63796626-63797126	9.5e-01	chr14	63796702	63796712	chr14:63796703-63796712	chr14	63796689	63796699	chr14:63796690-63796699
tggtgcttTGGGTGGGACccAGGGCGGGGCtagtaacactgagtcatctc	  9	AGGGCGGGGC	+	TGGGTGGGAC	+	s	u	  2	chr15:95715579-95716079	1.0e+00	chr15	95715857	95715867	chr15:95715858-95715867	chr15	95715845	95715855	chr15:95715846-95715855
tcTGGGCGGGGCagctcatcTGGGCGGGGCagcacttactgtctggtagg	  3	TGGGCGGGGC	+	TGGGCGGGGC	+	s	u	  8	chr16:44265653-44266153	1.0e+00	chr16	44265854	44265864	chr16:44265855-44265864	chr16	44265836	44265846	chr16:44265837-44265846
ggcgctttccagtcagcatgTGGGCGGGGGAGGGCGGGGCccggtcgccg	 31	TGGGCGGGGG	+	AGGGCGGGGC	+	s	d	  0	chr16:8829690-8830190	9.5e-01	chr16	8830159	8830169	chr16:8830160-8830169	chr16	8830169	8830179	chr16:8830170-8830179
cacacagTAGGTGTGGCacaTGGGTGGGGTgtttcggcattcatttgtca	  8	TGGGTGGGGT	+	TAGGTGTGGC	+	s	u	  3	chr17:26651346-26651846	9.5e-01	chr17	26651639	26651649	chr17:26651640-26651649	chr17	26651626	26651636	chr17:26651627-26651636
acgctGGGGAGGGGCtgggcTGGGAGGGGCcctgcccagctttcctggtg	  6	TGGGAGGGGC	+	GGGGAGGGGC	+	s	u	  5	chr1:136638481-136638981	3.6e-01	chr1	136638577	136638587	chr1:136638578-136638587	chr1	136638562	136638572	chr1:136638563-136638572
acgctggggaGGGGCTGGGCTGGGAGGGGCcctgcccagctttcctggtg	 11	TGGGAGGGGC	+	GGGGCTGGGC	+	s	u	  0	chr1:136638481-136638981	1.0e+00	chr1	136638577	136638587	chr1:136638578-136638587	chr1	136638567	136638577	chr1:136638568-136638577
tagatcacaagccggcctgtGGGGCGGGGCtGGGGTGTGGTcagggctgt	 32	GGGGCGGGGC	+	GGGGTGTGGT	+	s	d	  1	chr1:157198530-157199030	3.6e-01	chr1	157198853	157198863	chr1:157198854-157198863	chr1	157198864	157198874	chr1:157198865-157198874
TGGGTGGAGTctagattagaAGGGCGTGGGgtcggggtctactgaagaag	  1	AGGGCGTGGG	+	TGGGTGGAGT	+	s	u	 10	chr4:128287321-128287821	1.0e+00	chr4	128287562	128287572	chr4:128287563-128287572	chr4	128287542	128287552	chr4:128287543-128287552
tgtacagtagagatggagttGGGGTGGGGCTGGGTGGGACtgggcacagt	 31	GGGGTGGGGC	+	TGGGTGGGAC	+	s	d	  0	chr4:154285744-154286244	9.5e-01	chr4	154285971	154285981	chr4:154285972-154285981	chr4	154285981	154285991	chr4:154285982-154285991
cagaaAGGGTGTAGAgaggcTGGGTGGAGCaggtgcaaagtacagttaca	  6	TGGGTGGAGC	+	AGGGTGTAGA	+	s	u	  5	chr5:73746597-73747097	3.6e-01	chr5	73746867	73746877	chr5:73746868-73746877	chr5	73746852	73746862	chr5:73746853-73746862
tctggaccagtgtgatggcaTGGGTGTGGAtggaggAGGGAGTGTTtgtg	 37	TGGGTGTGGA	+	AGGGAGTGTT	+	s	d	  6	chr5:96888621-96889121	1.0e+00	chr5	96888847	96888857	chr5:96888848-96888857	chr5	96888863	96888873	chr5:96888864-96888873
tgactgggagggagggagggAGGGCGTGGTcTGGGAGTGTCtgggtatga	 32	AGGGCGTGGT	+	TGGGAGTGTC	+	s	d	  1	chr6:142838755-142839255	3.6e-01	chr6	142839023	142839033	chr6:142839024-142839033	chr6	142839034	142839044	chr6:142839035-142839044
ggggAGGTTGGGGCgtgtttGGGGCGTGGTcagtcnnnnnnnnnnnnnnn	  5	GGGGCGTGGT	+	AGGTTGGGGC	+	s	u	  6	chr6:144850419-144850919	1.0e+00	chr6	144850528	144850538	chr6:144850529-144850538	chr6	144850512	144850522	chr6:144850513-144850522
ggggaggttGGGGCGTGTTtGGGGCGTGGTcagtcnnnnnnnnnnnnnnn	 10	GGGGCGTGGT	+	GGGGCGTGTT	+	s	u	  1	chr6:144850419-144850919	1.0e+00	chr6	144850528	144850538	chr6:144850529-144850538	chr6	144850517	144850527	chr6:144850518-144850527
nnnnnntTAGGCGTGGTgttGGGGCGGTGCctcccgctcagttttcagca	  8	GGGGCGGTGC	+	TAGGCGTGGT	+	s	u	  3	chr7:16685174-16685674	9.5e-01	chr7	16685396	16685406	chr7:16685397-16685406	chr7	16685383	16685393	chr7:16685384-16685393
aaaagctagtcttgcaggcgGGGGTGGGGGtAGGGTGGAGAatgcgctag	 32	GGGGTGGGGG	+	AGGGTGGAGA	+	s	d	  1	chr7:16987194-16987694	3.6e-01	chr7	16987662	16987672	chr7:16987663-16987672	chr7	16987673	16987683	chr7:16987674-16987683
cCGGGTGGGGTggctggctaGGGGCGGGACgnnnnnnnnnnnnnnnnnnn	  2	GGGGCGGGAC	+	CGGGTGGGGT	+	s	u	  9	chr7:28266695-28267195	1.0e+00	chr7	28266780	28266790	chr7:28266781-28266790	chr7	28266761	28266771	chr7:28266762-28266771
nnnnnnnnnnnnnnnnnnngTGGGTGTGGCaGGGGAGTGGGggcgcaaat	 32	TGGGTGTGGC	+	GGGGAGTGGG	+	s	d	  1	chr8:24254795-24255295	3.6e-01	chr8	24255131	24255141	chr8:24255132-24255141	chr8	24255142	24255152	chr8:24255143-24255152
gccttcggTGGGCGTGACgcGGGGCGTGGCttcacagagggcctgggttt	  9	GGGGCGTGGC	+	TGGGCGTGAC	+	s	u	  2	chr8:73222227-73222727	1.0e+00	chr8	73222377	73222387	chr8:73222378-73222387	chr8	73222365	73222375	chr8:73222366-73222375
aggatagtcattgacaagttGGGGCGTGGTccagaAGGGAGTGTTcaaat	 36	GGGGCGTGGT	+	AGGGAGTGTT	+	s	d	  5	chr9:108709856-108710356	1.0e+00	chr9	108710129	108710139	chr9:108710130-108710139	chr9	108710144	108710154	chr9:108710145-108710154
agagaagtctGGGGCGGGGCAGGGTGGGGCaggtcctctcaggctatcac	 11	AGGGTGGGGC	+	GGGGCGGGGC	+	s	u	  0	chr9:90156772-90157272	1.0e+00	chr9	90157113	90157123	chr9:90157114-90157123	chr9	90157103	90157113	chr9:90157104-90157113
