prim_db	prim_id	prim_alt	prim_cons	sec_db	sec_id	sec_alt	sec_cons	trim_left	trim_right	red_db	red_id	red_alt	E-value	gap	orient	count	total	adj_p-value	p-value
meme.xml	WGGGTGTGGYYS	MEME-1	WGGGTGTGGYYS	meme.xml	NWGATAAG	MEME-2	NWGATAAG	1	0	.	.	.	2.65e-02	24	6	7	166	2.53e-07	2.28e-06
meme.xml	WGGGTGTGGYYS	MEME-1	WGGGTGTGGYYS	streme.xml	2-ACWGATAAS	STREME-2	ACWGATAAS	0	1	.	.	.	4.52e-01	11	4	8	350	5.70e-03	5.02e-02
meme.xml	WGGGTGTGGYYS	MEME-1	WGGGTGTGGYYS	streme.xml	1-RCCACACCCWD	STREME-1	RCCACACCCWD	0	1	.	.	.	1.63e+00	16	6	5	140	2.19e-02	1.81e-01
meme.xml	WGGGTGTGGYYS	MEME-1	WGGGTGTGGYYS	meme.xml	WGGGTGTGGYYS	MEME-1	WGGGTGTGGYYS	0	2	meme.xml	1-RCCACACCCWD	STREME-1	6.85e+00	16	5	5	216	1.47e-01	7.62e-01
meme.xml	WGGGTGTGGYYS	MEME-1	WGGGTGTGGYYS	streme.xml	5-AAACGCCCW	STREME-5	AAACGCCCW	0	0	.	.	.	2.94e+00	115	4	3	37	4.31e-02	3.27e-01
meme.xml	WGGGTGTGGYYS	MEME-1	WGGGTGTGGYYS	meme.xml	CCWCCCCTCCCCCTC	MEME-3	CCWCCCCTCCCCCTC	0	0	.	.	.	6.74e+00	37	1	3	109	1.42e-01	7.48e-01
meme.xml	WGGGTGTGGYYS	MEME-1	WGGGTGTGGYYS	streme.xml	6-AACAAGGAAARA	STREME-6	AACAAGGAAARA	0	0	.	.	.	7.87e+00	52	8	5	117	2.06e-01	8.74e-01
meme.xml	WGGGTGTGGYYS	MEME-1	WGGGTGTGGYYS	streme.xml	4-CTGGGGAGA	STREME-4	CTGGGGAGA	0	0	.	.	.	8.54e+00	42	7	4	155	2.82e-01	9.49e-01
meme.xml	WGGGTGTGGYYS	MEME-1	WGGGTGTGGYYS	streme.xml	3-CCCCKCCC	STREME-3	CCCCKCCC	0	0	.	.	.	9.00e+00	5	3	3	210	5.89e-01	1.00e+00

# SpaMo (Spaced Motif Analysis Tool): Version 5.5.5 compiled on Nov 28 2023 at 18:23:24
# The format of this file is described at https://meme-suite.org/meme/doc/spamo-output-format.html.
# spamo -verbosity 1 -oc memechip_example_output_files/spamo_out_1 -bgfile memechip_example_output_files/background -keepprimary -primary WGGGTGTGGYYS memechip_example_output_files/Klf1.fna memechip_example_output_files/meme_out/meme.xml memechip_example_output_files/meme_out/meme.xml memechip_example_output_files/streme_out/streme.xml
