********************************************************************************
XSTREME - Motif Discovery and Enrichment Analysis
********************************************************************************
MEME version 5.5.5 (Thu Sep 14 08:48:04 2023 +1000)

For further information on how to interpret these results please access https://meme-suite.org/meme.
To get a copy of the MEME Suite software please access https://meme-suite.org.

********************************************************************************


********************************************************************************
REFERENCE
********************************************************************************
If you use this program in your research, please cite:

Charles E. Grant and Timothy L. Bailey, "XSTREME: comprehensive motif analysis of biological sequence datasets",
BioRxiv, September 3, 2021.
********************************************************************************


ALPHABET= ACDEFGHIKLMNPQRSTVWY

Background letter frequencies (from file `results/xstreme2/background'):
A 0.11100 C 0.01211 D 0.05023 E 0.05533 F 0.03592 G 0.08984 H 0.01821 I 0.05663 K 0.05183 L 0.09194 M 0.02722 N 0.04052 P 0.04052 Q 0.02942 R 0.04942 S 0.06373 T 0.05653 V 0.08304 W 0.00951 Y 0.02702 

MOTIF KVALVTGAASGIGKA MEME-1

letter-probability matrix: alength= 20 w= 15 nsites= 31 E= 1.2e-100
  0.032258	  0.000000	  0.000000	  0.032258	  0.000000	  0.032258	  0.032258	  0.000000	  0.612903	  0.032258	  0.000000	  0.000000	  0.064516	  0.096774	  0.032258	  0.000000	  0.032258	  0.000000	  0.000000	  0.000000	
  0.129032	  0.032258	  0.000000	  0.000000	  0.000000	  0.000000	  0.032258	  0.000000	  0.064516	  0.000000	  0.000000	  0.129032	  0.000000	  0.000000	  0.064516	  0.000000	  0.064516	  0.451613	  0.032258	  0.000000	
  0.419355	  0.000000	  0.000000	  0.000000	  0.000000	  0.000000	  0.000000	  0.129032	  0.000000	  0.000000	  0.032258	  0.000000	  0.000000	  0.000000	  0.000000	  0.000000	  0.032258	  0.387097	  0.000000	  0.000000	
  0.032258	  0.000000	  0.000000	  0.000000	  0.032258	  0.000000	  0.000000	  0.225806	  0.000000	  0.516129	  0.000000	  0.000000	  0.000000	  0.000000	  0.000000	  0.000000	  0.000000	  0.161290	  0.032258	  0.000000	
  0.000000	  0.000000	  0.000000	  0.000000	  0.032258	  0.000000	  0.000000	  0.419355	  0.000000	  0.032258	  0.000000	  0.000000	  0.000000	  0.000000	  0.000000	  0.000000	  0.000000	  0.516129	  0.000000	  0.000000	
  0.000000	  0.000000	  0.000000	  0.000000	  0.000000	  0.000000	  0.000000	  0.032258	  0.000000	  0.000000	  0.000000	  0.000000	  0.000000	  0.000000	  0.000000	  0.032258	  0.903226	  0.032258	  0.000000	  0.000000	
  0.032258	  0.000000	  0.000000	  0.000000	  0.000000	  0.967742	  0.000000	  0.000000	  0.000000	  0.000000	  0.000000	  0.000000	  0.000000	  0.000000	  0.000000	  0.000000	  0.000000	  0.000000	  0.000000	  0.000000	
  0.451613	  0.064516	  0.000000	  0.000000	  0.000000	  0.387097	  0.000000	  0.000000	  0.000000	  0.000000	  0.000000	  0.000000	  0.000000	  0.000000	  0.000000	  0.064516	  0.000000	  0.032258	  0.000000	  0.000000	
  0.290323	  0.000000	  0.064516	  0.000000	  0.000000	  0.258065	  0.000000	  0.000000	  0.000000	  0.032258	  0.000000	  0.064516	  0.000000	  0.000000	  0.000000	  0.258065	  0.032258	  0.000000	  0.000000	  0.000000	
  0.064516	  0.032258	  0.032258	  0.000000	  0.000000	  0.129032	  0.000000	  0.000000	  0.161290	  0.000000	  0.000000	  0.000000	  0.000000	  0.064516	  0.161290	  0.322581	  0.032258	  0.000000	  0.000000	  0.000000	
  0.032258	  0.000000	  0.000000	  0.000000	  0.032258	  0.838710	  0.000000	  0.000000	  0.032258	  0.000000	  0.000000	  0.000000	  0.000000	  0.000000	  0.032258	  0.000000	  0.032258	  0.000000	  0.000000	  0.000000	
  0.032258	  0.000000	  0.000000	  0.000000	  0.032258	  0.000000	  0.000000	  0.580645	  0.000000	  0.290323	  0.000000	  0.000000	  0.000000	  0.000000	  0.000000	  0.000000	  0.000000	  0.064516	  0.000000	  0.000000	
  0.000000	  0.000000	  0.000000	  0.000000	  0.000000	  0.967742	  0.000000	  0.000000	  0.000000	  0.000000	  0.000000	  0.000000	  0.000000	  0.000000	  0.000000	  0.032258	  0.000000	  0.000000	  0.000000	  0.000000	
  0.064516	  0.000000	  0.000000	  0.000000	  0.096774	  0.032258	  0.064516	  0.032258	  0.258065	  0.193548	  0.000000	  0.000000	  0.000000	  0.000000	  0.193548	  0.032258	  0.000000	  0.000000	  0.000000	  0.032258	
  0.516129	  0.032258	  0.064516	  0.193548	  0.032258	  0.032258	  0.032258	  0.000000	  0.000000	  0.000000	  0.000000	  0.000000	  0.000000	  0.000000	  0.000000	  0.096774	  0.000000	  0.000000	  0.000000	  0.000000	

MOTIF YSASKAAVRGLTRSL MEME-2

letter-probability matrix: alength= 20 w= 15 nsites= 31 E= 1.8e-097
  0.000000	  0.000000	  0.000000	  0.000000	  0.000000	  0.000000	  0.000000	  0.000000	  0.000000	  0.000000	  0.000000	  0.000000	  0.000000	  0.000000	  0.000000	  0.000000	  0.000000	  0.000000	  0.000000	  1.000000	
  0.096774	  0.096774	  0.000000	  0.000000	  0.000000	  0.161290	  0.000000	  0.000000	  0.000000	  0.000000	  0.000000	  0.032258	  0.032258	  0.000000	  0.032258	  0.419355	  0.096774	  0.032258	  0.000000	  0.000000	
  0.612903	  0.000000	  0.000000	  0.000000	  0.000000	  0.032258	  0.000000	  0.032258	  0.000000	  0.000000	  0.096774	  0.000000	  0.000000	  0.000000	  0.000000	  0.161290	  0.032258	  0.032258	  0.000000	  0.000000	
  0.161290	  0.000000	  0.000000	  0.000000	  0.000000	  0.000000	  0.000000	  0.000000	  0.000000	  0.000000	  0.000000	  0.000000	  0.000000	  0.000000	  0.000000	  0.645161	  0.193548	  0.000000	  0.000000	  0.000000	
  0.000000	  0.000000	  0.000000	  0.000000	  0.000000	  0.000000	  0.000000	  0.000000	  1.000000	  0.000000	  0.000000	  0.000000	  0.000000	  0.000000	  0.000000	  0.000000	  0.000000	  0.000000	  0.000000	  0.000000	
  0.451613	  0.000000	  0.000000	  0.000000	  0.258065	  0.129032	  0.032258	  0.032258	  0.000000	  0.000000	  0.000000	  0.000000	  0.000000	  0.032258	  0.000000	  0.000000	  0.000000	  0.000000	  0.064516	  0.000000	
  0.645161	  0.000000	  0.000000	  0.000000	  0.064516	  0.258065	  0.000000	  0.000000	  0.000000	  0.000000	  0.000000	  0.000000	  0.000000	  0.000000	  0.000000	  0.032258	  0.000000	  0.000000	  0.000000	  0.000000	
  0.064516	  0.000000	  0.000000	  0.000000	  0.000000	  0.032258	  0.000000	  0.096774	  0.000000	  0.258065	  0.096774	  0.000000	  0.000000	  0.000000	  0.000000	  0.032258	  0.000000	  0.419355	  0.000000	  0.000000	
  0.064516	  0.032258	  0.064516	  0.096774	  0.000000	  0.032258	  0.000000	  0.096774	  0.064516	  0.064516	  0.000000	  0.032258	  0.000000	  0.032258	  0.129032	  0.096774	  0.096774	  0.096774	  0.000000	  0.000000	
  0.129032	  0.000000	  0.032258	  0.000000	  0.000000	  0.419355	  0.064516	  0.000000	  0.000000	  0.032258	  0.129032	  0.064516	  0.000000	  0.000000	  0.000000	  0.064516	  0.032258	  0.032258	  0.000000	  0.000000	
  0.032258	  0.000000	  0.000000	  0.000000	  0.258065	  0.000000	  0.000000	  0.000000	  0.000000	  0.677419	  0.032258	  0.000000	  0.000000	  0.000000	  0.000000	  0.000000	  0.000000	  0.000000	  0.000000	  0.000000	
  0.064516	  0.032258	  0.000000	  0.000000	  0.032258	  0.000000	  0.000000	  0.000000	  0.000000	  0.000000	  0.096774	  0.000000	  0.000000	  0.000000	  0.000000	  0.225806	  0.387097	  0.161290	  0.000000	  0.000000	
  0.000000	  0.000000	  0.032258	  0.225806	  0.000000	  0.000000	  0.064516	  0.000000	  0.193548	  0.032258	  0.000000	  0.000000	  0.000000	  0.064516	  0.290323	  0.096774	  0.000000	  0.000000	  0.000000	  0.000000	
  0.193548	  0.032258	  0.000000	  0.064516	  0.000000	  0.064516	  0.000000	  0.032258	  0.000000	  0.032258	  0.000000	  0.032258	  0.000000	  0.000000	  0.000000	  0.322581	  0.161290	  0.064516	  0.000000	  0.000000	
  0.129032	  0.000000	  0.000000	  0.000000	  0.000000	  0.000000	  0.032258	  0.032258	  0.000000	  0.451613	  0.193548	  0.000000	  0.000000	  0.000000	  0.000000	  0.000000	  0.064516	  0.032258	  0.032258	  0.032258	

MOTIF EDFDRVIDVNLTGVF MEME-6

letter-probability matrix: alength= 20 w= 15 nsites= 31 E= 5.9e-044
  0.129032	  0.000000	  0.258065	  0.258065	  0.000000	  0.064516	  0.064516	  0.032258	  0.000000	  0.000000	  0.000000	  0.000000	  0.032258	  0.064516	  0.000000	  0.064516	  0.032258	  0.000000	  0.000000	  0.000000	
  0.096774	  0.000000	  0.322581	  0.161290	  0.000000	  0.032258	  0.032258	  0.032258	  0.000000	  0.000000	  0.000000	  0.000000	  0.000000	  0.064516	  0.096774	  0.032258	  0.096774	  0.032258	  0.000000	  0.000000	
  0.064516	  0.000000	  0.000000	  0.000000	  0.354839	  0.000000	  0.000000	  0.064516	  0.000000	  0.000000	  0.032258	  0.000000	  0.000000	  0.000000	  0.000000	  0.000000	  0.000000	  0.129032	  0.290323	  0.064516	
  0.064516	  0.000000	  0.290323	  0.193548	  0.000000	  0.032258	  0.032258	  0.000000	  0.096774	  0.000000	  0.032258	  0.032258	  0.000000	  0.064516	  0.129032	  0.032258	  0.000000	  0.000000	  0.000000	  0.000000	
  0.000000	  0.000000	  0.000000	  0.064516	  0.000000	  0.032258	  0.032258	  0.064516	  0.096774	  0.032258	  0.000000	  0.032258	  0.000000	  0.129032	  0.354839	  0.096774	  0.000000	  0.032258	  0.032258	  0.000000	
  0.032258	  0.032258	  0.000000	  0.000000	  0.032258	  0.000000	  0.000000	  0.129032	  0.000000	  0.096774	  0.032258	  0.000000	  0.000000	  0.032258	  0.000000	  0.129032	  0.129032	  0.322581	  0.000000	  0.032258	
  0.032258	  0.000000	  0.000000	  0.000000	  0.161290	  0.000000	  0.000000	  0.258065	  0.000000	  0.161290	  0.161290	  0.000000	  0.000000	  0.032258	  0.000000	  0.000000	  0.000000	  0.096774	  0.032258	  0.064516	
  0.096774	  0.000000	  0.225806	  0.129032	  0.000000	  0.064516	  0.129032	  0.000000	  0.064516	  0.000000	  0.000000	  0.032258	  0.000000	  0.096774	  0.032258	  0.064516	  0.032258	  0.000000	  0.000000	  0.032258	
  0.000000	  0.032258	  0.000000	  0.000000	  0.000000	  0.000000	  0.000000	  0.290323	  0.000000	  0.096774	  0.000000	  0.000000	  0.000000	  0.000000	  0.000000	  0.000000	  0.161290	  0.419355	  0.000000	  0.000000	
  0.000000	  0.000000	  0.000000	  0.000000	  0.000000	  0.000000	  0.032258	  0.000000	  0.000000	  0.000000	  0.000000	  0.967742	  0.000000	  0.000000	  0.000000	  0.000000	  0.000000	  0.000000	  0.000000	  0.000000	
  0.032258	  0.032258	  0.000000	  0.000000	  0.096774	  0.000000	  0.032258	  0.129032	  0.000000	  0.322581	  0.032258	  0.000000	  0.000000	  0.000000	  0.000000	  0.000000	  0.032258	  0.225806	  0.000000	  0.064516	
  0.000000	  0.000000	  0.000000	  0.032258	  0.096774	  0.032258	  0.000000	  0.032258	  0.096774	  0.129032	  0.032258	  0.064516	  0.000000	  0.000000	  0.032258	  0.000000	  0.258065	  0.161290	  0.032258	  0.000000	
  0.129032	  0.000000	  0.000000	  0.000000	  0.000000	  0.709677	  0.000000	  0.000000	  0.000000	  0.000000	  0.000000	  0.000000	  0.000000	  0.000000	  0.000000	  0.161290	  0.000000	  0.000000	  0.000000	  0.000000	
  0.129032	  0.000000	  0.000000	  0.000000	  0.032258	  0.000000	  0.032258	  0.000000	  0.000000	  0.032258	  0.032258	  0.000000	  0.096774	  0.000000	  0.000000	  0.032258	  0.225806	  0.290323	  0.000000	  0.096774	
  0.032258	  0.000000	  0.000000	  0.000000	  0.451613	  0.000000	  0.000000	  0.129032	  0.000000	  0.096774	  0.000000	  0.000000	  0.000000	  0.000000	  0.032258	  0.000000	  0.000000	  0.225806	  0.000000	  0.032258	

MOTIF LGRLDVLVNNAGI MEME-3

letter-probability matrix: alength= 20 w= 13 nsites= 30 E= 1.3e-089
  0.033333	  0.000000	  0.033333	  0.100000	  0.166667	  0.066667	  0.000000	  0.033333	  0.000000	  0.233333	  0.033333	  0.000000	  0.033333	  0.000000	  0.000000	  0.000000	  0.100000	  0.000000	  0.033333	  0.133333	
  0.033333	  0.000000	  0.000000	  0.066667	  0.000000	  0.733333	  0.000000	  0.000000	  0.066667	  0.033333	  0.033333	  0.000000	  0.000000	  0.000000	  0.033333	  0.000000	  0.000000	  0.000000	  0.000000	  0.000000	
  0.000000	  0.000000	  0.033333	  0.033333	  0.000000	  0.233333	  0.000000	  0.000000	  0.133333	  0.000000	  0.000000	  0.000000	  0.200000	  0.000000	  0.233333	  0.033333	  0.100000	  0.000000	  0.000000	  0.000000	
  0.000000	  0.033333	  0.000000	  0.000000	  0.033333	  0.000000	  0.000000	  0.166667	  0.000000	  0.366667	  0.033333	  0.000000	  0.000000	  0.000000	  0.000000	  0.000000	  0.000000	  0.366667	  0.000000	  0.000000	
  0.000000	  0.000000	  0.800000	  0.000000	  0.000000	  0.033333	  0.033333	  0.000000	  0.000000	  0.000000	  0.000000	  0.066667	  0.000000	  0.000000	  0.000000	  0.000000	  0.000000	  0.000000	  0.066667	  0.000000	
  0.133333	  0.000000	  0.000000	  0.000000	  0.000000	  0.100000	  0.000000	  0.200000	  0.000000	  0.100000	  0.066667	  0.000000	  0.000000	  0.000000	  0.000000	  0.000000	  0.033333	  0.366667	  0.000000	  0.000000	
  0.000000	  0.000000	  0.000000	  0.000000	  0.033333	  0.000000	  0.000000	  0.066667	  0.000000	  0.733333	  0.066667	  0.000000	  0.000000	  0.000000	  0.000000	  0.000000	  0.033333	  0.066667	  0.000000	  0.000000	
  0.000000	  0.000000	  0.000000	  0.000000	  0.033333	  0.033333	  0.033333	  0.300000	  0.000000	  0.000000	  0.000000	  0.000000	  0.000000	  0.000000	  0.000000	  0.000000	  0.000000	  0.600000	  0.000000	  0.000000	
  0.066667	  0.033333	  0.000000	  0.000000	  0.000000	  0.000000	  0.000000	  0.000000	  0.000000	  0.066667	  0.000000	  0.766667	  0.033333	  0.000000	  0.000000	  0.000000	  0.000000	  0.000000	  0.000000	  0.033333	
  0.033333	  0.033333	  0.000000	  0.000000	  0.000000	  0.033333	  0.000000	  0.000000	  0.000000	  0.000000	  0.000000	  0.866667	  0.000000	  0.000000	  0.000000	  0.033333	  0.000000	  0.000000	  0.000000	  0.000000	
  0.900000	  0.000000	  0.000000	  0.000000	  0.000000	  0.000000	  0.033333	  0.000000	  0.000000	  0.000000	  0.000000	  0.000000	  0.000000	  0.000000	  0.000000	  0.000000	  0.033333	  0.033333	  0.000000	  0.000000	
  0.066667	  0.000000	  0.000000	  0.000000	  0.000000	  0.866667	  0.000000	  0.033333	  0.000000	  0.000000	  0.000000	  0.000000	  0.000000	  0.000000	  0.000000	  0.033333	  0.000000	  0.000000	  0.000000	  0.000000	
  0.033333	  0.000000	  0.000000	  0.000000	  0.000000	  0.033333	  0.000000	  0.466667	  0.000000	  0.066667	  0.100000	  0.000000	  0.000000	  0.000000	  0.000000	  0.033333	  0.033333	  0.166667	  0.000000	  0.066667	

MOTIF RRKSGRIVNVSSVAG MEME-4

letter-probability matrix: alength= 20 w= 15 nsites= 28 E= 3.0e-053
  0.071429	  0.000000	  0.178571	  0.214286	  0.000000	  0.035714	  0.000000	  0.035714	  0.107143	  0.000000	  0.000000	  0.035714	  0.000000	  0.000000	  0.250000	  0.071429	  0.000000	  0.000000	  0.000000	  0.000000	
  0.107143	  0.000000	  0.035714	  0.035714	  0.000000	  0.214286	  0.000000	  0.000000	  0.107143	  0.000000	  0.000000	  0.035714	  0.000000	  0.142857	  0.250000	  0.000000	  0.035714	  0.000000	  0.000000	  0.035714	
  0.071429	  0.000000	  0.000000	  0.000000	  0.000000	  0.142857	  0.035714	  0.071429	  0.178571	  0.000000	  0.000000	  0.000000	  0.107143	  0.071429	  0.178571	  0.071429	  0.035714	  0.035714	  0.000000	  0.000000	
  0.035714	  0.000000	  0.000000	  0.000000	  0.035714	  0.214286	  0.000000	  0.000000	  0.178571	  0.000000	  0.000000	  0.071429	  0.071429	  0.071429	  0.035714	  0.250000	  0.000000	  0.035714	  0.000000	  0.000000	
  0.035714	  0.000000	  0.000000	  0.000000	  0.000000	  0.928571	  0.000000	  0.000000	  0.035714	  0.000000	  0.000000	  0.000000	  0.000000	  0.000000	  0.000000	  0.000000	  0.000000	  0.000000	  0.000000	  0.000000	
  0.035714	  0.000000	  0.071429	  0.000000	  0.000000	  0.000000	  0.107143	  0.035714	  0.035714	  0.035714	  0.000000	  0.000000	  0.000000	  0.000000	  0.392857	  0.178571	  0.035714	  0.071429	  0.000000	  0.000000	
  0.000000	  0.000000	  0.000000	  0.000000	  0.000000	  0.000000	  0.000000	  0.750000	  0.000000	  0.107143	  0.000000	  0.000000	  0.000000	  0.000000	  0.000000	  0.000000	  0.000000	  0.142857	  0.000000	  0.000000	
  0.000000	  0.035714	  0.000000	  0.000000	  0.000000	  0.000000	  0.000000	  0.392857	  0.000000	  0.107143	  0.000000	  0.000000	  0.000000	  0.000000	  0.000000	  0.000000	  0.000000	  0.464286	  0.000000	  0.000000	
  0.035714	  0.000000	  0.000000	  0.000000	  0.071429	  0.035714	  0.000000	  0.035714	  0.000000	  0.000000	  0.000000	  0.571429	  0.000000	  0.035714	  0.000000	  0.000000	  0.142857	  0.071429	  0.000000	  0.000000	
  0.035714	  0.000000	  0.000000	  0.000000	  0.000000	  0.000000	  0.000000	  0.357143	  0.000000	  0.000000	  0.071429	  0.000000	  0.000000	  0.000000	  0.000000	  0.000000	  0.142857	  0.392857	  0.000000	  0.000000	
  0.142857	  0.035714	  0.000000	  0.000000	  0.000000	  0.142857	  0.000000	  0.000000	  0.000000	  0.000000	  0.000000	  0.071429	  0.000000	  0.000000	  0.000000	  0.464286	  0.142857	  0.000000	  0.000000	  0.000000	
  0.000000	  0.000000	  0.000000	  0.000000	  0.000000	  0.000000	  0.000000	  0.000000	  0.000000	  0.000000	  0.000000	  0.000000	  0.000000	  0.000000	  0.000000	  0.964286	  0.000000	  0.035714	  0.000000	  0.000000	
  0.035714	  0.000000	  0.035714	  0.000000	  0.000000	  0.035714	  0.000000	  0.142857	  0.035714	  0.107143	  0.178571	  0.000000	  0.000000	  0.071429	  0.000000	  0.000000	  0.071429	  0.285714	  0.000000	  0.000000	
  0.428571	  0.000000	  0.000000	  0.000000	  0.000000	  0.107143	  0.035714	  0.035714	  0.000000	  0.035714	  0.035714	  0.035714	  0.000000	  0.000000	  0.000000	  0.142857	  0.107143	  0.035714	  0.000000	  0.000000	
  0.142857	  0.000000	  0.000000	  0.035714	  0.000000	  0.714286	  0.000000	  0.000000	  0.000000	  0.000000	  0.000000	  0.000000	  0.000000	  0.000000	  0.000000	  0.107143	  0.000000	  0.000000	  0.000000	  0.000000	

MOTIF TGIRVNSVAPG MEME-5

letter-probability matrix: alength= 20 w= 11 nsites= 25 E= 1.5e-032
  0.000000	  0.000000	  0.080000	  0.040000	  0.000000	  0.000000	  0.120000	  0.000000	  0.120000	  0.120000	  0.000000	  0.040000	  0.040000	  0.000000	  0.040000	  0.040000	  0.160000	  0.000000	  0.040000	  0.160000	
  0.040000	  0.000000	  0.000000	  0.000000	  0.000000	  0.520000	  0.000000	  0.000000	  0.080000	  0.000000	  0.000000	  0.240000	  0.000000	  0.040000	  0.040000	  0.000000	  0.000000	  0.000000	  0.000000	  0.040000	
  0.000000	  0.000000	  0.000000	  0.000000	  0.000000	  0.000000	  0.000000	  0.720000	  0.000000	  0.000000	  0.000000	  0.000000	  0.000000	  0.000000	  0.000000	  0.000000	  0.000000	  0.280000	  0.000000	  0.000000	
  0.000000	  0.000000	  0.000000	  0.000000	  0.000000	  0.040000	  0.000000	  0.000000	  0.120000	  0.040000	  0.000000	  0.000000	  0.000000	  0.000000	  0.600000	  0.000000	  0.200000	  0.000000	  0.000000	  0.000000	
  0.040000	  0.040000	  0.000000	  0.000000	  0.040000	  0.000000	  0.000000	  0.000000	  0.000000	  0.040000	  0.000000	  0.000000	  0.000000	  0.000000	  0.000000	  0.000000	  0.040000	  0.800000	  0.000000	  0.000000	
  0.120000	  0.000000	  0.000000	  0.000000	  0.000000	  0.040000	  0.040000	  0.000000	  0.000000	  0.000000	  0.000000	  0.560000	  0.000000	  0.000000	  0.000000	  0.120000	  0.040000	  0.040000	  0.000000	  0.040000	
  0.200000	  0.080000	  0.000000	  0.000000	  0.000000	  0.200000	  0.000000	  0.040000	  0.000000	  0.000000	  0.000000	  0.040000	  0.000000	  0.000000	  0.000000	  0.240000	  0.080000	  0.120000	  0.000000	  0.000000	
  0.000000	  0.080000	  0.000000	  0.000000	  0.040000	  0.000000	  0.000000	  0.320000	  0.000000	  0.120000	  0.000000	  0.000000	  0.000000	  0.000000	  0.000000	  0.000000	  0.000000	  0.440000	  0.000000	  0.000000	
  0.200000	  0.080000	  0.000000	  0.040000	  0.000000	  0.120000	  0.080000	  0.000000	  0.000000	  0.040000	  0.040000	  0.080000	  0.000000	  0.040000	  0.000000	  0.080000	  0.080000	  0.000000	  0.000000	  0.120000	
  0.040000	  0.000000	  0.000000	  0.000000	  0.000000	  0.000000	  0.000000	  0.000000	  0.000000	  0.040000	  0.000000	  0.000000	  0.920000	  0.000000	  0.000000	  0.000000	  0.000000	  0.000000	  0.000000	  0.000000	
  0.080000	  0.000000	  0.040000	  0.000000	  0.000000	  0.760000	  0.040000	  0.000000	  0.000000	  0.000000	  0.000000	  0.000000	  0.000000	  0.000000	  0.000000	  0.040000	  0.040000	  0.000000	  0.000000	  0.000000	

MOTIF AKALAEAGAKVVVAD MEME-9

letter-probability matrix: alength= 20 w= 15 nsites= 16 E= 8.0e-003
  0.750000	  0.062500	  0.000000	  0.000000	  0.000000	  0.000000	  0.000000	  0.000000	  0.000000	  0.000000	  0.000000	  0.000000	  0.000000	  0.000000	  0.000000	  0.000000	  0.000000	  0.187500	  0.000000	  0.000000	
  0.000000	  0.000000	  0.000000	  0.062500	  0.000000	  0.000000	  0.062500	  0.125000	  0.375000	  0.187500	  0.000000	  0.000000	  0.000000	  0.000000	  0.125000	  0.000000	  0.000000	  0.000000	  0.000000	  0.062500	
  0.250000	  0.000000	  0.000000	  0.000000	  0.000000	  0.062500	  0.062500	  0.062500	  0.000000	  0.125000	  0.000000	  0.000000	  0.000000	  0.062500	  0.125000	  0.000000	  0.125000	  0.062500	  0.062500	  0.000000	
  0.062500	  0.000000	  0.000000	  0.000000	  0.375000	  0.000000	  0.000000	  0.000000	  0.000000	  0.500000	  0.000000	  0.000000	  0.000000	  0.000000	  0.000000	  0.000000	  0.000000	  0.000000	  0.000000	  0.062500	
  0.437500	  0.000000	  0.000000	  0.000000	  0.000000	  0.062500	  0.062500	  0.062500	  0.000000	  0.187500	  0.000000	  0.000000	  0.000000	  0.000000	  0.000000	  0.000000	  0.000000	  0.187500	  0.000000	  0.000000	
  0.187500	  0.000000	  0.062500	  0.187500	  0.000000	  0.125000	  0.000000	  0.000000	  0.187500	  0.000000	  0.000000	  0.000000	  0.000000	  0.062500	  0.062500	  0.000000	  0.125000	  0.000000	  0.000000	  0.000000	
  0.312500	  0.000000	  0.062500	  0.250000	  0.000000	  0.000000	  0.000000	  0.000000	  0.062500	  0.000000	  0.062500	  0.062500	  0.000000	  0.000000	  0.000000	  0.125000	  0.000000	  0.000000	  0.000000	  0.062500	
  0.000000	  0.000000	  0.000000	  0.000000	  0.000000	  0.937500	  0.000000	  0.000000	  0.062500	  0.000000	  0.000000	  0.000000	  0.000000	  0.000000	  0.000000	  0.000000	  0.000000	  0.000000	  0.000000	  0.000000	
  0.812500	  0.000000	  0.000000	  0.000000	  0.062500	  0.000000	  0.000000	  0.000000	  0.062500	  0.000000	  0.000000	  0.000000	  0.000000	  0.000000	  0.000000	  0.000000	  0.000000	  0.000000	  0.000000	  0.062500	
  0.062500	  0.000000	  0.000000	  0.000000	  0.000000	  0.000000	  0.062500	  0.000000	  0.562500	  0.000000	  0.000000	  0.000000	  0.000000	  0.000000	  0.125000	  0.125000	  0.000000	  0.000000	  0.062500	  0.000000	
  0.000000	  0.000000	  0.000000	  0.000000	  0.000000	  0.000000	  0.062500	  0.062500	  0.000000	  0.062500	  0.000000	  0.000000	  0.000000	  0.000000	  0.000000	  0.000000	  0.000000	  0.812500	  0.000000	  0.000000	
  0.187500	  0.000000	  0.000000	  0.000000	  0.000000	  0.000000	  0.000000	  0.000000	  0.000000	  0.000000	  0.000000	  0.000000	  0.000000	  0.000000	  0.000000	  0.062500	  0.062500	  0.687500	  0.000000	  0.000000	
  0.125000	  0.000000	  0.000000	  0.000000	  0.062500	  0.062500	  0.000000	  0.187500	  0.000000	  0.187500	  0.000000	  0.000000	  0.000000	  0.000000	  0.000000	  0.000000	  0.000000	  0.375000	  0.000000	  0.000000	
  0.250000	  0.000000	  0.000000	  0.000000	  0.125000	  0.000000	  0.000000	  0.062500	  0.000000	  0.000000	  0.125000	  0.125000	  0.000000	  0.000000	  0.000000	  0.125000	  0.062500	  0.125000	  0.000000	  0.000000	
  0.187500	  0.000000	  0.625000	  0.000000	  0.000000	  0.062500	  0.000000	  0.000000	  0.000000	  0.000000	  0.000000	  0.000000	  0.000000	  0.000000	  0.000000	  0.000000	  0.062500	  0.000000	  0.000000	  0.062500	

MOTIF FLASDLASYITGQTI MEME-7

letter-probability matrix: alength= 20 w= 15 nsites= 13 E= 7.8e-027
  0.000000	  0.000000	  0.000000	  0.000000	  0.769231	  0.000000	  0.000000	  0.000000	  0.076923	  0.000000	  0.000000	  0.000000	  0.000000	  0.000000	  0.000000	  0.000000	  0.000000	  0.000000	  0.076923	  0.076923	
  0.000000	  0.000000	  0.000000	  0.000000	  0.000000	  0.000000	  0.000000	  0.000000	  0.000000	  0.923077	  0.000000	  0.000000	  0.000000	  0.000000	  0.000000	  0.000000	  0.000000	  0.000000	  0.000000	  0.076923	
  0.538462	  0.307692	  0.000000	  0.000000	  0.000000	  0.000000	  0.000000	  0.000000	  0.000000	  0.153846	  0.000000	  0.000000	  0.000000	  0.000000	  0.000000	  0.000000	  0.000000	  0.000000	  0.000000	  0.000000	
  0.000000	  0.000000	  0.000000	  0.076923	  0.000000	  0.000000	  0.000000	  0.000000	  0.000000	  0.000000	  0.000000	  0.000000	  0.000000	  0.000000	  0.000000	  0.923077	  0.000000	  0.000000	  0.000000	  0.000000	
  0.000000	  0.000000	  0.692308	  0.000000	  0.000000	  0.000000	  0.000000	  0.000000	  0.000000	  0.000000	  0.000000	  0.000000	  0.153846	  0.000000	  0.000000	  0.153846	  0.000000	  0.000000	  0.000000	  0.000000	
  0.153846	  0.000000	  0.000000	  0.153846	  0.000000	  0.076923	  0.076923	  0.000000	  0.153846	  0.230769	  0.000000	  0.000000	  0.000000	  0.000000	  0.076923	  0.000000	  0.076923	  0.000000	  0.000000	  0.000000	
  0.615385	  0.000000	  0.000000	  0.000000	  0.000000	  0.000000	  0.000000	  0.000000	  0.000000	  0.000000	  0.000000	  0.000000	  0.000000	  0.000000	  0.000000	  0.384615	  0.000000	  0.000000	  0.000000	  0.000000	
  0.230769	  0.000000	  0.000000	  0.000000	  0.000000	  0.000000	  0.000000	  0.000000	  0.076923	  0.000000	  0.000000	  0.000000	  0.000000	  0.000000	  0.000000	  0.692308	  0.000000	  0.000000	  0.000000	  0.000000	
  0.000000	  0.000000	  0.000000	  0.000000	  0.076923	  0.153846	  0.076923	  0.000000	  0.000000	  0.000000	  0.000000	  0.000000	  0.000000	  0.000000	  0.000000	  0.076923	  0.000000	  0.076923	  0.076923	  0.461538	
  0.000000	  0.076923	  0.000000	  0.000000	  0.000000	  0.000000	  0.000000	  0.384615	  0.000000	  0.000000	  0.076923	  0.000000	  0.000000	  0.000000	  0.000000	  0.000000	  0.076923	  0.384615	  0.000000	  0.000000	
  0.000000	  0.000000	  0.000000	  0.000000	  0.000000	  0.000000	  0.000000	  0.000000	  0.000000	  0.000000	  0.000000	  0.000000	  0.000000	  0.000000	  0.000000	  0.307692	  0.692308	  0.000000	  0.000000	  0.000000	
  0.076923	  0.000000	  0.000000	  0.000000	  0.000000	  0.846154	  0.000000	  0.000000	  0.000000	  0.076923	  0.000000	  0.000000	  0.000000	  0.000000	  0.000000	  0.000000	  0.000000	  0.000000	  0.000000	  0.000000	
  0.153846	  0.000000	  0.000000	  0.076923	  0.000000	  0.153846	  0.000000	  0.076923	  0.000000	  0.000000	  0.000000	  0.000000	  0.000000	  0.307692	  0.000000	  0.076923	  0.153846	  0.000000	  0.000000	  0.000000	
  0.000000	  0.076923	  0.076923	  0.230769	  0.000000	  0.076923	  0.000000	  0.076923	  0.000000	  0.000000	  0.000000	  0.000000	  0.000000	  0.000000	  0.000000	  0.076923	  0.307692	  0.076923	  0.000000	  0.000000	
  0.000000	  0.000000	  0.000000	  0.000000	  0.000000	  0.000000	  0.000000	  0.384615	  0.000000	  0.307692	  0.000000	  0.000000	  0.000000	  0.000000	  0.000000	  0.000000	  0.000000	  0.307692	  0.000000	  0.000000	

MOTIF IPJRRIGEPEEVAN MEME-8

letter-probability matrix: alength= 20 w= 14 nsites= 10 E= 3.2e-002
  0.000000	  0.000000	  0.000000	  0.000000	  0.000000	  0.000000	  0.100000	  0.400000	  0.000000	  0.100000	  0.000000	  0.000000	  0.000000	  0.000000	  0.000000	  0.000000	  0.200000	  0.200000	  0.000000	  0.000000	
  0.100000	  0.000000	  0.000000	  0.000000	  0.000000	  0.000000	  0.000000	  0.000000	  0.000000	  0.000000	  0.000000	  0.000000	  0.900000	  0.000000	  0.000000	  0.000000	  0.000000	  0.000000	  0.000000	  0.000000	
  0.000000	  0.000000	  0.000000	  0.000000	  0.000000	  0.000000	  0.000000	  0.300000	  0.000000	  0.500000	  0.200000	  0.000000	  0.000000	  0.000000	  0.000000	  0.000000	  0.000000	  0.000000	  0.000000	  0.000000	
  0.000000	  0.000000	  0.000000	  0.000000	  0.000000	  0.300000	  0.100000	  0.000000	  0.200000	  0.000000	  0.000000	  0.000000	  0.000000	  0.000000	  0.400000	  0.000000	  0.000000	  0.000000	  0.000000	  0.000000	
  0.000000	  0.000000	  0.000000	  0.000000	  0.000000	  0.000000	  0.000000	  0.000000	  0.200000	  0.000000	  0.000000	  0.000000	  0.000000	  0.000000	  0.700000	  0.000000	  0.000000	  0.000000	  0.000000	  0.100000	
  0.000000	  0.000000	  0.000000	  0.000000	  0.100000	  0.100000	  0.000000	  0.200000	  0.000000	  0.100000	  0.200000	  0.000000	  0.100000	  0.000000	  0.000000	  0.000000	  0.100000	  0.100000	  0.000000	  0.000000	
  0.200000	  0.100000	  0.000000	  0.000000	  0.000000	  0.500000	  0.000000	  0.000000	  0.000000	  0.100000	  0.000000	  0.000000	  0.000000	  0.000000	  0.000000	  0.000000	  0.000000	  0.100000	  0.000000	  0.000000	
  0.000000	  0.000000	  0.100000	  0.300000	  0.000000	  0.000000	  0.000000	  0.000000	  0.000000	  0.100000	  0.000000	  0.000000	  0.000000	  0.100000	  0.100000	  0.000000	  0.300000	  0.000000	  0.000000	  0.000000	
  0.000000	  0.000000	  0.000000	  0.000000	  0.000000	  0.100000	  0.000000	  0.100000	  0.000000	  0.000000	  0.000000	  0.000000	  0.600000	  0.000000	  0.000000	  0.000000	  0.000000	  0.100000	  0.000000	  0.100000	
  0.000000	  0.000000	  0.100000	  0.500000	  0.000000	  0.000000	  0.000000	  0.000000	  0.000000	  0.000000	  0.000000	  0.000000	  0.000000	  0.300000	  0.000000	  0.000000	  0.100000	  0.000000	  0.000000	  0.000000	
  0.000000	  0.000000	  0.400000	  0.600000	  0.000000	  0.000000	  0.000000	  0.000000	  0.000000	  0.000000	  0.000000	  0.000000	  0.000000	  0.000000	  0.000000	  0.000000	  0.000000	  0.000000	  0.000000	  0.000000	
  0.000000	  0.000000	  0.000000	  0.000000	  0.000000	  0.000000	  0.000000	  0.400000	  0.000000	  0.000000	  0.000000	  0.000000	  0.000000	  0.000000	  0.000000	  0.000000	  0.000000	  0.600000	  0.000000	  0.000000	
  0.700000	  0.000000	  0.000000	  0.000000	  0.000000	  0.100000	  0.000000	  0.000000	  0.000000	  0.100000	  0.000000	  0.000000	  0.000000	  0.000000	  0.000000	  0.000000	  0.000000	  0.100000	  0.000000	  0.000000	
  0.100000	  0.000000	  0.000000	  0.000000	  0.000000	  0.000000	  0.000000	  0.000000	  0.100000	  0.000000	  0.000000	  0.600000	  0.000000	  0.000000	  0.000000	  0.100000	  0.100000	  0.000000	  0.000000	  0.000000	

