motif_ID	motif_ALT_ID	seq_ID	site_Start	site_End	site_Strand	site_Score	site_Sequence
1-VTTATC	STREME-1	6	47463885	47463890	-	11.25	GTTATC
1-VTTATC	STREME-1	1	160783028	160783033	-	11.25	GTTATC
1-VTTATC	STREME-1	3	15105302	15105307	+	11.25	GTTATC
1-VTTATC	STREME-1	3	40494738	40494743	+	11.25	GTTATC
1-VTTATC	STREME-1	1	206990375	206990380	-	11.25	GTTATC
1-VTTATC	STREME-1	4	164201824	164201829	-	11.25	GTTATC
1-VTTATC	STREME-1	16	53089471	53089476	-	11.25	GTTATC
1-VTTATC	STREME-1	7	86633741	86633746	-	11.25	GTTATC
1-VTTATC	STREME-1	1	205296171	205296176	+	11.25	GTTATC
1-VTTATC	STREME-1	7	98822009	98822014	+	11.25	GTTATC
1-VTTATC	STREME-1	4	25863149	25863154	-	11.25	GTTATC
1-VTTATC	STREME-1	2	170766872	170766877	-	11.25	GTTATC
1-VTTATC	STREME-1	19	10197160	10197165	-	11.25	GTTATC
1-VTTATC	STREME-1	6	42167065	42167070	-	11.25	GTTATC
1-VTTATC	STREME-1	19	35880334	35880339	+	11.25	GTTATC
1-VTTATC	STREME-1	10	75215950	75215955	-	11.25	GTTATC
1-VTTATC	STREME-1	10	29194940	29194945	+	11.25	GTTATC
1-VTTATC	STREME-1	5	81716423	81716428	+	11.25	GTTATC
1-VTTATC	STREME-1	17	79671158	79671163	-	11.25	GTTATC
1-VTTATC	STREME-1	5	138738259	138738264	-	11.25	GTTATC
1-VTTATC	STREME-1	3	183060587	183060592	+	11.25	GTTATC
1-VTTATC	STREME-1	1	223981883	223981888	+	11.25	GTTATC
1-VTTATC	STREME-1	10	115613892	115613897	+	11.25	GTTATC
1-VTTATC	STREME-1	6	37865588	37865593	+	11.25	GTTATC
1-VTTATC	STREME-1	5	14326584	14326589	-	11.25	GTTATC
1-VTTATC	STREME-1	5	70681027	70681032	+	11.25	GTTATC
1-VTTATC	STREME-1	5	70681101	70681106	-	11.25	GTTATC
1-VTTATC	STREME-1	7	92635732	92635737	-	11.25	GTTATC
1-VTTATC	STREME-1	7	92635800	92635805	-	11.25	GTTATC
1-VTTATC	STREME-1	12	68763935	68763940	-	11.25	GTTATC
1-VTTATC	STREME-1	8	144015842	144015847	-	11.25	GTTATC
1-VTTATC	STREME-1	17	1391747	1391752	+	11.25	GTTATC
1-VTTATC	STREME-1	8	41680587	41680592	-	11.20	CTTATC
1-VTTATC	STREME-1	1	44513922	44513927	-	11.20	CTTATC
1-VTTATC	STREME-1	3	38028428	38028433	-	11.20	CTTATC
1-VTTATC	STREME-1	1	87459391	87459396	-	11.20	CTTATC
1-VTTATC	STREME-1	8	125640353	125640358	+	11.20	CTTATC
1-VTTATC	STREME-1	17	35969240	35969245	+	11.20	CTTATC
1-VTTATC	STREME-1	17	66015862	66015867	+	11.20	CTTATC
1-VTTATC	STREME-1	20	31253118	31253123	-	11.20	CTTATC
1-VTTATC	STREME-1	21	21630892	21630897	+	11.20	CTTATC
1-VTTATC	STREME-1	1	205296226	205296231	-	11.20	CTTATC
1-VTTATC	STREME-1	1	29210339	29210344	-	11.20	CTTATC
1-VTTATC	STREME-1	2	170766955	170766960	-	11.20	CTTATC
1-VTTATC	STREME-1	7	106133765	106133770	+	11.20	CTTATC
1-VTTATC	STREME-1	X	10550437	10550442	-	11.20	CTTATC
1-VTTATC	STREME-1	X	10550470	10550475	+	11.20	CTTATC
1-VTTATC	STREME-1	22	19384592	19384597	-	11.20	CTTATC
1-VTTATC	STREME-1	1	172371083	172371088	-	11.20	CTTATC
1-VTTATC	STREME-1	19	49659273	49659278	+	11.20	CTTATC
1-VTTATC	STREME-1	5	132846334	132846339	-	11.20	CTTATC
1-VTTATC	STREME-1	X	148598109	148598114	+	11.20	CTTATC
1-VTTATC	STREME-1	20	32006968	32006973	-	11.20	CTTATC
1-VTTATC	STREME-1	8	22743745	22743750	+	11.20	CTTATC
1-VTTATC	STREME-1	3	46526442	46526447	-	11.20	CTTATC
1-VTTATC	STREME-1	3	33049745	33049750	-	11.20	CTTATC
1-VTTATC	STREME-1	2	202934194	202934199	-	11.20	CTTATC
1-VTTATC	STREME-1	7	22206609	22206614	-	11.20	CTTATC
1-VTTATC	STREME-1	7	22206626	22206631	+	11.20	CTTATC
1-VTTATC	STREME-1	4	8254418	8254423	+	11.20	CTTATC
1-VTTATC	STREME-1	1	234989640	234989645	-	11.20	CTTATC
1-VTTATC	STREME-1	2	202914523	202914528	+	11.20	CTTATC
1-VTTATC	STREME-1	X	151800988	151800993	-	11.20	CTTATC
1-VTTATC	STREME-1	12	9787573	9787578	+	11.20	CTTATC
1-VTTATC	STREME-1	22	20877418	20877423	-	11.20	CTTATC
1-VTTATC	STREME-1	5	53621436	53621441	+	11.20	CTTATC
1-VTTATC	STREME-1	5	53621476	53621481	-	11.20	CTTATC
1-VTTATC	STREME-1	11	97844151	97844156	+	11.20	CTTATC
1-VTTATC	STREME-1	1	160509868	160509873	+	11.20	CTTATC
1-VTTATC	STREME-1	1	160509912	160509917	-	11.20	CTTATC
1-VTTATC	STREME-1	12	23875531	23875536	-	11.20	CTTATC
1-VTTATC	STREME-1	12	23875552	23875557	+	11.20	CTTATC
1-VTTATC	STREME-1	1	46764008	46764013	+	11.20	CTTATC
1-VTTATC	STREME-1	20	50157836	50157841	-	11.20	CTTATC
1-VTTATC	STREME-1	12	50262822	50262827	-	11.20	CTTATC
1-VTTATC	STREME-1	7	26728746	26728751	-	11.20	CTTATC
1-VTTATC	STREME-1	17	26313801	26313806	+	11.20	CTTATC
1-VTTATC	STREME-1	2	106825325	106825330	+	11.20	CTTATC
1-VTTATC	STREME-1	2	106825361	106825366	-	11.20	CTTATC
1-VTTATC	STREME-1	17	61626640	61626645	+	11.20	CTTATC
1-VTTATC	STREME-1	X	129270438	129270443	-	11.20	CTTATC
1-VTTATC	STREME-1	11	64656405	64656410	-	11.20	CTTATC
1-VTTATC	STREME-1	11	64656443	64656448	-	11.20	CTTATC
1-VTTATC	STREME-1	10	13313599	13313604	+	11.20	CTTATC
1-VTTATC	STREME-1	1	205236477	205236482	-	11.20	CTTATC
1-VTTATC	STREME-1	1	22233239	22233244	-	11.20	CTTATC
1-VTTATC	STREME-1	9	34997368	34997373	+	11.20	CTTATC
1-VTTATC	STREME-1	4	164201767	164201772	+	10.97	ATTATC
1-VTTATC	STREME-1	15	80364634	80364639	+	10.97	ATTATC
1-VTTATC	STREME-1	8	125640398	125640403	+	10.97	ATTATC
1-VTTATC	STREME-1	1	58666065	58666070	+	10.97	ATTATC
1-VTTATC	STREME-1	18	29282331	29282336	-	10.97	ATTATC
1-VTTATC	STREME-1	16	3151284	3151289	-	10.97	ATTATC
1-VTTATC	STREME-1	4	68419814	68419819	-	10.97	ATTATC
1-VTTATC	STREME-1	6	42167016	42167021	+	10.97	ATTATC
1-VTTATC	STREME-1	5	75668380	75668385	+	10.97	ATTATC
1-VTTATC	STREME-1	4	81174689	81174694	-	10.97	ATTATC
1-VTTATC	STREME-1	17	62083977	62083982	+	10.97	ATTATC
1-VTTATC	STREME-1	10	119167982	119167987	-	10.97	ATTATC
1-VTTATC	STREME-1	2	200320343	200320348	+	10.97	ATTATC
1-VTTATC	STREME-1	2	138815981	138815986	+	10.97	ATTATC
1-VTTATC	STREME-1	6	43770867	43770872	+	10.97	ATTATC
1-VTTATC	STREME-1	6	37207773	37207778	+	10.97	ATTATC
1-VTTATC	STREME-1	12	32226731	32226736	+	10.97	ATTATC
1-VTTATC	STREME-1	1	111991806	111991811	-	10.97	ATTATC
1-VTTATC	STREME-1	16	88489758	88489763	+	10.97	ATTATC
1-VTTATC	STREME-1	2	217923914	217923919	-	10.97	ATTATC
1-VTTATC	STREME-1	1	52035386	52035391	+	10.97	ATTATC
1-VTTATC	STREME-1	18	3067604	3067609	+	10.97	ATTATC
#
2-CCCCTCCCCT	STREME-2	17	59494103	59494112	-	13.88	CCCCTCCCCT
2-CCCCTCCCCT	STREME-2	6	42946802	42946811	-	13.88	CCCCTCCCCT
2-CCCCTCCCCT	STREME-2	1	212458500	212458509	+	13.16	CCCCTCCCCG
2-CCCCTCCCCT	STREME-2	5	162864477	162864486	+	13.16	CCCCTCCCCG
2-CCCCTCCCCT	STREME-2	10	134973387	134973396	-	12.41	CCCCTCGCCG
2-CCCCTCCCCT	STREME-2	6	56954562	56954571	-	12.41	CCCCTCGCCG
2-CCCCTCCCCT	STREME-2	16	2033345	2033354	-	12.41	CCCCTCGCCG
2-CCCCTCCCCT	STREME-2	1	16173954	16173963	-	12.41	CCCCTCGCCG
2-CCCCTCCCCT	STREME-2	19	50269846	50269855	+	12.35	CCCCTCCCCA
2-CCCCTCCCCT	STREME-2	13	52123175	52123184	-	12.35	CCCCTCCCCA
2-CCCCTCCCCT	STREME-2	20	23338824	23338833	-	12.30	CCCCTCACCT
2-CCCCTCCCCT	STREME-2	1	175115706	175115715	+	12.06	CCCCTCCCTT
2-CCCCTCCCCT	STREME-2	11	97844226	97844235	-	12.06	CCCCTCCCTT
2-CCCCTCCCCT	STREME-2	6	47392171	47392180	+	12.06	CCCCTCCCTT
2-CCCCTCCCCT	STREME-2	3	150439015	150439024	+	12.01	TCCCTCCCCT
2-CCCCTCCCCT	STREME-2	10	13313578	13313587	-	12.01	CCCCACCCCT
2-CCCCTCCCCT	STREME-2	12	48431178	48431187	+	11.72	CCCCTCCCCC
2-CCCCTCCCCT	STREME-2	5	172754059	172754068	-	11.72	CCCCTCCCCC
2-CCCCTCCCCT	STREME-2	9	96928760	96928769	-	11.72	CCCCTCCCCC
2-CCCCTCCCCT	STREME-2	19	1690808	1690817	+	11.65	CCCCGCCCCT
2-CCCCTCCCCT	STREME-2	2	60983154	60983163	-	11.65	CCCCGCCCCT
2-CCCCTCCCCT	STREME-2	11	66080102	66080111	-	11.65	CCCCGCCCCT
2-CCCCTCCCCT	STREME-2	12	53764942	53764951	+	11.47	CCCCTACCCG
2-CCCCTCCCCT	STREME-2	19	50979302	50979311	-	11.43	CCCCTCGCTT
2-CCCCTCCCCT	STREME-2	6	33995396	33995405	-	11.29	CCCCACCCCG
2-CCCCTCCCCT	STREME-2	1	201672005	201672014	+	11.27	CCCGTCCCCA
2-CCCCTCCCCT	STREME-2	1	43312078	43312087	+	11.25	TCCCTCGCCT
2-CCCCTCCCCT	STREME-2	16	2033307	2033316	+	11.22	CCCGACCCCT
2-CCCCTCCCCT	STREME-2	22	44381440	44381449	+	11.19	CGCCTCCCCT
2-CCCCTCCCCT	STREME-2	5	132166191	132166200	-	11.19	CGCCTCCCCT
2-CCCCTCCCCT	STREME-2	22	49448052	49448061	-	11.16	TCCCTCCCGT
2-CCCCTCCCCT	STREME-2	11	1785021	1785030	-	10.93	CCCCGCCCCG
2-CCCCTCCCCT	STREME-2	17	80009531	80009540	+	10.93	CCCCGCCCCG
2-CCCCTCCCCT	STREME-2	9	130742668	130742677	+	10.93	CCCCGCCCCG
2-CCCCTCCCCT	STREME-2	2	132249773	132249782	+	10.93	CCCCGCCCCG
2-CCCCTCCCCT	STREME-2	1	226111815	226111824	+	10.93	CCCCGCCCCG
2-CCCCTCCCCT	STREME-2	1	22263850	22263859	-	10.93	CCCCGCCCCG
2-CCCCTCCCCT	STREME-2	9	34997395	34997404	+	10.87	CTCCTCCCCT
2-CCCCTCCCCT	STREME-2	19	50269813	50269822	+	10.80	CCCCGCCCGT
2-CCCCTCCCCT	STREME-2	7	1209524	1209533	+	10.57	CCCCTCCGCT
2-CCCCTCCCCT	STREME-2	9	96928723	96928732	+	10.57	CCCCTCCGCT
2-CCCCTCCCCT	STREME-2	11	118747454	118747463	-	10.52	CCCCTCTCGT
2-CCCCTCCCCT	STREME-2	11	47429827	47429836	+	10.51	CCCGACCCCG
2-CCCCTCCCCT	STREME-2	1	18805997	18806006	-	10.48	CCCCACCCCA
2-CCCCTCCCCT	STREME-2	3	112359796	112359805	-	10.48	CCCCACCCCA
2-CCCCTCCCCT	STREME-2	10	72968769	72968778	-	10.47	CGCCTCCCCG
2-CCCCTCCCCT	STREME-2	1	28585716	28585725	+	10.47	CGCCTCCCCG
2-CCCCTCCCCT	STREME-2	1	180689079	180689088	-	10.38	CCCCTCTCCT
2-CCCCTCCCCT	STREME-2	9	132597435	132597444	+	10.38	CCCCTCTCCT
2-CCCCTCCCCT	STREME-2	17	7486896	7486905	-	10.35	CGCCTCCCGT
2-CCCCTCCCCT	STREME-2	1	22263844	22263853	-	10.20	CCCGTCCCAT
2-CCCCTCCCCT	STREME-2	10	1102367	1102376	-	10.19	CCCCACCCTT
2-CCCCTCCCCT	STREME-2	5	118656203	118656212	+	10.18	CCCCTCACTT
2-CCCCTCCCCT	STREME-2	1	212458483	212458492	+	10.13	TCCCACCCCT
2-CCCCTCCCCT	STREME-2	6	132834317	132834326	+	10.12	CCCCGCCCCA
2-CCCCTCCCCT	STREME-2	14	99654924	99654933	-	10.12	CCCCGCCCCA
2-CCCCTCCCCT	STREME-2	8	81083566	81083575	+	10.12	CTCCTCGCCT
2-CCCCTCCCCT	STREME-2	6	40106152	40106161	+	10.08	CCCCACACCT
2-CCCCTCCCCT	STREME-2	8	69608102	69608111	-	9.99	CCCCTAACCT
2-CCCCTCCCCT	STREME-2	16	53089489	53089498	+	9.85	CCCCACCCCC
2-CCCCTCCCCT	STREME-2	4	95372819	95372828	-	9.85	CCCCACCCCC
2-CCCCTCCCCT	STREME-2	17	38224880	38224889	-	9.85	CCCCACCCCC
2-CCCCTCCCCT	STREME-2	20	352456	352465	+	9.85	CCCCACCCCC
2-CCCCTCCCCT	STREME-2	4	109113390	109113399	-	9.85	CCCCACCCCC
2-CCCCTCCCCT	STREME-2	5	118656197	118656206	+	9.85	CCCCACCCCC
2-CCCCTCCCCT	STREME-2	8	81083598	81083607	+	9.85	CCCCACCCCC
2-CCCCTCCCCT	STREME-2	10	75692019	75692028	+	9.84	TCCCTCCCGA
2-CCCCTCCCCT	STREME-2	22	19928226	19928235	+	9.84	TCCCTCCCGA
2-CCCCTCCCCT	STREME-2	19	35880317	35880326	-	9.84	CCCCACCCGA
2-CCCCTCCCCT	STREME-2	2	239148493	239148502	+	9.78	TCCCGCCCCT
2-CCCCTCCCCT	STREME-2	18	11732959	11732968	-	9.73	TCCCTCGCCA
2-CCCCTCCCCT	STREME-2	12	104341755	104341764	+	9.69	CCCGTCACCA
2-CCCCTCCCCT	STREME-2	15	42565327	42565336	-	9.69	CCCGTCACCA
2-CCCCTCCCCT	STREME-2	14	23790387	23790396	-	9.69	CCCGTCACCA
2-CCCCTCCCCT	STREME-2	1	26437339	26437348	+	9.68	CCCCACGCCG
2-CCCCTCCCCT	STREME-2	2	25194349	25194358	+	9.64	CCCCTCGGCT
2-CCCCTCCCCT	STREME-2	19	7968512	7968521	-	9.62	CCCCGCACCG
2-CCCCTCCCCT	STREME-2	8	81083610	81083619	-	9.62	CCCGACGCCT
2-CCCCTCCCCT	STREME-2	17	7137709	7137718	+	9.61	CCCCTCCCAA
2-CCCCTCCCCT	STREME-2	10	115613896	115613905	+	9.60	TCCCTACCCG
2-CCCCTCCCCT	STREME-2	16	67926893	67926902	+	9.50	CCCCGACCCG
2-CCCCTCCCCT	STREME-2	16	67926904	67926913	+	9.50	CCCCGACCCG
2-CCCCTCCCCT	STREME-2	19	50269779	50269788	-	9.49	CCCCTCCGCG
2-CCCCTCCCCT	STREME-2	9	130742662	130742671	+	9.49	CCCCGCCCCC
2-CCCCTCCCCT	STREME-2	6	53412626	53412635	+	9.49	CCCCGCCCCC
2-CCCCTCCCCT	STREME-2	11	61334610	61334619	+	9.49	CCCCGCCCCC
2-CCCCTCCCCT	STREME-2	1	877161	877170	-	9.49	CCCCGCCCCC
2-CCCCTCCCCT	STREME-2	9	132597399	132597408	+	9.49	CCCCGCCCCC
2-CCCCTCCCCT	STREME-2	1	205296162	205296171	-	9.43	CCCCTCGCTG
2-CCCCTCCCCT	STREME-2	1	23730275	23730284	-	9.42	TCCCACCCCG
2-CCCCTCCCCT	STREME-2	1	12123130	12123139	-	9.38	CGCCTCCCTT
2-CCCCTCCCCT	STREME-2	12	1639487	1639496	+	9.37	CCCCGACCGT
2-CCCCTCCCCT	STREME-2	1	16046157	16046166	+	9.35	TCCGTCACCT
2-CCCCTCCCCT	STREME-2	8	135724736	135724745	+	9.34	CTCCTCCCCA
2-CCCCTCCCCT	STREME-2	10	75692024	75692033	+	9.30	CCCGACACCT
2-CCCCTCCCCT	STREME-2	7	141354308	141354317	-	9.09	TTCCTCCCCT
2-CCCCTCCCCT	STREME-2	4	95372826	95372835	-	9.09	TCCCTCGCCC
2-CCCCTCCCCT	STREME-2	18	9708108	9708117	-	9.08	CCCCTCGCTC
2-CCCCTCCCCT	STREME-2	6	42946809	42946818	-	9.06	CCCGACCCCC
2-CCCCTCCCCT	STREME-2	6	31165578	31165587	-	9.06	CCCGTCACCC
2-CCCCTCCCCT	STREME-2	6	42167003	42167012	-	9.06	CTCCTCCCTT
2-CCCCTCCCCT	STREME-2	7	141354296	141354305	-	8.97	CCCCTCGCAA
2-CCCCTCCCCT	STREME-2	2	223574189	223574198	-	8.96	CGCCGCCCCT
2-CCCCTCCCCT	STREME-2	7	40174121	40174130	-	8.96	CGCCGCCCCT
2-CCCCTCCCCT	STREME-2	4	53578424	53578433	+	8.95	CCCCGCGCCG
2-CCCCTCCCCT	STREME-2	19	1493225	1493234	-	8.88	CCCCTCCCAC
2-CCCCTCCCCT	STREME-2	14	100138862	100138871	-	8.88	CCCCTCCCAC
#
3-ATGACTCAGCAWDH	STREME-3	9	110870998	110871011	-	21.07	ATGACTCAGCATTT
3-ATGACTCAGCAWDH	STREME-3	3	38368996	38369009	-	20.97	ATGACTCAGCATGT
3-ATGACTCAGCAWDH	STREME-3	13	41753759	41753772	-	20.83	ATGACTCAGCAATT
3-ATGACTCAGCAWDH	STREME-3	5	138606873	138606886	-	20.83	ATGACTCAGCAATT
3-ATGACTCAGCAWDH	STREME-3	10	91350077	91350090	+	20.25	ATGACTCAGCAAGT
3-ATGACTCAGCAWDH	STREME-3	1	160783011	160783024	-	20.09	ATGACTCAGCATGA
3-ATGACTCAGCAWDH	STREME-3	10	13887887	13887900	+	19.90	ATGACTCAGCACAT
3-ATGACTCAGCAWDH	STREME-3	16	77690896	77690909	-	19.52	ATGACTCAGCAACT
3-ATGACTCAGCAWDH	STREME-3	5	75668410	75668423	+	19.40	ATGACTCATCATTT
3-ATGACTCAGCAWDH	STREME-3	3	195648174	195648187	+	19.40	ATGACTCATCATTT
3-ATGACTCAGCAWDH	STREME-3	2	89035415	89035428	+	19.39	GTGACTCAGCATAC
3-ATGACTCAGCAWDH	STREME-3	7	98821992	98822005	-	18.17	ATGAGTCAGCATCT
3-ATGACTCAGCAWDH	STREME-3	14	33126270	33126283	-	18.17	ATGAGTCAGCATCT
3-ATGACTCAGCAWDH	STREME-3	1	149225540	149225553	-	17.93	ATGAGTCAGCAAAC
3-ATGACTCAGCAWDH	STREME-3	16	71021242	71021255	+	17.93	ATGAGTCAGCAAAC
3-ATGACTCAGCAWDH	STREME-3	7	73498810	73498823	+	17.57	ATGACTCATCCTAA
3-ATGACTCAGCAWDH	STREME-3	17	64657457	64657470	+	17.43	ATGACTCATCAGTT
3-ATGACTCAGCAWDH	STREME-3	1	25091926	25091939	+	17.28	ATGACTCAGCAGGA
3-ATGACTCAGCAWDH	STREME-3	5	154062338	154062351	-	16.94	ATGACTCAGCCTCT
3-ATGACTCAGCAWDH	STREME-3	1	44509889	44509902	-	16.46	ATGACTCTGCATTT
3-ATGACTCAGCAWDH	STREME-3	4	25863102	25863115	+	16.34	ATGATTCAGCATTT
3-ATGACTCAGCAWDH	STREME-3	3	195648169	195648182	-	15.94	ATGAGTCATCAAAA
3-ATGACTCAGCAWDH	STREME-3	1	52035407	52035420	-	15.83	ATGACTCAGCCTCC
3-ATGACTCAGCAWDH	STREME-3	5	75668405	75668418	-	15.71	ATGAGTCATCCTAA
3-ATGACTCAGCAWDH	STREME-3	5	132846278	132846291	+	15.53	GTGAGTCAGCAAAA
3-ATGACTCAGCAWDH	STREME-3	22	40030773	40030786	-	15.51	ATGACTCAGCCACC
3-ATGACTCAGCAWDH	STREME-3	1	12123154	12123167	-	15.36	ATGACTCAGGAAAA
3-ATGACTCAGCAWDH	STREME-3	10	59063315	59063328	+	15.21	CTGACTCAGCAAAA
3-ATGACTCAGCAWDH	STREME-3	22	44381387	44381400	-	15.14	CTGACTCAGCAGAT
3-ATGACTCAGCAWDH	STREME-3	13	42163062	42163075	+	15.05	GCGACTCAGCAATT
3-ATGACTCAGCAWDH	STREME-3	19	41085881	41085894	-	14.49	GTGACACAGCATGA
3-ATGACTCAGCAWDH	STREME-3	7	100828437	100828450	-	14.44	ATGACTCACCAGGA
3-ATGACTCAGCAWDH	STREME-3	16	10579609	10579622	-	14.31	GTGACTCAGGATGA
3-ATGACTCAGCAWDH	STREME-3	12	80178167	80178180	-	14.00	GTGACTCAGCTCAT
3-ATGACTCAGCAWDH	STREME-3	12	83409934	83409947	+	13.85	GTGAGTCAGCGTAA
3-ATGACTCAGCAWDH	STREME-3	12	92395921	92395934	+	13.82	ATGAGTCACCCTTT
3-ATGACTCAGCAWDH	STREME-3	3	193368327	193368340	+	13.76	CTCACTCAGCATTT
3-ATGACTCAGCAWDH	STREME-3	12	132347547	132347560	+	13.60	CTGACTCAGCAGTC
3-ATGACTCAGCAWDH	STREME-3	9	137299093	137299106	-	13.49	GTGACACAGCAGTT
3-ATGACTCAGCAWDH	STREME-3	1	161346775	161346788	-	13.32	ATGAGTCACCACGC
3-ATGACTCAGCAWDH	STREME-3	5	96424976	96424989	-	13.16	ATGAGTCAGCAAGG
3-ATGACTCAGCAWDH	STREME-3	3	52095523	52095536	-	13.00	ATGGCTCAGCAAGA
3-ATGACTCAGCAWDH	STREME-3	19	35880299	35880312	-	12.96	ATGACTCATGACTC
3-ATGACTCAGCAWDH	STREME-3	22	27177030	27177043	+	12.94	GTCACACAGCATAC
3-ATGACTCAGCAWDH	STREME-3	10	59063310	59063323	-	12.79	CTGAGTCAGCATCC
3-ATGACTCAGCAWDH	STREME-3	13	52123195	52123208	-	12.79	ATGAGTCATCCCAC
3-ATGACTCAGCAWDH	STREME-3	14	74926281	74926294	-	12.74	ATGACTCAGCCTGG
3-ATGACTCAGCAWDH	STREME-3	6	47463846	47463859	-	12.70	GTGACTTAGCAACA
3-ATGACTCAGCAWDH	STREME-3	15	91384124	91384137	-	12.69	ATGAGTCTGCACAA
3-ATGACTCAGCAWDH	STREME-3	7	28076913	28076926	-	12.54	ATGACTCACCTCTT
3-ATGACTCAGCAWDH	STREME-3	6	30685257	30685270	-	12.41	ATGAGTCAGCGGAC
3-ATGACTCAGCAWDH	STREME-3	6	26026415	26026428	+	12.27	GTCACTCAGCAGGA
3-ATGACTCAGCAWDH	STREME-3	1	228122414	228122427	-	12.15	GTGACTCAGGCTGT
3-ATGACTCAGCAWDH	STREME-3	1	228122446	228122459	-	12.15	GTGACTCAGGCTGT
#
4-CAACCACA	STREME-4	3	52095507	52095514	+	14.59	CAACCACA
4-CAACCACA	STREME-4	6	37865561	37865568	-	14.59	CAACCACA
4-CAACCACA	STREME-4	8	41680574	41680581	-	12.46	CAACCACT
4-CAACCACA	STREME-4	7	148224665	148224672	-	12.46	CAACCACT
4-CAACCACA	STREME-4	16	88016940	88016947	+	12.46	CAACCACT
4-CAACCACA	STREME-4	1	201672060	201672067	+	12.46	CAACCACT
4-CAACCACA	STREME-4	15	75423273	75423280	+	12.46	CAACCACT
4-CAACCACA	STREME-4	5	151137895	151137902	+	12.46	CAACCACT
4-CAACCACA	STREME-4	1	223981893	223981900	-	12.12	TAACCACA
4-CAACCACA	STREME-4	2	242973883	242973890	-	12.12	TAACCACA
4-CAACCACA	STREME-4	4	175202490	175202497	+	12.12	TAACCACA
4-CAACCACA	STREME-4	15	80364626	80364633	+	12.02	CAATCACA
4-CAACCACA	STREME-4	10	72522510	72522517	-	12.02	CAATCACA
4-CAACCACA	STREME-4	9	98266737	98266744	+	12.02	CAATCACA
4-CAACCACA	STREME-4	7	99832853	99832860	+	12.02	CAATCACA
4-CAACCACA	STREME-4	4	8254409	8254416	-	11.71	AAACCACA
4-CAACCACA	STREME-4	15	89545525	89545532	+	11.71	AAACCACA
4-CAACCACA	STREME-4	6	138231658	138231665	+	11.71	AAACCACA
4-CAACCACA	STREME-4	1	110460743	110460750	-	11.71	AAACCACA
4-CAACCACA	STREME-4	20	39871011	39871018	+	11.24	CAAACACA
4-CAACCACA	STREME-4	7	111202498	111202505	+	11.24	CAAACACA
4-CAACCACA	STREME-4	1	111019701	111019708	-	11.24	CAAACACA
4-CAACCACA	STREME-4	19	1690750	1690757	+	11.24	CAAACACA
4-CAACCACA	STREME-4	7	22206584	22206591	+	11.24	CAAACACA
4-CAACCACA	STREME-4	1	10534066	10534073	-	11.24	CAAACACA
4-CAACCACA	STREME-4	4	111119720	111119727	-	11.21	CAACCACC
4-CAACCACA	STREME-4	19	56111246	56111253	-	11.21	CAACCACC
4-CAACCACA	STREME-4	1	44509850	44509857	-	11.00	CAACTACA
4-CAACCACA	STREME-4	17	41393197	41393204	-	10.26	CAACCCCA
4-CAACCACA	STREME-4	3	31165839	31165846	-	10.26	CAACCCCA
4-CAACCACA	STREME-4	1	205236436	205236443	-	10.26	CAACCCCA
4-CAACCACA	STREME-4	4	164201737	164201744	-	10.17	CAACCAAA
4-CAACCACA	STREME-4	11	125792853	125792860	-	10.17	CAACCAAA
4-CAACCACA	STREME-4	11	63953472	63953479	-	10.07	CAACCGCA
#
5-GACTACAK	STREME-5	19	44645489	44645496	-	13.64	GACTACAT
5-GACTACAK	STREME-5	X	13510418	13510425	-	13.64	GACTACAT
5-GACTACAK	STREME-5	16	88877762	88877769	-	13.64	GACTACAT
5-GACTACAK	STREME-5	1	111019735	111019742	+	13.39	GACTACAG
5-GACTACAK	STREME-5	2	242447904	242447911	+	13.25	GACTACAA
5-GACTACAK	STREME-5	1	224544291	224544298	+	13.25	GACTACAA
5-GACTACAK	STREME-5	1	244615362	244615369	+	13.25	GACTACAA
5-GACTACAK	STREME-5	18	56806837	56806844	+	13.15	GACTACGA
5-GACTACAK	STREME-5	10	13313552	13313559	+	13.15	GACTACGA
5-GACTACAK	STREME-5	6	53409728	53409735	+	12.91	GACTACGG
5-GACTACAK	STREME-5	21	11087983	11087990	-	12.63	TACTACAT
5-GACTACAK	STREME-5	11	73309480	73309487	+	12.38	TACTACAG
5-GACTACAK	STREME-5	4	24474487	24474494	+	12.38	TACTACAG
5-GACTACAK	STREME-5	1	31211014	31211021	+	12.24	TACTACAA
5-GACTACAK	STREME-5	17	41393210	41393217	-	12.24	TACTACAA
5-GACTACAK	STREME-5	5	118656174	118656181	-	12.24	TACTACAA
5-GACTACAK	STREME-5	1	207483235	207483242	-	11.95	GATTACAT
5-GACTACAK	STREME-5	1	161346791	161346798	-	11.95	GATTACAT
5-GACTACAK	STREME-5	1	21348687	21348694	-	11.90	TACTACGG
5-GACTACAK	STREME-5	12	104341744	104341751	+	11.70	GATTACAG
5-GACTACAK	STREME-5	2	200320288	200320295	-	11.70	GATTACAG
5-GACTACAK	STREME-5	2	106825375	106825382	-	11.70	GATTACAG
5-GACTACAK	STREME-5	X	154493621	154493628	-	11.70	GATTACAG
5-GACTACAK	STREME-5	19	44617278	44617285	-	11.68	GACTACAC
5-GACTACAK	STREME-5	19	48613632	48613639	-	11.68	GACTACAC
5-GACTACAK	STREME-5	12	68763948	68763955	-	11.68	GACTACAC
5-GACTACAK	STREME-5	1	160783054	160783061	+	11.64	GAGTACAG
5-GACTACAK	STREME-5	20	3339327	3339334	+	11.64	GAGTACAG
5-GACTACAK	STREME-5	14	33126259	33126266	+	11.64	GAGTACAG
5-GACTACAK	STREME-5	1	111991847	111991854	+	11.50	GAGTACAA
5-GACTACAK	STREME-5	2	55380631	55380638	+	11.50	GATTACGT
5-GACTACAK	STREME-5	6	111303050	111303057	-	11.50	GATTACGT
5-GACTACAK	STREME-5	1	57282535	57282542	-	11.49	GACTACTG
5-GACTACAK	STREME-5	17	74178514	74178521	-	11.49	GACTACTG
5-GACTACAK	STREME-5	10	1102355	1102362	+	11.44	GAGTACGT
5-GACTACAK	STREME-5	X	119378871	119378878	+	11.44	GAGTACGT
5-GACTACAK	STREME-5	19	46580674	46580681	+	11.42	GACTACTT
5-GACTACAK	STREME-5	9	101137438	101137445	+	11.42	GACTACTT
5-GACTACAK	STREME-5	7	137928141	137928148	-	11.23	GATTACGG
5-GACTACAK	STREME-5	4	24474484	24474491	-	10.91	TAGTACAG
5-GACTACAK	STREME-5	13	92059044	92059051	+	10.86	GACTATAG
5-GACTACAK	STREME-5	21	11087986	11087993	+	10.77	TAGTACAA
5-GACTACAK	STREME-5	14	23058598	23058605	-	10.77	TAGTACAA
5-GACTACAK	STREME-5	1	87459370	87459377	+	10.48	TACTACTG
5-GACTACAK	STREME-5	4	25863087	25863094	+	10.41	TATTACAT
5-GACTACAK	STREME-5	19	50979316	50979323	+	10.38	GACTACGC
5-GACTACAK	STREME-5	6	136724223	136724230	-	10.23	GACGACAT
5-GACTACAK	STREME-5	5	10607844	10607851	-	10.23	GACGACAT
5-GACTACAK	STREME-5	6	157101435	157101442	-	10.16	TATTACAG
5-GACTACAK	STREME-5	14	23790374	23790381	+	10.12	GAGTACTA
5-GACTACAK	STREME-5	12	9787599	9787606	-	10.12	GAGTACTA
5-GACTACAK	STREME-5	10	91350057	91350064	+	10.02	TATTACAA
5-GACTACAK	STREME-5	4	68419834	68419841	+	10.02	TATTACAA
5-GACTACAK	STREME-5	3	150439037	150439044	+	10.02	TATTACAA
#
6-GCCACCAGRGGGCRG	STREME-6	2	27906362	27906376	-	20.48	GCCACCAGAGGGCAG
6-GCCACCAGRGGGCRG	STREME-6	10	81134302	81134316	+	20.48	GCCACCAGAGGGCAG
6-GCCACCAGRGGGCRG	STREME-6	6	33995375	33995389	-	18.89	GCCACCAGGGGGCGC
6-GCCACCAGRGGGCRG	STREME-6	1	46502695	46502709	+	18.88	GCCACCAGAGGGCGC
6-GCCACCAGRGGGCRG	STREME-6	19	14311002	14311016	+	18.49	GCCACTAGGGGGCGT
6-GCCACCAGRGGGCRG	STREME-6	18	21202177	21202191	+	17.46	TCCACCAGAGGGCGG
6-GCCACCAGRGGGCRG	STREME-6	17	44270700	44270714	+	16.67	GCCGCCAGGGGGCGC
6-GCCACCAGRGGGCRG	STREME-6	3	195641868	195641882	-	16.50	TCCACCAGGGGGCAC
6-GCCACCAGRGGGCRG	STREME-6	9	119499307	119499321	+	16.46	GCCAGCAGAGGGCGC
6-GCCACCAGRGGGCRG	STREME-6	10	72968790	72968804	-	16.11	GCCACCAGGCGGCGC
6-GCCACCAGRGGGCRG	STREME-6	14	25148097	25148111	-	16.08	GACACTAGAGGGCGC
6-GCCACCAGRGGGCRG	STREME-6	1	161197122	161197136	+	15.77	TCCACCAGGGGGCGC
6-GCCACCAGRGGGCRG	STREME-6	18	11732926	11732940	-	15.51	GCCACCAGGCGGCCG
6-GCCACCAGRGGGCRG	STREME-6	1	201012013	201012027	-	15.17	GCCAGCAGGGGGAAG
6-GCCACCAGRGGGCRG	STREME-6	6	26026471	26026485	+	14.98	ACCGGCAGGGGGCGG
6-GCCACCAGRGGGCRG	STREME-6	16	3151312	3151326	+	14.95	GACGCTAGGGGGCGT
6-GCCACCAGRGGGCRG	STREME-6	8	25333166	25333180	-	14.83	GCCACTGGGGGGCAG
6-GCCACCAGRGGGCRG	STREME-6	12	121668055	121668069	-	14.59	ACCACTAGGGGGAGG
6-GCCACCAGRGGGCRG	STREME-6	X	151800919	151800933	-	14.57	GCCACTAGAGGGCCT
6-GCCACCAGRGGGCRG	STREME-6	3	50259223	50259237	-	14.48	ACCTCTAGAGGGCAG
6-GCCACCAGRGGGCRG	STREME-6	9	37592423	37592437	-	14.47	GCAACGAGAGGGCGG
6-GCCACCAGRGGGCRG	STREME-6	9	136218820	136218834	-	14.32	GCCAGTAGGGGGTGG
6-GCCACCAGRGGGCRG	STREME-6	14	74926253	74926267	+	14.27	GCCACCAGAGGCCAC
6-GCCACCAGRGGGCRG	STREME-6	11	125792904	125792918	+	13.99	GTCACAAGAGGGCGG
6-GCCACCAGRGGGCRG	STREME-6	2	233305236	233305250	-	13.75	GCCAGCAGGTGGCAG
6-GCCACCAGRGGGCRG	STREME-6	2	132249785	132249799	-	13.56	TCCGCTAGGGGGCGC
6-GCCACCAGRGGGCRG	STREME-6	3	195641858	195641872	-	13.54	GGCACCAGAGCGCAG
6-GCCACCAGRGGGCRG	STREME-6	7	1209485	1209499	-	13.30	GCCGCCAGGGGGAGC
6-GCCACCAGRGGGCRG	STREME-6	17	70721589	70721603	-	13.27	GCCACCACGCGGTAG
6-GCCACCAGRGGGCRG	STREME-6	4	55299842	55299856	-	13.20	GCCAGCAGGAGGCAG
6-GCCACCAGRGGGCRG	STREME-6	12	46777055	46777069	+	13.16	GCCGCCCGGGCGCAG
6-GCCACCAGRGGGCRG	STREME-6	18	9708091	9708105	-	12.92	GCCGCCCGCGGGCGG
6-GCCACCAGRGGGCRG	STREME-6	15	52432015	52432029	-	12.88	TTCACCAGGGGGCGC
6-GCCACCAGRGGGCRG	STREME-6	12	48431213	48431227	+	12.63	GCCTCTACAGGGCAG
6-GCCACCAGRGGGCRG	STREME-6	7	148224679	148224693	-	12.59	ACCAGCAGGCGGCAC
6-GCCACCAGRGGGCRG	STREME-6	12	104026303	104026317	-	12.45	GCCTCCAGGGTGCAG
6-GCCACCAGRGGGCRG	STREME-6	2	27906315	27906329	+	12.28	GGCAGCAGGGGGCAC
6-GCCACCAGRGGGCRG	STREME-6	5	30401579	30401593	+	12.21	ACCAGCTGAGGGCGG
6-GCCACCAGRGGGCRG	STREME-6	3	150439066	150439080	+	12.20	AACACTAGAGGGAAG
6-GCCACCAGRGGGCRG	STREME-6	17	59494058	59494072	-	12.14	GTCACCAGCGCGCGT
6-GCCACCAGRGGGCRG	STREME-6	9	132597466	132597480	+	12.05	GACGGCAGAGGGAAG
6-GCCACCAGRGGGCRG	STREME-6	19	56111296	56111310	+	11.89	GCCGCCGGTGCGCAG
6-GCCACCAGRGGGCRG	STREME-6	19	56111296	56111310	+	11.89	GCCGCCGGTGCGCAG
6-GCCACCAGRGGGCRG	STREME-6	1	178971867	178971881	-	11.82	GCCTGCAGGGGTCGT
6-GCCACCAGRGGGCRG	STREME-6	16	6732118	6732132	-	11.80	GCCTCTAGTGGTCAG
#
7-CCRCTTCCGG	STREME-7	17	35969268	35969277	+	16.25	CCACTTCCGG
7-CCRCTTCCGG	STREME-7	17	80009568	80009577	-	16.25	CCACTTCCGG
7-CCRCTTCCGG	STREME-7	8	27949630	27949639	+	16.25	CCACTTCCGG
7-CCRCTTCCGG	STREME-7	19	52772643	52772652	-	16.25	CCACTTCCGG
7-CCRCTTCCGG	STREME-7	5	68530507	68530516	-	15.39	CCACTTCCGT
7-CCRCTTCCGG	STREME-7	7	132937540	132937549	+	14.85	CCACTTCCGC
7-CCRCTTCCGG	STREME-7	6	42946773	42946782	+	14.38	CCGCTTCCGT
7-CCRCTTCCGG	STREME-7	17	45148508	45148517	+	13.90	CCACTTCCTG
7-CCRCTTCCGG	STREME-7	17	45148532	45148541	+	13.90	CCACTTCCTG
7-CCRCTTCCGG	STREME-7	11	118747510	118747519	+	13.90	CCACTTCCTG
7-CCRCTTCCGG	STREME-7	6	42946767	42946776	+	13.84	CCGCTTCCGC
7-CCRCTTCCGG	STREME-7	2	217923878	217923887	+	13.84	CCGCTTCCGC
7-CCRCTTCCGG	STREME-7	14	74926238	74926247	+	13.62	CCACTACCGC
7-CCRCTTCCGG	STREME-7	3	15105341	15105350	+	13.40	CGGCTTCCGG
7-CCRCTTCCGG	STREME-7	2	239148473	239148482	+	13.40	CGGCTTCCGG
7-CCRCTTCCGG	STREME-7	19	56111314	56111323	+	13.40	CGGCTTCCGG
7-CCRCTTCCGG	STREME-7	19	56111314	56111323	+	13.40	CGGCTTCCGG
7-CCRCTTCCGG	STREME-7	1	205296240	205296249	-	13.07	CCACTTCCTA
7-CCRCTTCCGG	STREME-7	9	136218850	136218859	+	13.07	CCACTTCCTA
7-CCRCTTCCGG	STREME-7	1	160509927	160509936	-	13.06	CCACTTCCTC
7-CCRCTTCCGG	STREME-7	9	101137394	101137403	+	13.06	CCACTTCCTC
7-CCRCTTCCGG	STREME-7	5	132166201	132166210	+	12.93	CCACGTCCGG
7-CCRCTTCCGG	STREME-7	5	74062784	74062793	+	12.85	CAACTTCCGT
7-CCRCTTCCGG	STREME-7	4	111119755	111119764	-	12.69	CCACTTCCTT
7-CCRCTTCCGG	STREME-7	10	101244918	101244927	+	12.62	CCGCTACCGC
7-CCRCTTCCGG	STREME-7	9	19380037	19380046	+	12.32	CAACTTCCGC
7-CCRCTTCCGG	STREME-7	9	132597453	132597462	+	12.31	CCTCTTCCGA
7-CCRCTTCCGG	STREME-7	12	122017101	122017110	-	12.22	CCGGTTCCGG
7-CCRCTTCCGG	STREME-7	9	37592392	37592401	-	12.11	CGAGTTCCGG
7-CCRCTTCCGG	STREME-7	3	15105334	15105343	-	12.06	CCGCTTCCTA
7-CCRCTTCCGG	STREME-7	5	132846269	132846278	+	12.05	CCTCTACCGG
7-CCRCTTCCGG	STREME-7	7	101457380	101457389	+	12.05	CCTCTACCGG
7-CCRCTTCCGG	STREME-7	7	44925204	44925213	+	11.86	TCGCTTCCGG
7-CCRCTTCCGG	STREME-7	17	80009545	80009554	-	11.86	TCGCTTCCGG
7-CCRCTTCCGG	STREME-7	16	30087066	30087075	+	11.73	CCACATCCGG
