motif_ID	motif_ALT_ID	seq_ID	site_Start	site_End	site_Strand	site_Score	site_Sequence
1-WGGGTGKGGCYBNNB	STREME-1	chr14:63796627-63797127	46	60	-	16.07	AGGGTGTGGTCATCG
1-WGGGTGKGGCYBNNB	STREME-1	chr14:21299130-21299630	10	24	+	15.34	TGGGTGGAGCCGCGC
1-WGGGTGKGGCYBNNB	STREME-1	chr5:33616214-33616714	50	64	-	15.16	AGGGTGTGGCGGGGT
1-WGGGTGKGGCYBNNB	STREME-1	chr17:28960252-28960752	25	39	+	14.92	TGGGTGTGGCTGACC
1-WGGGTGKGGCYBNNB	STREME-1	chr7:19832207-19832707	32	46	-	14.72	TGGGTGTGGCCTGGG
1-WGGGTGKGGCYBNNB	STREME-1	chr15:78243390-78243890	38	52	+	14.65	TGGGTGTGACTTCGC
1-WGGGTGKGGCYBNNB	STREME-1	chr4:43977111-43977611	32	46	+	14.63	TGGGTGTGGTCGCCA
1-WGGGTGKGGCYBNNB	STREME-1	chr6:81915769-81916269	1	15	+	14.62	GGGGTGTGGCCGGAC
1-WGGGTGKGGCYBNNB	STREME-1	chr13:3866266-3866766	66	80	-	14.61	AGGGTGTGGCTGAAC
1-WGGGTGKGGCYBNNB	STREME-1	chr1:133343883-133344383	39	53	+	14.25	AGGGTGTGGCCTGAT
1-WGGGTGKGGCYBNNB	STREME-1	chr5:45951565-45952065	64	78	-	14.04	TGGGTGTGGCTCTGG
1-WGGGTGKGGCYBNNB	STREME-1	chr14:79702844-79703344	50	64	-	13.74	AGGGTGTGGCTAACT
1-WGGGTGKGGCYBNNB	STREME-1	chr17:5112057-5112557	53	67	+	13.74	AGGGTGTGGCTCAGG
1-WGGGTGKGGCYBNNB	STREME-1	chr10:110604369-110604869	36	50	+	13.67	TGGGTGTGGCATTTG
1-WGGGTGKGGCYBNNB	STREME-1	chr1:169314208-169314708	15	29	-	13.47	AGGGTGTGGCAGAGG
1-WGGGTGKGGCYBNNB	STREME-1	chr12:27135944-27136444	78	92	-	13.38	AGGGTGGGGCCTGGC
1-WGGGTGKGGCYBNNB	STREME-1	chr12:82044358-82044858	44	58	+	13.30	AGGGTGTAACCCGAT
1-WGGGTGKGGCYBNNB	STREME-1	chr4:41334759-41335259	8	22	+	13.28	AGGGCGTGCCGGTTT
1-WGGGTGKGGCYBNNB	STREME-1	chr1:137838164-137838664	27	41	+	13.11	TGGGTGTGGCTCTCT
1-WGGGTGKGGCYBNNB	STREME-1	chr7:105490727-105491227	35	49	-	13.09	TGGGTGTGGTTCAGG
1-WGGGTGKGGCYBNNB	STREME-1	chr15:81700367-81700867	31	45	-	13.05	TGGGTGTGGTCTAAT
1-WGGGTGKGGCYBNNB	STREME-1	chr12:112796794-112797294	36	50	+	12.94	TGGGTGTGACTGGGT
1-WGGGTGKGGCYBNNB	STREME-1	chr11:60988820-60989320	74	88	+	12.82	TGGGCGTGGCAAGAA
1-WGGGTGKGGCYBNNB	STREME-1	chr10:60612190-60612690	19	33	+	12.79	AGGGTGTGGTTAGCA
1-WGGGTGKGGCYBNNB	STREME-1	chr7:151917814-151918314	23	37	+	12.76	TGGGTGTGGCTCCCT
1-WGGGTGKGGCYBNNB	STREME-1	chr7:87847381-87847881	47	61	-	12.73	TGGGCGTTGGATTCG
1-WGGGTGKGGCYBNNB	STREME-1	chr10:128184604-128185104	60	74	+	12.68	AGTGTGGGGCGCGGC
1-WGGGTGKGGCYBNNB	STREME-1	chr13:3866266-3866766	45	59	+	12.66	AGGGCGGGTTTGTAC
1-WGGGTGKGGCYBNNB	STREME-1	chr10:93585404-93585904	23	37	+	12.52	TGGGCGTATCCAGGG
1-WGGGTGKGGCYBNNB	STREME-1	chr9:21362671-21363171	60	74	+	12.49	AGGGTGTGTCAGACC
1-WGGGTGKGGCYBNNB	STREME-1	chr13:112863645-112864145	71	85	-	12.48	TGGGTGTGGTCAGAG
1-WGGGTGKGGCYBNNB	STREME-1	chr10:126642277-126642777	55	69	-	12.47	TGGGTGTGTCTCTTC
1-WGGGTGKGGCYBNNB	STREME-1	chr13:81067500-81068000	56	70	+	12.47	AGGGCGTGGTGGGGT
1-WGGGTGKGGCYBNNB	STREME-1	chr13:57679178-57679678	20	34	-	12.41	AGGGCGTGACTCTTG
1-WGGGTGKGGCYBNNB	STREME-1	chr5:138127197-138127697	42	56	+	12.39	AGGGTGTGGTCTGCA
1-WGGGTGKGGCYBNNB	STREME-1	chr9:120025371-120025871	2	16	+	12.29	TGGGTGTGGTGGGCC
1-WGGGTGKGGCYBNNB	STREME-1	chr16:32508975-32509475	75	89	-	12.20	TGGGCGGGGTAAGTC
1-WGGGTGKGGCYBNNB	STREME-1	chr4:154285745-154286245	39	53	+	12.18	TGGGTGGGACTGGGC
1-WGGGTGKGGCYBNNB	STREME-1	chr9:24715045-24715545	17	31	-	12.09	AGGGCGTGCCTTCTC
1-WGGGTGKGGCYBNNB	STREME-1	chr6:135115628-135116128	34	48	-	12.06	TGGGTGGGTCTTGAG
1-WGGGTGKGGCYBNNB	STREME-1	chr7:105490727-105491227	44	58	-	12.01	TGGGTGTGGTGGGTG
1-WGGGTGKGGCYBNNB	STREME-1	chr2:152650541-152651041	28	42	-	11.96	TGGGCGTAGTAGTCA
1-WGGGTGKGGCYBNNB	STREME-1	chr11:117642060-117642560	55	69	-	11.81	AGGGCGGAGCGGGCA
1-WGGGTGKGGCYBNNB	STREME-1	chr12:114390660-114391160	63	77	+	11.54	AGGGTGTGCCCAGGT
1-WGGGTGKGGCYBNNB	STREME-1	chr13:100518008-100518508	77	91	-	11.46	TGGGCGGAGCTGTTT
1-WGGGTGKGGCYBNNB	STREME-1	chr15:78243390-78243890	70	84	+	11.39	TGTGTGGGGCGGTGC
1-WGGGTGKGGCYBNNB	STREME-1	chr17:24289205-24289705	50	64	+	11.36	AGGGAGTGGCTGTCC
1-WGGGTGKGGCYBNNB	STREME-1	chr5:121049618-121050118	38	52	+	11.18	AGGGTGGTACACGCC
1-WGGGTGKGGCYBNNB	STREME-1	chr18:80416880-80417380	42	56	-	11.15	TGGGTGTGTCTCCCA
1-WGGGTGKGGCYBNNB	STREME-1	chr11:105013714-105014214	70	84	-	11.13	TGGGTGGTGTTGTAG
1-WGGGTGKGGCYBNNB	STREME-1	chr11:117642060-117642560	69	83	+	11.13	TGGGCGTGGTGTCTG
1-WGGGTGKGGCYBNNB	STREME-1	chr3:151777796-151778296	61	75	+	11.11	AGGGCGTTCCCTTGG
1-WGGGTGKGGCYBNNB	STREME-1	chr8:83025150-83025650	23	37	+	11.05	AGGGCGGGCCCAGTG
1-WGGGTGKGGCYBNNB	STREME-1	chr1:169322898-169323398	56	70	-	10.90	AGGGTGGGGCACCTG
1-WGGGTGKGGCYBNNB	STREME-1	chr16:49839621-49840121	72	86	-	10.85	AGGGTGTGTTTCATT
1-WGGGTGKGGCYBNNB	STREME-1	chr14:21299130-21299630	28	42	+	10.83	TGGGCGGAGCAGAGG
1-WGGGTGKGGCYBNNB	STREME-1	chr1:75175760-75176260	23	37	-	10.83	GGGGTGTGTCTGTGC
1-WGGGTGKGGCYBNNB	STREME-1	chr11:60988820-60989320	7	21	+	10.67	TGGGCGTTTCTGCAG
1-WGGGTGKGGCYBNNB	STREME-1	chrX:7679265-7679764	45	59	-	10.67	TGGGCGTTTCTGCAG
1-WGGGTGKGGCYBNNB	STREME-1	chr7:111007530-111008030	21	35	+	10.66	TGGGTGGGGTCACAG
1-WGGGTGKGGCYBNNB	STREME-1	chr19:32372782-32373282	47	61	-	10.63	TGTGCGTGTGCGGGT
1-WGGGTGKGGCYBNNB	STREME-1	chr4:154285745-154286245	29	43	+	10.63	GGGGTGGGGCTGGGT
1-WGGGTGKGGCYBNNB	STREME-1	chr11:77795184-77795684	51	65	+	10.60	TGGGCGTTGTCAGGA
1-WGGGTGKGGCYBNNB	STREME-1	chr11:32150818-32151318	21	35	+	10.46	AGGGTGGAGCAGACC
1-WGGGTGKGGCYBNNB	STREME-1	chr5:144579744-144580244	10	24	+	10.37	AGTGTGTGTCCTAGG
1-WGGGTGKGGCYBNNB	STREME-1	chr3:88305500-88306000	33	47	+	10.30	TGGGAGTGGCCTGAG
1-WGGGTGKGGCYBNNB	STREME-1	chr9:98389943-98390443	55	69	-	10.23	GGGGTGGGGCTGAAG
1-WGGGTGKGGCYBNNB	STREME-1	chr11:117187372-117187872	46	60	+	10.21	GGGGTGTGGCCTCAG
1-WGGGTGKGGCYBNNB	STREME-1	chr5:97380648-97381148	26	40	-	10.19	AGTGTGTGCCTTATC
1-WGGGTGKGGCYBNNB	STREME-1	chr11:102236405-102236905	11	25	-	10.11	AGGGAGGGGCTGTCC
1-WGGGTGKGGCYBNNB	STREME-1	chr7:105490727-105491227	48	62	-	10.03	TGGGTGGGTGTGGTG
1-WGGGTGKGGCYBNNB	STREME-1	chr5:65202593-65203093	16	30	-	9.99	AGGGTGGTGTAGTTC
1-WGGGTGKGGCYBNNB	STREME-1	chr3:19550495-19550995	38	52	+	9.89	AGGGCGTTGGCATGC
1-WGGGTGKGGCYBNNB	STREME-1	chr12:70860461-70860961	52	66	-	9.88	TGGGTGGAGTCCTAG
1-WGGGTGKGGCYBNNB	STREME-1	chr12:41693216-41693716	76	90	+	9.88	GGGGCGTGTCTGCCT
1-WGGGTGKGGCYBNNB	STREME-1	chr7:16507689-16508189	80	94	+	9.84	AGGGCGGTGGCTCGA
#
2-SAGATAA	STREME-2	chr5:45951565-45952065	27	33	-	12.67	CAGATAA
2-SAGATAA	STREME-2	chr5:37127175-37127675	23	29	-	12.67	CAGATAA
2-SAGATAA	STREME-2	chr5:37127175-37127675	86	92	+	12.67	CAGATAA
2-SAGATAA	STREME-2	chr7:151917814-151918314	56	62	+	12.67	CAGATAA
2-SAGATAA	STREME-2	chr11:32150818-32151318	67	73	+	12.67	CAGATAA
2-SAGATAA	STREME-2	chr4:44262429-44262929	21	27	+	12.67	CAGATAA
2-SAGATAA	STREME-2	chr7:111007530-111008030	46	52	+	12.67	CAGATAA
2-SAGATAA	STREME-2	chr7:104332488-104332988	16	22	-	12.67	CAGATAA
2-SAGATAA	STREME-2	chr2:37405047-37405547	49	55	+	12.67	CAGATAA
2-SAGATAA	STREME-2	chr12:27135944-27136444	41	47	+	12.67	CAGATAA
2-SAGATAA	STREME-2	chr16:92715758-92716258	32	38	+	12.67	CAGATAA
2-SAGATAA	STREME-2	chr11:80597918-80598418	68	74	-	11.97	GAGATAA
2-SAGATAA	STREME-2	chr15:91082416-91082916	35	41	+	11.97	GAGATAA
2-SAGATAA	STREME-2	chr12:112796794-112797294	69	75	-	11.97	GAGATAA
2-SAGATAA	STREME-2	chr1:133343883-133344383	11	17	-	11.97	GAGATAA
2-SAGATAA	STREME-2	chr8:83025150-83025650	91	97	+	11.97	GAGATAA
2-SAGATAA	STREME-2	chr17:47735006-47735506	24	30	-	11.97	GAGATAA
2-SAGATAA	STREME-2	chr4:109112541-109113041	70	76	+	11.97	GAGATAA
2-SAGATAA	STREME-2	chr5:105994747-105995247	80	86	+	11.97	GAGATAA
2-SAGATAA	STREME-2	chr13:100518008-100518508	44	50	+	11.97	GAGATAA
2-SAGATAA	STREME-2	chr18:80416880-80417380	59	65	-	11.97	GAGATAA
2-SAGATAA	STREME-2	chr10:60612190-60612690	43	49	-	11.97	GAGATAA
2-SAGATAA	STREME-2	chr14:61272713-61273213	49	55	+	11.97	GAGATAA
2-SAGATAA	STREME-2	chr16:92715758-92716258	79	85	+	11.97	GAGATAA
2-SAGATAA	STREME-2	chr9:34860987-34861487	9	15	+	11.97	GAGATAA
2-SAGATAA	STREME-2	chr13:76003199-76003699	51	57	-	11.97	GAGATAA
2-SAGATAA	STREME-2	chr7:19832207-19832707	19	25	-	10.94	CTGATAA
2-SAGATAA	STREME-2	chr15:91082416-91082916	87	93	-	10.94	CTGATAA
2-SAGATAA	STREME-2	chr11:117642060-117642560	28	34	-	10.94	CTGATAA
2-SAGATAA	STREME-2	chr1:169314208-169314708	84	90	+	10.94	CTGATAA
2-SAGATAA	STREME-2	chr18:54151151-54151651	59	65	+	10.94	CTGATAA
2-SAGATAA	STREME-2	chr8:107486057-107486557	29	35	+	10.94	CTGATAA
2-SAGATAA	STREME-2	chr4:41334759-41335259	70	76	+	10.94	CTGATAA
2-SAGATAA	STREME-2	chr12:41846176-41846676	86	92	+	10.94	CTGATAA
2-SAGATAA	STREME-2	chr2:37405047-37405547	61	67	-	10.94	CTGATAA
2-SAGATAA	STREME-2	chr13:3866266-3866766	40	46	-	10.94	CTGATAA
2-SAGATAA	STREME-2	chr5:105994747-105995247	23	29	+	10.94	CTGATAA
2-SAGATAA	STREME-2	chr5:34915767-34916267	14	20	-	10.94	CTGATAA
2-SAGATAA	STREME-2	chr8:3522196-3522696	94	100	-	10.58	GTGATAA
2-SAGATAA	STREME-2	chr5:144579744-144580244	71	77	+	10.58	GTGATAA
2-SAGATAA	STREME-2	chr5:97380648-97381148	24	30	+	10.58	GTGATAA
2-SAGATAA	STREME-2	chr4:43977111-43977611	47	53	+	10.58	GTGATAA
2-SAGATAA	STREME-2	chr17:5112057-5112557	32	38	+	10.58	GTGATAA
2-SAGATAA	STREME-2	chr18:57137388-57137888	9	15	-	10.57	CCGATAA
2-SAGATAA	STREME-2	chr9:98389943-98390443	51	57	-	10.17	AAGATAA
2-SAGATAA	STREME-2	chr10:25018820-25019320	91	97	-	10.17	AAGATAA
2-SAGATAA	STREME-2	chr7:87847381-87847881	78	84	+	10.17	AAGATAA
2-SAGATAA	STREME-2	chr5:121049618-121050118	24	30	+	10.17	AAGATAA
2-SAGATAA	STREME-2	chr9:21362671-21363171	20	26	-	10.17	AAGATAA
2-SAGATAA	STREME-2	chr3:19550495-19550995	31	37	+	10.17	AAGATAA
2-SAGATAA	STREME-2	chr2:152650541-152651041	61	67	+	10.17	AAGATAA
2-SAGATAA	STREME-2	chr11:115372413-115372913	27	33	+	10.17	AAGATAA
2-SAGATAA	STREME-2	chr19:5726889-5727389	79	85	-	9.63	GCGATAA
2-SAGATAA	STREME-2	chr5:144386183-144386683	53	59	+	9.63	GCGATAA
2-SAGATAA	STREME-2	chr9:57618594-57619094	83	89	+	9.02	TAGATAA
2-SAGATAA	STREME-2	chr15:81700367-81700867	75	81	+	9.02	TAGATAA
2-SAGATAA	STREME-2	chr9:102674395-102674895	91	97	+	9.01	CAAATAA
2-SAGATAA	STREME-2	chr5:144386183-144386683	33	39	-	9.01	CAAATAA
2-SAGATAA	STREME-2	chr4:135733850-135734350	84	90	-	9.01	CAAATAA
2-SAGATAA	STREME-2	chr8:113905790-113906290	93	99	-	9.01	CAAATAA
2-SAGATAA	STREME-2	chr2:52304248-52304748	70	76	+	8.81	CAGATAT
2-SAGATAA	STREME-2	chr15:79757891-79758391	35	41	-	8.81	CAGATAT
2-SAGATAA	STREME-2	chr4:135407873-135408373	70	76	+	8.81	CAGATAT
2-SAGATAA	STREME-2	chr19:5845899-5846399	35	41	+	8.78	ATGATAA
2-SAGATAA	STREME-2	chr8:97323995-97324495	94	100	-	8.57	CAGATTA
2-SAGATAA	STREME-2	chr10:24548849-24549349	51	57	+	8.57	CAGATTA
2-SAGATAA	STREME-2	chr2:52304248-52304748	16	22	-	8.37	GAAATAA
2-SAGATAA	STREME-2	chr12:17246027-17246527	7	13	-	8.37	GAAATAA
2-SAGATAA	STREME-2	chr3:107899566-107900066	69	75	+	8.37	GAAATAA
2-SAGATAA	STREME-2	chr3:107899566-107900066	78	84	-	8.37	GAAATAA
2-SAGATAA	STREME-2	chr1:173447614-173448114	8	14	+	8.11	GAGATAT
#
3-TWACAGAAAM	STREME-3	chr7:87847381-87847881	64	73	-	15.69	TAACAGAAAC
3-TWACAGAAAM	STREME-3	chr10:126642277-126642777	70	79	-	15.69	TAACAGAAAC
3-TWACAGAAAM	STREME-3	chr8:107486057-107486557	74	83	+	13.43	TTACAGAAAA
3-TWACAGAAAM	STREME-3	chr7:38977099-38977599	19	28	+	13.43	TTACAGAAAA
3-TWACAGAAAM	STREME-3	chr4:76585120-76585620	38	47	+	13.29	TAACAGACAA
3-TWACAGAAAM	STREME-3	chr19:5845899-5846399	84	93	-	13.22	TTACATACAC
3-TWACAGAAAM	STREME-3	chr2:25148316-25148816	89	98	+	12.65	TAACATAGAC
3-TWACAGAAAM	STREME-3	chr7:105490727-105491227	77	86	-	12.58	TTACATAATC
3-TWACAGAAAM	STREME-3	chr15:79757891-79758391	44	53	+	12.06	TTACAGAAAG
3-TWACAGAAAM	STREME-3	chr9:57618594-57619094	80	89	+	11.96	TAATAGATAA
3-TWACAGAAAM	STREME-3	chr11:69714224-69714724	68	77	-	11.88	TTACAGAGAC
3-TWACAGAAAM	STREME-3	chr13:81067500-81068000	48	57	+	11.82	TTACATAAAG
3-TWACAGAAAM	STREME-3	chr9:24715045-24715545	57	66	-	11.66	TAACAGACAG
3-TWACAGAAAM	STREME-3	chr12:41693216-41693716	34	43	+	11.48	TAAAAGAAAA
3-TWACAGAAAM	STREME-3	chr19:56465963-56466463	55	64	-	11.21	TTATAGAAAA
3-TWACAGAAAM	STREME-3	chr11:61773536-61774036	62	71	-	11.20	TCACAGATAC
3-TWACAGAAAM	STREME-3	chr2:52304248-52304748	25	34	+	10.76	TTAGAGAAAC
3-TWACAGAAAM	STREME-3	chr1:169322898-169323398	28	37	-	10.62	TAAGAGACAC
3-TWACAGAAAM	STREME-3	chr14:47973722-47974222	70	79	+	10.61	TAACAGAGTC
3-TWACAGAAAM	STREME-3	chr11:95661715-95662215	15	24	+	10.26	TACGAGATAC
3-TWACAGAAAM	STREME-3	chr10:59465795-59466295	54	63	-	10.07	TCACATAAAA
3-TWACAGAAAM	STREME-3	chr3:107899566-107900066	85	94	-	10.05	TTCCAGAAAC
3-TWACAGAAAM	STREME-3	chr7:151917814-151918314	53	62	+	10.04	TCACAGATAA
3-TWACAGAAAM	STREME-3	chr2:37405047-37405547	46	55	+	10.04	TCACAGATAA
3-TWACAGAAAM	STREME-3	chr4:44262429-44262929	3	12	+	9.94	TAAAATACAA
3-TWACAGAAAM	STREME-3	chr7:19832207-19832707	20	29	+	9.83	TATCAGAAAA
3-TWACAGAAAM	STREME-3	chr15:41338514-41339014	14	23	-	9.73	TAACATGAAA
3-TWACAGAAAM	STREME-3	chr12:90222447-90222947	26	35	+	9.70	TAACACAATC
3-TWACAGAAAM	STREME-3	chr18:54151151-54151651	29	38	-	9.29	TTATAGATAG
3-TWACAGAAAM	STREME-3	chr1:36977019-36977519	64	73	+	9.16	TTACAGATCC
3-TWACAGAAAM	STREME-3	chr7:53193729-53194229	72	81	-	9.10	TTAAATACAA
3-TWACAGAAAM	STREME-3	chr12:71933519-71934019	58	67	-	9.09	TAACTTAAAA
#
4-RMTCTGCTRGC	STREME-4	chr15:78243390-78243890	88	98	+	15.33	ACTCTGCTGGC
4-RMTCTGCTRGC	STREME-4	chr7:103853792-103854292	54	64	+	14.61	AATCTGATGGC
4-RMTCTGCTRGC	STREME-4	chr5:138127197-138127697	10	20	+	14.54	ACTCTGATAGC
4-RMTCTGCTRGC	STREME-4	chr4:135407873-135408373	15	25	+	14.41	AATCTGATAGC
4-RMTCTGCTRGC	STREME-4	chr6:35303481-35303981	35	45	+	14.21	GCTCTGCTGGC
4-RMTCTGCTRGC	STREME-4	chr16:49839621-49840121	37	47	-	14.18	ACTCAGCTGGC
4-RMTCTGCTRGC	STREME-4	chr7:101244829-101245329	56	66	-	13.98	AATCTGCTGCG
4-RMTCTGCTRGC	STREME-4	chr15:76778491-76778991	47	57	+	13.68	ACTCTGCTGGG
4-RMTCTGCTRGC	STREME-4	chr3:151777796-151778296	34	44	-	12.75	GATCTGCTGCC
4-RMTCTGCTRGC	STREME-4	chr1:134264178-134264678	73	83	+	12.36	ACTCTGCACGC
4-RMTCTGCTRGC	STREME-4	chr12:27135944-27136444	88	98	+	12.15	ACCCTGCTAGC
4-RMTCTGCTRGC	STREME-4	chr10:59256089-59256589	73	83	-	11.85	ACTCTGATAGA
4-RMTCTGCTRGC	STREME-4	chr14:61272713-61273213	3	13	+	11.85	GCTCAGCTGCG
4-RMTCTGCTRGC	STREME-4	chr9:57618594-57619094	37	47	+	11.74	GATCAGCTAGG
4-RMTCTGCTRGC	STREME-4	chr1:134264178-134264678	81	91	-	11.20	GCTCAGATGCG
4-RMTCTGCTRGC	STREME-4	chr17:28960252-28960752	76	86	-	11.02	ACCCAGCTGGC
4-RMTCTGCTRGC	STREME-4	chr17:24289205-24289705	36	46	+	10.99	ACTCAGCTAAC
4-RMTCTGCTRGC	STREME-4	chr12:82044358-82044858	78	88	-	10.63	GACCTGCTAGC
4-RMTCTGCTRGC	STREME-4	chr16:32508975-32509475	19	29	+	10.03	GCTCTGCTCCC
4-RMTCTGCTRGC	STREME-4	chr6:31150322-31150822	23	33	+	9.87	GATCAGATAGA
4-RMTCTGCTRGC	STREME-4	chr7:87847381-87847881	1	11	+	9.62	ACTCTCCTGGG
4-RMTCTGCTRGC	STREME-4	chr10:24548849-24549349	76	86	+	8.85	ACTCTGCAGTC
#
5-AAGAGAAGG	STREME-5	chr17:47735006-47735506	86	94	-	15.11	AAGAGAAGG
5-AAGAGAAGG	STREME-5	chr1:36977019-36977519	8	16	-	15.11	AAGAGAAGG
5-AAGAGAAGG	STREME-5	chr7:16507689-16508189	50	58	-	13.56	TAGAGAAGG
5-AAGAGAAGG	STREME-5	chr13:100518008-100518508	3	11	-	13.56	TAGAGAAGG
5-AAGAGAAGG	STREME-5	chr5:144579744-144580244	52	60	-	12.99	AAGAGATGG
5-AAGAGAAGG	STREME-5	chr2:25148316-25148816	38	46	-	12.81	AAGAGCAGG
5-AAGAGAAGG	STREME-5	chr10:110604369-110604869	59	67	-	12.81	AAGAGCAGG
5-AAGAGAAGG	STREME-5	chr6:31150322-31150822	62	70	+	12.81	AAGAGCAGG
5-AAGAGAAGG	STREME-5	chr6:145703215-145703715	61	69	-	12.71	AAGAGAAGA
5-AAGAGAAGG	STREME-5	chr13:76003199-76003699	69	77	-	12.71	AAGAGAAGA
5-AAGAGAAGG	STREME-5	chr11:69714224-69714724	34	42	-	11.64	AAGGGAAGG
5-AAGAGAAGG	STREME-5	chr16:49839621-49840121	8	16	-	11.52	AAGAGAAAG
5-AAGAGAAGG	STREME-5	chr4:154285745-154286245	16	24	+	11.45	TAGAGATGG
5-AAGAGAAGG	STREME-5	chr18:54151151-54151651	41	49	+	11.24	AGGAGAAGG
5-AAGAGAAGG	STREME-5	chr9:24715045-24715545	15	23	+	11.24	AGGAGAAGG
5-AAGAGAAGG	STREME-5	chr12:114390660-114391160	57	65	+	11.24	AGGAGAAGG
5-AAGAGAAGG	STREME-5	chr6:72223026-72223526	38	46	-	10.20	AAGAGCTGG
5-AAGAGAAGG	STREME-5	chr10:57252236-57252736	35	43	+	10.09	TAGGGAAGG
