motif_id	motif_alt_id	sequence_name	start	stop	strand	score	p-value	q-value	matched_sequence
2-GCTGAGTCATN	STREME-2	17	32198650	32198660	+	18.7561	2.49e-07	0.00705	GCTGAGTCATG
2-GCTGAGTCATN	STREME-2	11	47358849	47358859	-	18.7561	2.49e-07	0.00705	GCTGAGTCATG
2-GCTGAGTCATN	STREME-2	19	49466996	49467006	-	18.7561	2.49e-07	0.00705	GCTGAGTCATG
2-GCTGAGTCATN	STREME-2	6	52282392	52282402	-	18.7561	2.49e-07	0.00705	GCTGAGTCATG
2-GCTGAGTCATN	STREME-2	14	62129189	62129199	+	18.7561	2.49e-07	0.00705	GCTGAGTCATG
2-GCTGAGTCATN	STREME-2	14	74926285	74926295	+	18.7561	2.49e-07	0.00705	GCTGAGTCATG
2-GCTGAGTCATN	STREME-2	11	92621860	92621870	+	18.7561	2.49e-07	0.00705	GCTGAGTCATG
2-GCTGAGTCATN	STREME-2	8	101894203	101894213	+	18.7561	2.49e-07	0.00705	GCTGAGTCATG
2-GCTGAGTCATN	STREME-2	14	103603302	103603312	-	18.7561	2.49e-07	0.00705	GCTGAGTCATG
2-GCTGAGTCATN	STREME-2	3	140105550	140105560	+	18.7561	2.49e-07	0.00705	GCTGAGTCATG
2-GCTGAGTCATN	STREME-2	6	147197366	147197376	+	18.7561	2.49e-07	0.00705	GCTGAGTCATG
2-GCTGAGTCATN	STREME-2	1	160783015	160783025	+	18.7561	2.49e-07	0.00705	GCTGAGTCATG
2-GCTGAGTCATN	STREME-2	1	167789159	167789169	-	18.7561	2.49e-07	0.00705	GCTGAGTCATG
2-GCTGAGTCATN	STREME-2	10	13887886	13887896	-	18.622	4.98e-07	0.00705	GCTGAGTCATC
2-GCTGAGTCATN	STREME-2	1	25091925	25091935	-	18.622	4.98e-07	0.00705	GCTGAGTCATC
2-GCTGAGTCATN	STREME-2	17	25900889	25900899	+	18.622	4.98e-07	0.00705	GCTGAGTCATC
2-GCTGAGTCATN	STREME-2	7	30443034	30443044	-	18.622	4.98e-07	0.00705	GCTGAGTCATC
2-GCTGAGTCATN	STREME-2	10	31531813	31531823	+	18.622	4.98e-07	0.00705	GCTGAGTCATC
2-GCTGAGTCATN	STREME-2	22	40030777	40030787	+	18.622	4.98e-07	0.00705	GCTGAGTCATC
2-GCTGAGTCATN	STREME-2	16	77690900	77690910	+	18.622	4.98e-07	0.00705	GCTGAGTCATC
2-GCTGAGTCATN	STREME-2	16	87894142	87894152	-	18.622	4.98e-07	0.00705	GCTGAGTCATC
2-GCTGAGTCATN	STREME-2	10	91350076	91350086	-	18.622	4.98e-07	0.00705	GCTGAGTCATC
2-GCTGAGTCATN	STREME-2	14	91615700	91615710	-	18.622	4.98e-07	0.00705	GCTGAGTCATC
2-GCTGAGTCATN	STREME-2	9	110871002	110871012	+	18.622	4.98e-07	0.00705	GCTGAGTCATC
2-GCTGAGTCATN	STREME-2	5	154062342	154062352	+	18.622	4.98e-07	0.00705	GCTGAGTCATC
2-GCTGAGTCATN	STREME-2	13	41753763	41753773	+	18.5366	6.96e-07	0.00705	GCTGAGTCATA
2-GCTGAGTCATN	STREME-2	1	52035411	52035421	+	18.5366	6.96e-07	0.00705	GCTGAGTCATA
2-GCTGAGTCATN	STREME-2	2	55338836	55338846	-	18.5366	6.96e-07	0.00705	GCTGAGTCATA
2-GCTGAGTCATN	STREME-2	17	57806700	57806710	+	18.5366	6.96e-07	0.00705	GCTGAGTCATA
2-GCTGAGTCATN	STREME-2	17	58547064	58547074	+	18.5366	6.96e-07	0.00705	GCTGAGTCATA
2-GCTGAGTCATN	STREME-2	1	75986448	75986458	-	18.5366	6.96e-07	0.00705	GCTGAGTCATA
2-GCTGAGTCATN	STREME-2	1	75986448	75986458	-	18.5366	6.96e-07	0.00705	GCTGAGTCATA
2-GCTGAGTCATN	STREME-2	16	76980763	76980773	+	18.5366	6.96e-07	0.00705	GCTGAGTCATA
2-GCTGAGTCATN	STREME-2	11	92621882	92621892	-	18.5366	6.96e-07	0.00705	GCTGAGTCATA
2-GCTGAGTCATN	STREME-2	X	131365032	131365042	+	18.5366	6.96e-07	0.00705	GCTGAGTCATA
2-GCTGAGTCATN	STREME-2	5	138606877	138606887	+	18.5366	6.96e-07	0.00705	GCTGAGTCATA
2-GCTGAGTCATN	STREME-2	2	209451235	209451245	-	18.5366	6.96e-07	0.00705	GCTGAGTCATA
2-GCTGAGTCATN	STREME-2	4	6857689	6857699	+	18.1951	8.95e-07	0.0078	GCTGAGTCATT
2-GCTGAGTCATN	STREME-2	14	30112558	30112568	-	18.1951	8.95e-07	0.0078	GCTGAGTCATT
2-GCTGAGTCATN	STREME-2	5	34849366	34849376	-	18.1951	8.95e-07	0.0078	GCTGAGTCATT
2-GCTGAGTCATN	STREME-2	3	38369000	38369010	+	18.1951	8.95e-07	0.0078	GCTGAGTCATT
2-GCTGAGTCATN	STREME-2	9	101337937	101337947	-	18.1951	8.95e-07	0.0078	GCTGAGTCATT
2-GCTGAGTCATN	STREME-2	10	115548397	115548407	-	18.1951	8.95e-07	0.0078	GCTGAGTCATT
2-GCTGAGTCATN	STREME-2	6	30685261	30685271	+	16.9634	1.14e-06	0.00857	GCTGACTCATG
2-GCTGAGTCATN	STREME-2	14	33126274	33126284	+	16.9634	1.14e-06	0.00857	GCTGACTCATG
2-GCTGAGTCATN	STREME-2	1	43432766	43432776	+	16.9634	1.14e-06	0.00857	GCTGACTCATG
2-GCTGAGTCATN	STREME-2	20	44007463	44007473	-	16.9634	1.14e-06	0.00857	GCTGACTCATG
2-GCTGAGTCATN	STREME-2	11	64426784	64426794	-	16.9634	1.14e-06	0.00857	GCTGACTCATG
2-GCTGAGTCATN	STREME-2	5	96424980	96424990	+	16.9634	1.14e-06	0.00857	GCTGACTCATG
2-GCTGAGTCATN	STREME-2	6	139265582	139265592	+	16.9634	1.14e-06	0.00857	GCTGACTCATG
2-GCTGAGTCATN	STREME-2	X	2309847	2309857	-	16.8293	1.39e-06	0.00949	GCTGACTCATC
2-GCTGAGTCATN	STREME-2	16	71021241	71021251	-	16.8293	1.39e-06	0.00949	GCTGACTCATC
2-GCTGAGTCATN	STREME-2	2	105672063	105672073	-	16.8293	1.39e-06	0.00949	GCTGACTCATC
2-GCTGAGTCATN	STREME-2	11	126709323	126709333	-	16.8293	1.39e-06	0.00949	GCTGACTCATC
2-GCTGAGTCATN	STREME-2	1	149225544	149225554	+	16.8293	1.39e-06	0.00949	GCTGACTCATC
2-GCTGAGTCATN	STREME-2	8	48577558	48577568	-	16.7927	1.59e-06	0.0103	GATGAGTCATG
2-GCTGAGTCATN	STREME-2	7	73498809	73498819	-	16.7927	1.59e-06	0.0103	GATGAGTCATG
2-GCTGAGTCATN	STREME-2	1	211765511	211765521	-	16.7927	1.59e-06	0.0103	GATGAGTCATG
2-GCTGAGTCATN	STREME-2	5	75668409	75668419	-	16.6585	1.99e-06	0.012	GATGAGTCATC
2-GCTGAGTCATN	STREME-2	5	122461642	122461652	+	16.6585	1.99e-06	0.012	GATGAGTCATC
2-GCTGAGTCATN	STREME-2	3	195648173	195648183	-	16.6585	1.99e-06	0.012	GATGAGTCATC
2-GCTGAGTCATN	STREME-2	1	205263681	205263691	-	16.6585	1.99e-06	0.012	GATGAGTCATC
2-GCTGAGTCATN	STREME-2	17	64657456	64657466	-	16.5732	2.15e-06	0.0128	GATGAGTCATA
2-GCTGAGTCATN	STREME-2	X	15511219	15511229	-	16.5366	2.46e-06	0.0142	GCTGAGTCACG
2-GCTGAGTCATN	STREME-2	14	105533647	105533657	+	16.5366	2.46e-06	0.0142	GCTGAGTCACG
2-GCTGAGTCATN	STREME-2	6	4358788	4358798	+	16.4024	2.97e-06	0.0148	GCTGAGTCACC
2-GCTGAGTCATN	STREME-2	12	17023768	17023778	-	16.4024	2.97e-06	0.0148	GCTGACTCATT
2-GCTGAGTCATN	STREME-2	17	39866869	39866879	+	16.4024	2.97e-06	0.0148	GCTGAGTCACC
2-GCTGAGTCATN	STREME-2	19	51898652	51898662	+	16.4024	2.97e-06	0.0148	GCTGAGTCACC
2-GCTGAGTCATN	STREME-2	12	80178171	80178181	+	16.4024	2.97e-06	0.0148	GCTGAGTCACC
2-GCTGAGTCATN	STREME-2	17	80316809	80316819	-	16.4024	2.97e-06	0.0148	GCTGAGTCACC
2-GCTGAGTCATN	STREME-2	16	82186160	82186170	+	16.4024	2.97e-06	0.0148	GCTGAGTCACC
2-GCTGAGTCATN	STREME-2	9	97519346	97519356	-	16.4024	2.97e-06	0.0148	GCTGACTCATT
2-GCTGAGTCATN	STREME-2	7	98821996	98822006	+	16.4024	2.97e-06	0.0148	GCTGACTCATT
2-GCTGAGTCATN	STREME-2	8	126204072	126204082	-	16.4024	2.97e-06	0.0148	GCTGACTCATT
2-GCTGAGTCATN	STREME-2	17	32198719	32198729	+	16.3171	3.22e-06	0.0149	GCTGAGTCACA
2-GCTGAGTCATN	STREME-2	1	44242072	44242082	+	16.3171	3.22e-06	0.0149	GCTGAGTCACA
2-GCTGAGTCATN	STREME-2	20	47470453	47470463	+	16.3171	3.22e-06	0.0149	GCTGAGTCACA
2-GCTGAGTCATN	STREME-2	14	74192451	74192461	-	16.3171	3.22e-06	0.0149	GCTGAGTCACA
2-GCTGAGTCATN	STREME-2	11	75114116	75114126	-	16.3171	3.22e-06	0.0149	GCTGAGTCACA
2-GCTGAGTCATN	STREME-2	1	219262294	219262304	-	16.3171	3.22e-06	0.0149	GCTGAGTCACA
2-GCTGAGTCATN	STREME-2	10	11628230	11628240	+	16.2317	3.38e-06	0.0152	GATGAGTCATT
2-GCTGAGTCATN	STREME-2	6	27281804	27281814	-	16.2317	3.38e-06	0.0152	GATGAGTCATT
2-GCTGAGTCATN	STREME-2	16	24850030	24850040	-	15.9756	3.63e-06	0.0154	GCTGAGTCACT
2-GCTGAGTCATN	STREME-2	15	42663352	42663362	-	15.9756	3.63e-06	0.0154	GCTGAGTCACT
2-GCTGAGTCATN	STREME-2	15	43703042	43703052	+	15.9756	3.63e-06	0.0154	GCTGAGTCACT
2-GCTGAGTCATN	STREME-2	2	89035414	89035424	-	15.9756	3.63e-06	0.0154	GCTGAGTCACT
2-GCTGAGTCATN	STREME-2	9	126964794	126964804	-	15.9756	3.63e-06	0.0154	GCTGAGTCACT
2-GCTGAGTCATN	STREME-2	11	5949549	5949559	-	15.6951	3.94e-06	0.0162	GCTGAGTCAGG
2-GCTGAGTCATN	STREME-2	19	8276639	8276649	-	15.6951	3.94e-06	0.0162	GCTGAGTCAGG
2-GCTGAGTCATN	STREME-2	7	153110977	153110987	+	15.6951	3.94e-06	0.0162	GCTGAGTCAGG
2-GCTGAGTCATN	STREME-2	6	7057795	7057805	-	15.561	4.25e-06	0.0166	GCTGAGTCAGC
2-GCTGAGTCATN	STREME-2	10	59063314	59063324	-	15.561	4.25e-06	0.0166	GCTGAGTCAGC
2-GCTGAGTCATN	STREME-2	14	59566921	59566931	-	15.561	4.25e-06	0.0166	GCTGAGTCAGC
2-GCTGAGTCATN	STREME-2	5	67715421	67715431	-	15.561	4.25e-06	0.0166	GCTGAGTCAGC
2-GCTGAGTCATN	STREME-2	12	132347546	132347556	-	15.561	4.25e-06	0.0166	GCTGAGTCAGC
2-GCTGAGTCATN	STREME-2	21	46829743	46829753	+	15.4756	4.5e-06	0.0174	GCTGAGTCAGA
2-GCTGAGTCATN	STREME-2	19	41172244	41172254	+	15.1341	4.75e-06	0.018	GCTGAGTCAGT
2-GCTGAGTCATN	STREME-2	22	44381391	44381401	+	15.1341	4.75e-06	0.018	GCTGAGTCAGT
2-GCTGAGTCATN	STREME-2	1	157117579	157117589	+	15	4.95e-06	0.0185	GATGACTCATG
2-GCTGAGTCATN	STREME-2	5	75668409	75668419	+	14.8659	5.14e-06	0.0185	GATGACTCATC
2-GCTGAGTCATN	STREME-2	5	122461642	122461652	-	14.8659	5.14e-06	0.0185	GATGACTCATC
2-GCTGAGTCATN	STREME-2	3	195648173	195648183	+	14.8659	5.14e-06	0.0185	GATGACTCATC
2-GCTGAGTCATN	STREME-2	1	205263681	205263691	+	14.8659	5.14e-06	0.0185	GATGACTCATC
2-GCTGAGTCATN	STREME-2	17	66086042	66086052	+	14.7805	5.3e-06	0.0189	GATGACTCATA
2-GCTGAGTCATN	STREME-2	2	9374841	9374851	-	14.7561	5.55e-06	0.0189	GGTGAGTCATG
2-GCTGAGTCATN	STREME-2	7	28076917	28076927	+	14.7561	5.55e-06	0.0189	GGTGAGTCATG
2-GCTGAGTCATN	STREME-2	20	44834677	44834687	+	14.7561	5.55e-06	0.0189	GGTGAGTCATG
2-GCTGAGTCATN	STREME-2	7	100828441	100828451	+	14.7561	5.55e-06	0.0189	GGTGAGTCATG
2-GCTGAGTCATN	STREME-2	7	100828441	100828451	+	14.7561	5.55e-06	0.0189	GGTGAGTCATG
2-GCTGAGTCATN	STREME-2	3	10412131	10412141	+	14.7439	5.86e-06	0.0198	GCTGACTCACG
2-GCTGAGTCATN	STREME-2	3	176379447	176379457	+	14.622	6.11e-06	0.0205	GGTGAGTCATC
2-GCTGAGTCATN	STREME-2	15	52166848	52166858	+	14.6098	6.42e-06	0.0208	GCTGACTCACC
2-GCTGAGTCATN	STREME-2	11	57225460	57225470	-	14.6098	6.42e-06	0.0208	GCTGACTCACC
2-GCTGAGTCATN	STREME-2	7	129665787	129665797	+	14.6098	6.42e-06	0.0208	GCTGACTCACC
2-GCTGAGTCATN	STREME-2	5	132846277	132846287	-	14.6098	6.42e-06	0.0208	GCTGACTCACC
2-GCTGAGTCATN	STREME-2	7	28448487	28448497	+	14.5244	7.12e-06	0.0221	GCTGACTCACA
2-GCTGAGTCATN	STREME-2	1	43432743	43432753	+	14.5244	7.12e-06	0.0221	GCTGACTCACA
2-GCTGAGTCATN	STREME-2	5	77175764	77175774	+	14.5244	7.12e-06	0.0221	GCTGACTCACA
2-GCTGAGTCATN	STREME-2	12	83409933	83409943	-	14.5244	7.12e-06	0.0221	GCTGACTCACA
2-GCTGAGTCATN	STREME-2	5	176103273	176103283	-	14.5244	7.12e-06	0.0221	GCTGACTCACA
2-GCTGAGTCATN	STREME-2	19	4744772	4744782	+	14.439	7.53e-06	0.0224	GATGACTCATT
2-GCTGAGTCATN	STREME-2	6	28889824	28889834	-	14.439	7.53e-06	0.0224	GATGACTCATT
2-GCTGAGTCATN	STREME-2	13	52123199	52123209	+	14.439	7.53e-06	0.0224	GATGACTCATT
2-GCTGAGTCATN	STREME-2	5	84748325	84748335	-	14.439	7.53e-06	0.0224	GATGACTCATT
2-GCTGAGTCATN	STREME-2	4	184909141	184909151	+	14.439	7.53e-06	0.0224	GATGACTCATT
2-GCTGAGTCATN	STREME-2	11	6378417	6378427	+	14.3537	7.73e-06	0.0228	GATGAGTCACA
2-GCTGAGTCATN	STREME-2	10	74068282	74068292	+	14.3171	7.93e-06	0.0232	TCTGAGTCATG
2-GCTGAGTCATN	STREME-2	4	25863101	25863111	-	14.3049	8.12e-06	0.0234	GCTGAATCATG
2-GCTGAGTCATN	STREME-2	1	173448801	173448811	-	14.3049	8.12e-06	0.0234	GCTGAATCATG
2-GCTGAGTCATN	STREME-2	19	35880296	35880306	+	14.2805	8.32e-06	0.0235	GTTGAGTCATG
2-GCTGAGTCATN	STREME-2	16	70686225	70686235	+	14.2805	8.32e-06	0.0235	GTTGAGTCATG
2-GCTGAGTCATN	STREME-2	12	116798674	116798684	+	14.2805	8.32e-06	0.0235	GTTGAGTCATG
2-GCTGAGTCATN	STREME-2	3	55593680	55593690	+	14.1707	9.17e-06	0.0256	GCTGAATCATC
2-GCTGAGTCATN	STREME-2	19	41172272	41172282	-	14.0976	9.52e-06	0.0261	TCTGAGTCATA
2-GCTGAGTCATN	STREME-2	3	60039234	60039244	+	14.0976	9.52e-06	0.0261	TCTGAGTCATA
2-GCTGAGTCATN	STREME-2	10	75780988	75780998	+	14.0976	9.52e-06	0.0261	TCTGAGTCATA
2-GCTGAGTCATN	STREME-2	17	75830547	75830557	-	14.0122	1e-05	0.0267	GATGAGTCACT
2-GCTGAGTCATN	STREME-2	17	78806858	78806868	-	14.0122	1e-05	0.0267	GATGAGTCACT
2-GCTGAGTCATN	STREME-2	8	133132610	133132620	+	14.0122	1e-05	0.0267	GATGAGTCACT
2-GCTGAGTCATN	STREME-2	6	158998523	158998533	-	14.0122	1e-05	0.0267	GATGAGTCACT
2-GCTGAGTCATN	STREME-2	6	7057795	7057805	+	13.7683	1.07e-05	0.0274	GCTGACTCAGC
2-GCTGAGTCATN	STREME-2	10	59063314	59063324	+	13.7683	1.07e-05	0.0274	GCTGACTCAGC
2-GCTGAGTCATN	STREME-2	14	59566921	59566931	+	13.7683	1.07e-05	0.0274	GCTGACTCAGC
2-GCTGAGTCATN	STREME-2	5	67715421	67715431	+	13.7683	1.07e-05	0.0274	GCTGACTCAGC
2-GCTGAGTCATN	STREME-2	12	132347546	132347556	+	13.7683	1.07e-05	0.0274	GCTGACTCAGC
2-GCTGAGTCATN	STREME-2	2	27233622	27233632	-	13.7561	1.08e-05	0.0274	TCTGAGTCATT
2-GCTGAGTCATN	STREME-2	5	75668362	75668372	+	13.7561	1.08e-05	0.0274	TCTGAGTCATT
2-GCTGAGTCATN	STREME-2	8	128866721	128866731	-	13.7439	1.1e-05	0.0274	GCTGAATCATT
2-GCTGAGTCATN	STREME-2	4	139173679	139173689	-	13.7439	1.1e-05	0.0274	GCTGAATCATT
2-GCTGAGTCATN	STREME-2	8	94815430	94815440	-	13.7195	1.14e-05	0.0282	GTTGAGTCATT
2-GCTGAGTCATN	STREME-2	17	49199133	49199143	+	13.6951	1.16e-05	0.0282	GCTGAGTCAAG
2-GCTGAGTCATN	STREME-2	7	75443057	75443067	+	13.6951	1.16e-05	0.0282	GCTGAGTCAAG
2-GCTGAGTCATN	STREME-2	6	88410378	88410388	-	13.6951	1.16e-05	0.0282	GCTGAGTCAAG
2-GCTGAGTCATN	STREME-2	12	45940294	45940304	-	13.6829	1.19e-05	0.0282	GCTGACTCAGA
2-GCTGAGTCATN	STREME-2	1	78015814	78015824	+	13.6829	1.19e-05	0.0282	GCTGACTCAGA
2-GCTGAGTCATN	STREME-2	X	2309847	2309857	+	13.5976	1.21e-05	0.0282	GATGAGTCAGC
2-GCTGAGTCATN	STREME-2	16	71021241	71021251	+	13.5976	1.21e-05	0.0282	GATGAGTCAGC
2-GCTGAGTCATN	STREME-2	2	105672063	105672073	+	13.5976	1.21e-05	0.0282	GATGAGTCAGC
2-GCTGAGTCATN	STREME-2	11	126709323	126709333	+	13.5976	1.21e-05	0.0282	GATGAGTCAGC
2-GCTGAGTCATN	STREME-2	1	149225544	149225554	-	13.5976	1.21e-05	0.0282	GATGAGTCAGC
2-GCTGAGTCATN	STREME-2	2	24679488	24679498	+	13.5122	1.26e-05	0.0284	GATGAGTCAGA
2-GCTGAGTCATN	STREME-2	9	36148672	36148682	+	13.5122	1.26e-05	0.0284	GATGAGTCAGA
2-GCTGAGTCATN	STREME-2	1	44513932	44513942	+	13.5122	1.26e-05	0.0284	GATGAGTCAGA
2-GCTGAGTCATN	STREME-2	1	44992386	44992396	-	13.5122	1.26e-05	0.0284	GATGAGTCAGA
2-GCTGAGTCATN	STREME-2	10	52271496	52271506	-	13.5122	1.26e-05	0.0284	GATGAGTCAGA
2-GCTGAGTCATN	STREME-2	8	1693608	1693618	-	13.2805	1.32e-05	0.0297	ACTGAGTCATG
2-GCTGAGTCATN	STREME-2	19	41172323	41172333	-	13.2683	1.35e-05	0.0301	CCTGAGTCATG
2-GCTGAGTCATN	STREME-2	6	17820205	17820215	-	13.1951	1.37e-05	0.0301	GCTGTGTCATG
2-GCTGAGTCATN	STREME-2	1	44951323	44951333	-	13.1951	1.37e-05	0.0301	GCTGTGTCATG
2-GCTGAGTCATN	STREME-2	20	48909084	48909094	-	13.1951	1.37e-05	0.0301	GCTGTGTCATG
2-GCTGAGTCATN	STREME-2	1	200677913	200677923	-	13.1463	1.41e-05	0.0308	ACTGAGTCATC
2-GCTGAGTCATN	STREME-2	16	10579603	10579613	+	13.1341	1.46e-05	0.031	CCTGAGTCATC
2-GCTGAGTCATN	STREME-2	1	12123158	12123168	+	13.1341	1.46e-05	0.031	CCTGAGTCATC
2-GCTGAGTCATN	STREME-2	7	72996382	72996392	-	13.1341	1.46e-05	0.031	GCTGAGTCAAT
2-GCTGAGTCATN	STREME-2	16	80361629	80361639	+	13.1341	1.46e-05	0.031	CCTGAGTCATC
2-GCTGAGTCATN	STREME-2	20	1396637	1396647	+	12.9634	1.56e-05	0.0329	GGTGACTCATG
2-GCTGAGTCATN	STREME-2	12	92395920	92395930	-	12.9634	1.56e-05	0.0329	GGTGACTCATG
2-GCTGAGTCATN	STREME-2	1	111433236	111433246	+	12.939	1.58e-05	0.0331	GCTTAGTCATG
2-GCTGAGTCATN	STREME-2	9	82944898	82944908	-	12.8049	1.63e-05	0.0339	GCTTAGTCATC
2-GCTGAGTCATN	STREME-2	1	161346779	161346789	+	12.7439	1.67e-05	0.0346	GGTGACTCATA
2-GCTGAGTCATN	STREME-2	1	111019756	111019766	-	12.7195	1.7e-05	0.0351	ACTGAGTCATT
2-GCTGAGTCATN	STREME-2	7	28076870	28076880	-	12.7073	1.72e-05	0.0353	CCTGAGTCATT
2-GCTGAGTCATN	STREME-2	3	176379447	176379457	-	12.6463	1.75e-05	0.0356	GATGACTCACC
2-GCTGAGTCATN	STREME-2	10	133729924	133729934	-	12.6341	1.77e-05	0.0358	GCTGTGTCATT
2-GCTGAGTCATN	STREME-2	7	107724358	107724368	-	12.561	1.81e-05	0.0363	GATGACTCACA
2-GCTGAGTCATN	STREME-2	1	202963891	202963901	+	12.561	1.81e-05	0.0363	GATGACTCACA
2-GCTGAGTCATN	STREME-2	1	202777019	202777029	-	12.5366	1.84e-05	0.0368	GGTGAGTCACG
2-GCTGAGTCATN	STREME-2	12	27332758	27332768	-	12.4878	1.88e-05	0.0374	GTTGACTCATG
2-GCTGAGTCATN	STREME-2	6	26051845	26051855	-	12.4756	1.91e-05	0.0374	GCAGAGTCATC
2-GCTGAGTCATN	STREME-2	1	44509893	44509903	+	12.4756	1.91e-05	0.0374	GCAGAGTCATC
2-GCTGAGTCATN	STREME-2	1	52035426	52035436	+	12.4024	1.96e-05	0.0378	GGTGAGTCACC
2-GCTGAGTCATN	STREME-2	8	101731457	101731467	-	12.4024	1.96e-05	0.0378	GGTGACTCATT
2-GCTGAGTCATN	STREME-2	2	24679488	24679498	-	12.3902	2e-05	0.0378	TCTGACTCATC
2-GCTGAGTCATN	STREME-2	9	36148672	36148682	-	12.3902	2e-05	0.0378	TCTGACTCATC
2-GCTGAGTCATN	STREME-2	1	44513932	44513942	-	12.3902	2e-05	0.0378	TCTGACTCATC
2-GCTGAGTCATN	STREME-2	1	44992386	44992396	+	12.3902	2e-05	0.0378	TCTGACTCATC
2-GCTGAGTCATN	STREME-2	10	52271496	52271506	+	12.3902	2e-05	0.0378	TCTGACTCATC
2-GCTGAGTCATN	STREME-2	11	36522008	36522018	+	12.3171	2.09e-05	0.0392	GGTGAGTCACA
2-GCTGAGTCATN	STREME-2	7	101546128	101546138	+	12.3171	2.09e-05	0.0392	GGTGAGTCACA
2-GCTGAGTCATN	STREME-2	17	66086042	66086052	-	12.2195	2.16e-05	0.0397	TATGAGTCATC
2-GCTGAGTCATN	STREME-2	12	71039616	71039626	+	12.2195	2.16e-05	0.0397	GATGACTCACT
2-GCTGAGTCATN	STREME-2	9	75091880	75091890	+	12.2195	2.16e-05	0.0397	GATGACTCACT
2-GCTGAGTCATN	STREME-2	12	110497910	110497920	-	12.2195	2.16e-05	0.0397	GATGACTCACT
2-GCTGAGTCATN	STREME-2	1	39211134	39211144	+	11.9756	2.32e-05	0.0423	GGTGAGTCACT
2-GCTGAGTCATN	STREME-2	8	108537796	108537806	+	11.9634	2.36e-05	0.0423	TCTGACTCATT
2-GCTGAGTCATN	STREME-2	5	14696119	14696129	+	11.9512	2.39e-05	0.0423	GCTGAATCACC
2-GCTGAGTCATN	STREME-2	16	10579603	10579613	-	11.939	2.41e-05	0.0423	GATGACTCAGG
2-GCTGAGTCATN	STREME-2	1	12123158	12123168	-	11.939	2.41e-05	0.0423	GATGACTCAGG
2-GCTGAGTCATN	STREME-2	16	80361629	80361639	-	11.939	2.41e-05	0.0423	GATGACTCAGG
2-GCTGAGTCATN	STREME-2	9	34992379	34992389	+	11.878	2.5e-05	0.0423	TCTGAGTCACA
2-GCTGAGTCATN	STREME-2	2	178837568	178837578	-	11.878	2.5e-05	0.0423	TCTGAGTCACA
2-GCTGAGTCATN	STREME-2	10	13887886	13887896	+	11.8049	2.56e-05	0.0423	GATGACTCAGC
2-GCTGAGTCATN	STREME-2	1	25091925	25091935	+	11.8049	2.56e-05	0.0423	GATGACTCAGC
2-GCTGAGTCATN	STREME-2	17	25900889	25900899	-	11.8049	2.56e-05	0.0423	GATGACTCAGC
2-GCTGAGTCATN	STREME-2	7	30443034	30443044	+	11.8049	2.56e-05	0.0423	GATGACTCAGC
2-GCTGAGTCATN	STREME-2	10	31531813	31531823	-	11.8049	2.56e-05	0.0423	GATGACTCAGC
2-GCTGAGTCATN	STREME-2	22	40030777	40030787	-	11.8049	2.56e-05	0.0423	GATGACTCAGC
2-GCTGAGTCATN	STREME-2	16	77690900	77690910	-	11.8049	2.56e-05	0.0423	GATGACTCAGC
2-GCTGAGTCATN	STREME-2	16	87894142	87894152	+	11.8049	2.56e-05	0.0423	GATGACTCAGC
2-GCTGAGTCATN	STREME-2	10	91350076	91350086	+	11.8049	2.56e-05	0.0423	GATGACTCAGC
2-GCTGAGTCATN	STREME-2	14	91615700	91615710	+	11.8049	2.56e-05	0.0423	GATGACTCAGC
2-GCTGAGTCATN	STREME-2	9	110871002	110871012	-	11.8049	2.56e-05	0.0423	GATGACTCAGC
2-GCTGAGTCATN	STREME-2	5	154062342	154062352	-	11.8049	2.56e-05	0.0423	GATGACTCAGC
2-GCTGAGTCATN	STREME-2	10	60550896	60550906	-	11.7927	2.57e-05	0.0423	TATGAGTCATT
2-GCTGAGTCATN	STREME-2	10	115548385	115548395	-	11.7927	2.57e-05	0.0423	TATGAGTCATT
2-GCTGAGTCATN	STREME-2	X	155117863	155117873	-	11.7927	2.57e-05	0.0423	TATGAGTCATT
2-GCTGAGTCATN	STREME-2	2	202223383	202223393	-	11.7927	2.57e-05	0.0423	TATGAGTCATT
2-GCTGAGTCATN	STREME-2	3	38369036	38369046	-	11.7683	2.61e-05	0.0427	GCTGACTCAAC
2-GCTGAGTCATN	STREME-2	4	8338163	8338173	-	11.7317	2.63e-05	0.0429	GATGAGTCAAG
2-GCTGAGTCATN	STREME-2	7	129598483	129598493	-	11.6951	2.68e-05	0.0435	GGTGAGTCAGG
2-GCTGAGTCATN	STREME-2	15	52166848	52166858	-	11.561	2.78e-05	0.0443	GGTGAGTCAGC
2-GCTGAGTCATN	STREME-2	11	57225460	57225470	+	11.561	2.78e-05	0.0443	GGTGAGTCAGC
2-GCTGAGTCATN	STREME-2	7	129665787	129665797	-	11.561	2.78e-05	0.0443	GGTGAGTCAGC
2-GCTGAGTCATN	STREME-2	5	132846277	132846287	+	11.561	2.78e-05	0.0443	GGTGAGTCAGC
2-GCTGAGTCATN	STREME-2	21	21630954	21630964	-	11.5366	2.82e-05	0.0446	GCTCAGTCATC
2-GCTGAGTCATN	STREME-2	10	134498465	134498475	+	11.5366	2.82e-05	0.0446	TCTGAGTCACT
2-GCTGAGTCATN	STREME-2	4	99799710	99799720	-	11.5244	2.84e-05	0.0447	GCTGAATCACT
2-GCTGAGTCATN	STREME-2	5	39158233	39158243	-	11.4878	2.9e-05	0.0454	ACTGACTCATG
2-GCTGAGTCATN	STREME-2	6	37207789	37207799	-	11.4756	2.95e-05	0.046	CCTGACTCATG
2-GCTGAGTCATN	STREME-2	3	176379390	176379400	-	11.4024	2.99e-05	0.0465	GCTGTCTCATG
2-GCTGAGTCATN	STREME-2	1	200677913	200677923	+	11.378	3.01e-05	0.0466	GATGACTCAGT
2-GCTGAGTCATN	STREME-2	X	124138634	124138644	-	11.3171	3.12e-05	0.0481	AATGAGTCATG
2-GCTGAGTCATN	STREME-2	1	26611200	26611210	-	11.3049	3.14e-05	0.0481	CATGAGTCATG
2-GCTGAGTCATN	STREME-2	19	35880303	35880313	+	11.3049	3.14e-05	0.0481	CATGAGTCATG
2-GCTGAGTCATN	STREME-2	11	78011107	78011117	+	11.2683	3.18e-05	0.0483	ACTGACTCATA
2-GCTGAGTCATN	STREME-2	2	196523241	196523251	-	11.2683	3.18e-05	0.0483	ACTGACTCATA
2-GCTGAGTCATN	STREME-2	10	75691994	75692004	+	11.2317	3.27e-05	0.0495	GATGTGTCATG
2-GCTGAGTCATN	STREME-2	19	4744772	4744782	-	11.1829	3.37e-05	0.0498	AATGAGTCATC
2-GCTGAGTCATN	STREME-2	6	28889824	28889834	+	11.1829	3.37e-05	0.0498	AATGAGTCATC
2-GCTGAGTCATN	STREME-2	13	52123199	52123209	-	11.1829	3.37e-05	0.0498	AATGAGTCATC
2-GCTGAGTCATN	STREME-2	5	84748325	84748335	+	11.1829	3.37e-05	0.0498	AATGAGTCATC
2-GCTGAGTCATN	STREME-2	4	184909141	184909151	-	11.1829	3.37e-05	0.0498	AATGAGTCATC
2-GCTGAGTCATN	STREME-2	1	157117579	157117589	-	11.1707	3.4e-05	0.0502	CATGAGTCATC
2-GCTGAGTCATN	STREME-2	11	126223188	126223198	-	11.1463	3.42e-05	0.0503	GCTTACTCATG
2-GCTGAGTCATN	STREME-2	4	8338176	8338186	-	11.1341	3.47e-05	0.0506	GGTGAGTCAGT
2-GCTGAGTCATN	STREME-2	5	141286563	141286573	+	11.1341	3.47e-05	0.0506	GCTGGGTCATA
2-GCTGAGTCATN	STREME-2	12	45940294	45940304	+	11.122	3.5e-05	0.0506	TCTGAGTCAGC
2-GCTGAGTCATN	STREME-2	1	78015814	78015824	-	11.122	3.5e-05	0.0506	TCTGAGTCAGC
2-GCTGAGTCATN	STREME-2	7	28076845	28076855	-	11.0854	3.61e-05	0.0519	CATGAGTCATA
2-GCTGAGTCATN	STREME-2	3	38369036	38369046	+	11.0854	3.61e-05	0.0519	GTTGAGTCAGC
2-GCTGAGTCATN	STREME-2	4	693150	693160	-	11.0488	3.67e-05	0.0523	CCTGAGTCACG
2-GCTGAGTCATN	STREME-2	12	10364764	10364774	+	11.0488	3.67e-05	0.0523	CCTGAGTCACG
2-GCTGAGTCATN	STREME-2	11	9010184	9010194	+	10.9268	3.87e-05	0.0547	ACTGAGTCACC
2-GCTGAGTCATN	STREME-2	1	44509906	44509916	-	10.9268	3.87e-05	0.0547	ACTGAGTCACC
2-GCTGAGTCATN	STREME-2	16	10579613	10579623	+	10.9146	3.92e-05	0.0548	CCTGAGTCACC
2-GCTGAGTCATN	STREME-2	X	23799356	23799366	+	10.9146	3.92e-05	0.0548	CCTGAGTCACC
2-GCTGAGTCATN	STREME-2	1	31229439	31229449	+	10.9146	3.92e-05	0.0548	CCTGAGTCACC
2-GCTGAGTCATN	STREME-2	12	8010504	8010514	-	10.8415	4.01e-05	0.0555	GCTGTGTCACC
2-GCTGAGTCATN	STREME-2	17	74634289	74634299	+	10.8415	4.01e-05	0.0555	GCTGTGTCACC
2-GCTGAGTCATN	STREME-2	6	34191696	34191706	+	10.8293	4.03e-05	0.0555	CCTGAGTCACA
2-GCTGAGTCATN	STREME-2	1	228122418	228122428	+	10.8293	4.03e-05	0.0555	CCTGAGTCACA
2-GCTGAGTCATN	STREME-2	1	110444333	110444343	-	10.7561	4.15e-05	0.057	GCTGTGTCACA
2-GCTGAGTCATN	STREME-2	5	56467678	56467688	-	10.7439	4.2e-05	0.0574	GGTGACTCACG
2-GCTGAGTCATN	STREME-2	16	71021217	71021227	-	10.6951	4.24e-05	0.0578	TCTGAGTCAGT
2-GCTGAGTCATN	STREME-2	15	91384128	91384138	+	10.6829	4.29e-05	0.0582	GCAGACTCATC
2-GCTGAGTCATN	STREME-2	7	40678467	40678477	-	10.6463	4.36e-05	0.059	GCTGAGTAATC
2-GCTGAGTCATN	STREME-2	1	52035426	52035436	-	10.6098	4.39e-05	0.0592	GGTGACTCACC
2-GCTGAGTCATN	STREME-2	7	28076845	28076855	+	10.561	4.49e-05	0.0603	TATGACTCATG
2-GCTGAGTCATN	STREME-2	9	134511907	134511917	-	10.4878	4.6e-05	0.0615	CCTGAGTCACT
2-GCTGAGTCATN	STREME-2	17	64657456	64657466	+	10.4268	4.63e-05	0.0616	TATGACTCATC
2-GCTGAGTCATN	STREME-2	4	6615077	6615087	-	10.4146	4.66e-05	0.0616	GCTGTGTCACT
2-GCTGAGTCATN	STREME-2	19	41085885	41085895	+	10.4146	4.66e-05	0.0616	GCTGTGTCACT
2-GCTGAGTCATN	STREME-2	9	137299097	137299107	+	10.4146	4.66e-05	0.0616	GCTGTGTCACT
2-GCTGAGTCATN	STREME-2	X	124138670	124138680	-	10.2195	4.89e-05	0.0643	GCTGAGTAATT
2-GCTGAGTCATN	STREME-2	7	31097704	31097714	-	10.1829	4.97e-05	0.0646	GGTGACTCACT
2-GCTGAGTCATN	STREME-2	7	107724358	107724368	+	10.1829	4.97e-05	0.0646	TGTGAGTCATC
2-GCTGAGTCATN	STREME-2	1	202963891	202963901	-	10.1829	4.97e-05	0.0646	TGTGAGTCATC
2-GCTGAGTCATN	STREME-2	19	39892355	39892365	+	10.1707	5.04e-05	0.0651	GCAGAGTCACA
2-GCTGAGTCATN	STREME-2	12	108439884	108439894	-	10.1707	5.04e-05	0.0651	GCAGAGTCACA
2-GCTGAGTCATN	STREME-2	3	43778001	43778011	-	10.0854	5.24e-05	0.0675	TCTGACTCACA
2-GCTGAGTCATN	STREME-2	19	39892369	39892379	-	10	5.38e-05	0.0688	GCTGTGTCAGC
2-GCTGAGTCATN	STREME-2	1	161346779	161346789	-	10	5.38e-05	0.0688	TATGAGTCACC
2-GCTGAGTCATN	STREME-2	16	10579613	10579623	-	9.90244	5.53e-05	0.07	GGTGACTCAGG
2-GCTGAGTCATN	STREME-2	X	23799356	23799366	-	9.90244	5.53e-05	0.07	GGTGACTCAGG
2-GCTGAGTCATN	STREME-2	1	31229439	31229449	-	9.90244	5.53e-05	0.07	GGTGACTCAGG
2-GCTGAGTCATN	STREME-2	6	4358788	4358798	-	9.76829	5.7e-05	0.0707	GGTGACTCAGC
2-GCTGAGTCATN	STREME-2	17	39866869	39866879	-	9.76829	5.7e-05	0.0707	GGTGACTCAGC
2-GCTGAGTCATN	STREME-2	19	51898652	51898662	-	9.76829	5.7e-05	0.0707	GGTGACTCAGC
2-GCTGAGTCATN	STREME-2	12	80178171	80178181	-	9.76829	5.7e-05	0.0707	GGTGACTCAGC
2-GCTGAGTCATN	STREME-2	17	80316809	80316819	+	9.76829	5.7e-05	0.0707	GGTGACTCAGC
2-GCTGAGTCATN	STREME-2	16	82186160	82186170	-	9.76829	5.7e-05	0.0707	GGTGACTCAGC
2-GCTGAGTCATN	STREME-2	10	76793876	76793886	-	9.7561	5.72e-05	0.0707	TGTGAGTCATT
2-GCTGAGTCATN	STREME-2	1	14763440	14763450	-	9.7439	5.8e-05	0.0713	TCTGACTCACT
2-GCTGAGTCATN	STREME-2	2	24679515	24679525	-	9.7439	5.8e-05	0.0713	TCTGACTCACT
2-GCTGAGTCATN	STREME-2	9	131084188	131084198	+	9.65854	6.02e-05	0.0737	ACTGAGTCAGT
2-GCTGAGTCATN	STREME-2	8	112054689	112054699	-	9.64634	6.05e-05	0.0739	TCTGAATCATA
2-GCTGAGTCATN	STREME-2	1	26611200	26611210	+	9.5122	6.28e-05	0.0762	CATGACTCATG
2-GCTGAGTCATN	STREME-2	19	35880303	35880313	-	9.5122	6.28e-05	0.0762	CATGACTCATG
2-GCTGAGTCATN	STREME-2	10	11628230	11628240	-	9.39024	6.52e-05	0.078	AATGACTCATC
2-GCTGAGTCATN	STREME-2	6	27281804	27281814	+	9.39024	6.52e-05	0.078	AATGACTCATC
2-GCTGAGTCATN	STREME-2	1	155210854	155210864	+	9.39024	6.52e-05	0.078	GATGGGTCATG
2-GCTGAGTCATN	STREME-2	8	48577558	48577568	+	9.37805	6.55e-05	0.078	CATGACTCATC
2-GCTGAGTCATN	STREME-2	7	73498809	73498819	+	9.37805	6.55e-05	0.078	CATGACTCATC
2-GCTGAGTCATN	STREME-2	1	211765511	211765521	+	9.37805	6.55e-05	0.078	CATGACTCATC
2-GCTGAGTCATN	STREME-2	11	9010184	9010194	-	9.34146	6.6e-05	0.0781	GGTGACTCAGT
2-GCTGAGTCATN	STREME-2	1	44509906	44509916	+	9.34146	6.6e-05	0.0781	GGTGACTCAGT
2-GCTGAGTCATN	STREME-2	15	39736048	39736058	-	9.32927	6.65e-05	0.0782	GCAGAGTCAGA
2-GCTGAGTCATN	STREME-2	21	46829743	46829753	-	9.32927	6.65e-05	0.0782	TCTGACTCAGC
2-GCTGAGTCATN	STREME-2	10	60550896	60550906	+	9.30488	6.77e-05	0.0786	AATGACTCATA
2-GCTGAGTCATN	STREME-2	10	115548385	115548395	+	9.30488	6.77e-05	0.0786	AATGACTCATA
2-GCTGAGTCATN	STREME-2	X	155117863	155117873	+	9.30488	6.77e-05	0.0786	AATGACTCATA
2-GCTGAGTCATN	STREME-2	2	202223383	202223393	+	9.30488	6.77e-05	0.0786	AATGACTCATA
2-GCTGAGTCATN	STREME-2	16	4340192	4340202	+	9.28049	6.88e-05	0.0794	AGTGAGTCATG
2-GCTGAGTCATN	STREME-2	1	23671304	23671314	-	9.28049	6.88e-05	0.0794	TTTGAGTCATT
2-GCTGAGTCATN	STREME-2	6	34191719	34191729	-	9.2561	7.02e-05	0.0807	CCTGACTCACG
2-GCTGAGTCATN	STREME-2	12	71039616	71039626	-	9.14634	7.31e-05	0.0833	AGTGAGTCATC
2-GCTGAGTCATN	STREME-2	9	75091880	75091890	-	9.14634	7.31e-05	0.0833	AGTGAGTCATC
2-GCTGAGTCATN	STREME-2	12	110497910	110497920	+	9.14634	7.31e-05	0.0833	AGTGAGTCATC
2-GCTGAGTCATN	STREME-2	4	8338176	8338186	+	9.13415	7.42e-05	0.0842	ACTGACTCACC
2-GCTGAGTCATN	STREME-2	7	129598483	129598493	+	9.12195	7.47e-05	0.0846	CCTGACTCACC
2-GCTGAGTCATN	STREME-2	7	154882392	154882402	+	9.06098	7.63e-05	0.0861	AGTGAGTCATA
2-GCTGAGTCATN	STREME-2	2	156682376	156682386	+	9	7.87e-05	0.0886	GCTGGCTCATT
2-GCTGAGTCATN	STREME-2	10	5824205	5824215	-	8.9878	7.92e-05	0.0889	GCTGACTAATG
2-GCTGAGTCATN	STREME-2	8	101731457	101731467	+	8.96341	8.01e-05	0.0893	AATGAGTCACC
2-GCTGAGTCATN	STREME-2	20	1396637	1396647	-	8.95122	8.05e-05	0.0893	CATGAGTCACC
2-GCTGAGTCATN	STREME-2	12	92395920	92395930	+	8.95122	8.05e-05	0.0893	CATGAGTCACC
2-GCTGAGTCATN	STREME-2	X	124138634	124138644	+	8.95122	8.05e-05	0.0893	CATGACTCATT
2-GCTGAGTCATN	STREME-2	11	64610473	64610483	+	8.87805	8.23e-05	0.0909	AATGAGTCACA
2-GCTGAGTCATN	STREME-2	12	49524870	49524880	+	8.79268	8.48e-05	0.0935	GCTTACTCACC
2-GCTGAGTCATN	STREME-2	11	78011107	78011117	-	8.73171	8.57e-05	0.0939	TATGAGTCAGT
2-GCTGAGTCATN	STREME-2	2	196523241	196523251	+	8.73171	8.57e-05	0.0939	TATGAGTCAGT
2-GCTGAGTCATN	STREME-2	17	74733879	74733889	-	8.69512	8.77e-05	0.0953	CCTGACTCACT
2-GCTGAGTCATN	STREME-2	12	83409975	83409985	+	8.69512	8.77e-05	0.0953	CCTGACTCACT
2-GCTGAGTCATN	STREME-2	14	100883816	100883826	-	8.69512	8.77e-05	0.0953	CCTGACTCACT
2-GCTGAGTCATN	STREME-2	3	13616380	13616390	-	8.62195	8.99e-05	0.0974	GATTAGTCACC
2-GCTGAGTCATN	STREME-2	18	1227059	1227069	+	8.58537	9.17e-05	0.099	GTTGTGTCATC
2-GCTGAGTCATN	STREME-2	X	10550392	10550402	+	8.57317	9.22e-05	0.0993	CTTGAGTCATA
2-GCTGAGTCATN	STREME-2	4	82342588	82342598	-	8.53659	9.29e-05	0.0997	AATGAGTCACT
2-GCTGAGTCATN	STREME-2	16	88489720	88489730	+	8.52439	9.34e-05	0.0998	GCTGTATCATA
2-GCTGAGTCATN	STREME-2	13	99803733	99803743	+	8.52439	9.34e-05	0.0998	CATGAGTCACT
2-GCTGAGTCATN	STREME-2	11	6378417	6378427	-	8.39024	9.7e-05	0.103	TGTGACTCATC
2-GCTGAGTCATN	STREME-2	10	81159158	81159168	-	8.39024	9.7e-05	0.103	GCTCAGTCAGA
2-GCTGAGTCATN	STREME-2	3	37011460	37011470	+	8.36585	9.78e-05	0.104	TCTTAGTCATC

# FIMO (Find Individual Motif Occurrences): Version 5.5.5 compiled on Nov 28 2023 at 18:23:13
# The format of this file is described at https://meme-suite.org/meme/doc/fimo-output-format.html#tsv_results.
# fimo --verbosity 1 --oc xstreme_example_output_files/fimo_out_1 --bgfile xstreme_example_output_files/background --motif 2-GCTGAGTCATN xstreme_example_output_files/streme_out/streme.xml nrmix.nseqs.100.100bp.seed.1.fa
