motif_ID	motif_ALT_ID	seq_ID	site_Start	site_End	site_Strand	site_Score	site_Sequence
1-RGCCACACCC	STREME-1	chr5:33616214-33616714	54	63	+	15.73	CGCCACACCC
1-RGCCACACCC	STREME-1	chr7:19832207-19832707	36	45	+	15.37	GGCCACACCC
1-RGCCACACCC	STREME-1	chr6:81915769-81916269	2	11	-	15.37	GGCCACACCC
1-RGCCACACCC	STREME-1	chr1:133343883-133344383	40	49	-	15.37	GGCCACACCC
1-RGCCACACCC	STREME-1	chr11:117187372-117187872	47	56	-	15.37	GGCCACACCC
1-RGCCACACCC	STREME-1	chr5:45951565-45952065	68	77	+	15.32	AGCCACACCC
1-RGCCACACCC	STREME-1	chr17:5112057-5112557	54	63	-	15.32	AGCCACACCC
1-RGCCACACCC	STREME-1	chr7:151917814-151918314	24	33	-	15.32	AGCCACACCC
1-RGCCACACCC	STREME-1	chr14:79702844-79703344	54	63	+	15.32	AGCCACACCC
1-RGCCACACCC	STREME-1	chr17:28960252-28960752	26	35	-	15.32	AGCCACACCC
1-RGCCACACCC	STREME-1	chr1:137838164-137838664	28	37	-	15.32	AGCCACACCC
1-RGCCACACCC	STREME-1	chr13:3866266-3866766	70	79	+	15.32	AGCCACACCC
1-RGCCACACCC	STREME-1	chr10:60612190-60612690	20	29	-	14.89	AACCACACCC
1-RGCCACACCC	STREME-1	chr7:105490727-105491227	39	48	+	14.89	AACCACACCC
1-RGCCACACCC	STREME-1	chr5:138127197-138127697	43	52	-	14.75	GACCACACCC
1-RGCCACACCC	STREME-1	chr14:63796627-63797127	50	59	+	14.75	GACCACACCC
1-RGCCACACCC	STREME-1	chr13:112863645-112864145	75	84	+	14.75	GACCACACCC
1-RGCCACACCC	STREME-1	chr15:81700367-81700867	35	44	+	14.75	GACCACACCC
1-RGCCACACCC	STREME-1	chr4:43977111-43977611	33	42	-	14.75	GACCACACCC
1-RGCCACACCC	STREME-1	chr1:169314208-169314708	19	28	+	13.49	TGCCACACCC
1-RGCCACACCC	STREME-1	chr10:110604369-110604869	37	46	-	13.49	TGCCACACCC
1-RGCCACACCC	STREME-1	chr10:126642277-126642777	59	68	+	13.48	AGACACACCC
1-RGCCACACCC	STREME-1	chr1:75175760-75176260	27	36	+	13.48	AGACACACCC
1-RGCCACACCC	STREME-1	chr18:80416880-80417380	46	55	+	13.48	AGACACACCC
1-RGCCACACCC	STREME-1	chr12:27135944-27136444	82	91	+	13.46	GGCCCCACCC
1-RGCCACACCC	STREME-1	chr5:45951565-45952065	55	64	+	13.45	GGACACGCCC
1-RGCCACACCC	STREME-1	chr9:98389943-98390443	59	68	+	13.41	AGCCCCACCC
1-RGCCACACCC	STREME-1	chr4:154285745-154286245	30	39	-	13.41	AGCCCCACCC
1-RGCCACACCC	STREME-1	chr7:103853792-103854292	89	98	-	13.41	TGCCACGCCC
1-RGCCACACCC	STREME-1	chr11:60988820-60989320	75	84	-	13.41	TGCCACGCCC
1-RGCCACACCC	STREME-1	chr12:41693216-41693716	77	86	-	13.40	AGACACGCCC
1-RGCCACACCC	STREME-1	chr17:24289205-24289705	69	78	+	12.89	ATCCACACCC
1-RGCCACACCC	STREME-1	chr7:111007530-111008030	22	31	-	12.85	GACCCCACCC
1-RGCCACACCC	STREME-1	chr16:49839621-49840121	76	85	+	12.81	AAACACACCC
1-RGCCACACCC	STREME-1	chr15:91082416-91082916	46	55	+	12.63	CACCACACCC
1-RGCCACACCC	STREME-1	chr9:120025371-120025871	3	12	-	12.63	CACCACACCC
1-RGCCACACCC	STREME-1	chr7:105490727-105491227	48	57	+	12.63	CACCACACCC
1-RGCCACACCC	STREME-1	chr4:41334759-41335259	9	18	-	12.58	CGGCACGCCC
1-RGCCACACCC	STREME-1	chr11:117642060-117642560	70	79	-	12.55	CACCACGCCC
1-RGCCACACCC	STREME-1	chr13:81067500-81068000	57	66	-	12.55	CACCACGCCC
1-RGCCACACCC	STREME-1	chr12:114390660-114391160	64	73	-	12.29	GGGCACACCC
1-RGCCACACCC	STREME-1	chr10:128184604-128185104	66	75	-	12.26	AGCCGCGCCC
1-RGCCACACCC	STREME-1	chr7:87847381-87847881	38	47	+	12.18	GGCAACACCC
1-RGCCACACCC	STREME-1	chr9:24715045-24715545	21	30	+	12.16	AGGCACGCCC
1-RGCCACACCC	STREME-1	chr9:21362671-21363171	61	70	-	11.64	TGACACACCC
1-RGCCACACCC	STREME-1	chr1:169322898-169323398	60	69	+	11.58	TGCCCCACCC
1-RGCCACACCC	STREME-1	chr3:88305500-88306000	34	43	-	11.57	GGCCACTCCC
1-RGCCACACCC	STREME-1	chr6:135115628-135116128	38	47	+	11.57	AGACCCACCC
1-RGCCACACCC	STREME-1	chr17:24289205-24289705	51	60	-	11.53	AGCCACTCCC
1-RGCCACACCC	STREME-1	chr13:81067500-81068000	67	76	-	11.50	TACCCCACCC
1-RGCCACACCC	STREME-1	chr11:77795184-77795684	52	61	-	11.49	GACAACGCCC
1-RGCCACACCC	STREME-1	chr16:32508975-32509475	79	88	+	11.43	TACCCCGCCC
1-RGCCACACCC	STREME-1	chr11:32150818-32151318	5	14	+	11.07	GTACACACCC
1-RGCCACACCC	STREME-1	chr13:3866266-3866766	46	55	-	10.83	AAACCCGCCC
1-RGCCACACCC	STREME-1	chr17:47735006-47735506	53	62	-	10.72	CACCCCACCC
1-RGCCACACCC	STREME-1	chr12:112796794-112797294	37	46	-	10.71	AGTCACACCC
1-RGCCACACCC	STREME-1	chr15:78243390-78243890	39	48	-	10.71	AGTCACACCC
1-RGCCACACCC	STREME-1	chr13:57679178-57679678	24	33	+	10.63	AGTCACGCCC
1-RGCCACACCC	STREME-1	chr1:88208803-88209303	29	38	+	10.63	GTCCCCACCC
#
2-CTTATCTBCTC	STREME-2	chr18:80416880-80417380	58	68	+	16.95	CTTATCTCCTC
2-CTTATCTBCTC	STREME-2	chr8:83025150-83025650	88	98	-	14.97	CTTATCTCATC
2-CTTATCTBCTC	STREME-2	chr10:60612190-60612690	42	52	+	14.64	CTTATCTCCAC
2-CTTATCTBCTC	STREME-2	chr11:32150818-32151318	64	74	-	14.50	GTTATCTGCTC
2-CTTATCTBCTC	STREME-2	chr7:87847381-87847881	75	85	-	14.40	CTTATCTTCTG
2-CTTATCTBCTC	STREME-2	chr7:104332488-104332988	15	25	+	14.24	CTTATCTGCTG
2-CTTATCTBCTC	STREME-2	chr5:97380648-97381148	21	31	-	14.18	CTTATCACCCC
2-CTTATCTBCTC	STREME-2	chr7:110976195-110976695	72	82	+	13.98	CTTATATGCTC
2-CTTATCTBCTC	STREME-2	chr11:95661715-95662215	8	18	-	13.54	CGTATCATATC
2-CTTATCTBCTC	STREME-2	chr11:102236405-102236905	56	66	+	13.42	CGTATCTGCTG
2-CTTATCTBCTC	STREME-2	chr12:82044358-82044858	18	28	+	12.83	CTTATCAACTC
2-CTTATCTBCTC	STREME-2	chr13:76003199-76003699	50	60	+	12.46	CTTATCTCTCC
2-CTTATCTBCTC	STREME-2	chr15:80573350-80573850	71	81	-	12.34	CTTATAAGCTC
2-CTTATCTBCTC	STREME-2	chr14:61272713-61273213	46	56	-	12.29	CTTATCTCCAG
2-CTTATCTBCTC	STREME-2	chr5:121049618-121050118	21	31	-	12.13	CTTATCTTTTG
2-CTTATCTBCTC	STREME-2	chr9:21362671-21363171	73	83	+	12.06	CCTATCTTCCC
2-CTTATCTBCTC	STREME-2	chr9:98389943-98390443	50	60	+	11.83	CTTATCTTCAG
2-CTTATCTBCTC	STREME-2	chr1:137838164-137838664	1	11	-	11.67	GCTATCTTCTC
2-CTTATCTBCTC	STREME-2	chr1:169314208-169314708	81	91	-	11.56	ATTATCAGCTC
2-CTTATCTBCTC	STREME-2	chr5:34915767-34916267	86	96	+	11.23	CTGATCTTCTC
2-CTTATCTBCTC	STREME-2	chr5:144579744-144580244	68	78	-	11.01	CTTATCACGGC
2-CTTATCTBCTC	STREME-2	chr10:59256089-59256589	64	74	+	10.87	CTCATCAGCTC
2-CTTATCTBCTC	STREME-2	chr13:76003199-76003699	45	55	+	10.76	CTCATCTTATC
2-CTTATCTBCTC	STREME-2	chr6:135115628-135116128	10	20	+	10.73	CCTATCAGCCC
2-CTTATCTBCTC	STREME-2	chr4:109112541-109113041	67	77	-	10.63	GTTATCTCTCC
2-CTTATCTBCTC	STREME-2	chr5:105994747-105995247	77	87	-	10.61	CTTATCTCCCT
2-CTTATCTBCTC	STREME-2	chr16:92715758-92716258	76	86	-	10.45	GTTATCTCCAG
2-CTTATCTBCTC	STREME-2	chr1:36977019-36977519	35	45	+	10.38	CCTATCTTATG
2-CTTATCTBCTC	STREME-2	chr8:97323995-97324495	41	51	-	10.25	CCCATCTCCTC
2-CTTATCTBCTC	STREME-2	chr12:70860461-70860961	17	27	+	10.14	CCTATCTCACC
