********************************************************************************
STREME - Sensitive, Thorough, Rapid, Enriched Motif Elicitation
********************************************************************************
MEME version 5.5.5 (Release date: Thu Sep 14 08:48:04 2023 +1000)

For further information on how to interpret these results please access https://meme-suite.org/meme.
To get a copy of the MEME Suite software please access https://meme-suite.org.

********************************************************************************


********************************************************************************
REFERENCE
********************************************************************************
If you use this program in your research, please cite:

Timothy L. Bailey,
"STREME: accurate and versatile sequence motif discovery",
Bioinformatics, Mar. 24, 2021.
********************************************************************************


ALPHABET= ACDEFGHIKLMNPQRSTVWY

strands: +

Background letter frequencies
A 0.061 C 0.0368 D 0.0616 E 0.0605 F 0.0437 G 0.0752 H 0.03 I 0.0526 K 0.0505 L 0.114 M 0.0205 N 0.0337 P 0.0411 Q 0.0384 R 0.0405 S 0.0779 T 0.0458 V 0.0574 W 0.0179 Y 0.0411 

MOTIF 1-EAHGGYTFCALASLAI STREME-1
letter-probability matrix: alength= 20 w= 16 nsites= 5 S= 4.0e-003
 0.002125 0.001283 0.002143 0.967295 0.001521 0.002619 0.001045 0.001832 0.001759 0.003958 0.000715 0.001173 0.001429 0.001338 0.001411 0.002711 0.001594 0.001997 0.000623 0.001429
 0.484719 0.001283 0.002143 0.002107 0.001521 0.002619 0.001045 0.001832 0.001759 0.003958 0.000715 0.001173 0.242726 0.001338 0.001411 0.244008 0.001594 0.001997 0.000623 0.001429
 0.002125 0.001283 0.002143 0.002107 0.001521 0.002619 0.966233 0.001832 0.001759 0.003958 0.000715 0.001173 0.001429 0.001338 0.001411 0.002711 0.001594 0.001997 0.000623 0.001429
 0.243422 0.001283 0.002143 0.002107 0.001521 0.485214 0.001045 0.001832 0.001759 0.003958 0.000715 0.001173 0.001429 0.001338 0.001411 0.244008 0.001594 0.001997 0.000623 0.001429
 0.002125 0.001283 0.002143 0.002107 0.001521 0.967808 0.001045 0.001832 0.001759 0.003958 0.000715 0.001173 0.001429 0.001338 0.001411 0.002711 0.001594 0.001997 0.000623 0.001429
 0.002125 0.001283 0.002143 0.002107 0.001521 0.002619 0.001045 0.001832 0.001759 0.003958 0.000715 0.001173 0.001429 0.242635 0.001411 0.002711 0.001594 0.001997 0.000623 0.725320
 0.002125 0.001283 0.002143 0.002107 0.001521 0.002619 0.001045 0.243129 0.001759 0.003958 0.000715 0.001173 0.001429 0.001338 0.001411 0.002711 0.725485 0.001997 0.000623 0.001429
 0.002125 0.001283 0.002143 0.002107 0.484115 0.002619 0.001045 0.001832 0.001759 0.003958 0.000715 0.001173 0.001429 0.001338 0.001411 0.244008 0.001594 0.001997 0.000623 0.242726
 0.002125 0.966471 0.002143 0.002107 0.001521 0.002619 0.001045 0.001832 0.001759 0.003958 0.000715 0.001173 0.001429 0.001338 0.001411 0.002711 0.001594 0.001997 0.000623 0.001429
 0.484719 0.242580 0.002143 0.002107 0.001521 0.243917 0.001045 0.001832 0.001759 0.003958 0.000715 0.001173 0.001429 0.001338 0.001411 0.002711 0.001594 0.001997 0.000623 0.001429
 0.002125 0.001283 0.002143 0.002107 0.001521 0.002619 0.001045 0.001832 0.001759 0.486552 0.000715 0.001173 0.001429 0.001338 0.001411 0.002711 0.484188 0.001997 0.000623 0.001429
 0.484719 0.001283 0.002143 0.002107 0.001521 0.243917 0.001045 0.001832 0.001759 0.003958 0.000715 0.001173 0.001429 0.001338 0.001411 0.244008 0.001594 0.001997 0.000623 0.001429
 0.243422 0.001283 0.002143 0.002107 0.242818 0.002619 0.001045 0.001832 0.001759 0.003958 0.000715 0.001173 0.001429 0.001338 0.001411 0.244008 0.242891 0.001997 0.000623 0.001429
 0.002125 0.001283 0.002143 0.002107 0.001521 0.002619 0.001045 0.001832 0.001759 0.969146 0.000715 0.001173 0.001429 0.001338 0.001411 0.002711 0.001594 0.001997 0.000623 0.001429
 0.726016 0.001283 0.002143 0.002107 0.001521 0.002619 0.001045 0.001832 0.001759 0.003958 0.000715 0.001173 0.001429 0.001338 0.001411 0.002711 0.001594 0.243294 0.000623 0.001429
 0.002125 0.001283 0.002143 0.002107 0.001521 0.002619 0.001045 0.725723 0.001759 0.245255 0.000715 0.001173 0.001429 0.001338 0.001411 0.002711 0.001594 0.001997 0.000623 0.001429

MOTIF 2-GGFQGRSNKLVDGCYSFWVL STREME-2
letter-probability matrix: alength= 20 w= 20 nsites= 5 S= 4.0e-003
 0.002125 0.001283 0.002143 0.002107 0.001521 0.726511 0.001045 0.001832 0.001759 0.003958 0.000715 0.001173 0.001429 0.001338 0.242708 0.002711 0.001594 0.001997 0.000623 0.001429
 0.002125 0.001283 0.002143 0.002107 0.001521 0.967808 0.001045 0.001832 0.001759 0.003958 0.000715 0.001173 0.001429 0.001338 0.001411 0.002711 0.001594 0.001997 0.000623 0.001429
 0.002125 0.001283 0.002143 0.002107 0.725412 0.002619 0.001045 0.001832 0.001759 0.245255 0.000715 0.001173 0.001429 0.001338 0.001411 0.002711 0.001594 0.001997 0.000623 0.001429
 0.002125 0.242580 0.002143 0.002107 0.001521 0.002619 0.001045 0.001832 0.001759 0.003958 0.000715 0.242470 0.001429 0.483932 0.001411 0.002711 0.001594 0.001997 0.000623 0.001429
 0.002125 0.001283 0.002143 0.002107 0.001521 0.967808 0.001045 0.001832 0.001759 0.003958 0.000715 0.001173 0.001429 0.001338 0.001411 0.002711 0.001594 0.001997 0.000623 0.001429
 0.002125 0.001283 0.002143 0.002107 0.001521 0.002619 0.001045 0.001832 0.001759 0.003958 0.000715 0.001173 0.001429 0.001338 0.966599 0.002711 0.001594 0.001997 0.000623 0.001429
 0.002125 0.242580 0.002143 0.243404 0.001521 0.002619 0.001045 0.001832 0.001759 0.003958 0.000715 0.001173 0.242726 0.001338 0.001411 0.244008 0.001594 0.001997 0.000623 0.001429
 0.002125 0.001283 0.002143 0.002107 0.001521 0.002619 0.001045 0.001832 0.001759 0.003958 0.000715 0.725064 0.001429 0.001338 0.001411 0.244008 0.001594 0.001997 0.000623 0.001429
 0.002125 0.001283 0.002143 0.002107 0.001521 0.002619 0.001045 0.001832 0.966947 0.003958 0.000715 0.001173 0.001429 0.001338 0.001411 0.002711 0.001594 0.001997 0.000623 0.001429
 0.002125 0.001283 0.002143 0.002107 0.242818 0.002619 0.001045 0.001832 0.001759 0.727849 0.000715 0.001173 0.001429 0.001338 0.001411 0.002711 0.001594 0.001997 0.000623 0.001429
 0.243422 0.001283 0.002143 0.002107 0.001521 0.002619 0.001045 0.001832 0.001759 0.003958 0.000715 0.001173 0.242726 0.001338 0.001411 0.002711 0.001594 0.484591 0.000623 0.001429
 0.002125 0.001283 0.967331 0.002107 0.001521 0.002619 0.001045 0.001832 0.001759 0.003958 0.000715 0.001173 0.001429 0.001338 0.001411 0.002711 0.001594 0.001997 0.000623 0.001429
 0.002125 0.001283 0.002143 0.002107 0.001521 0.485214 0.001045 0.001832 0.001759 0.003958 0.000715 0.001173 0.001429 0.001338 0.001411 0.002711 0.242891 0.243294 0.000623 0.001429
 0.002125 0.966471 0.002143 0.002107 0.001521 0.002619 0.001045 0.001832 0.001759 0.003958 0.000715 0.001173 0.001429 0.001338 0.001411 0.002711 0.001594 0.001997 0.000623 0.001429
 0.002125 0.001283 0.002143 0.002107 0.001521 0.002619 0.001045 0.001832 0.001759 0.003958 0.000715 0.001173 0.001429 0.001338 0.001411 0.002711 0.001594 0.001997 0.000623 0.966617
 0.243422 0.001283 0.002143 0.002107 0.001521 0.002619 0.001045 0.001832 0.001759 0.003958 0.000715 0.001173 0.001429 0.001338 0.001411 0.726602 0.001594 0.001997 0.000623 0.001429
 0.002125 0.001283 0.002143 0.002107 0.725412 0.002619 0.001045 0.001832 0.001759 0.003958 0.000715 0.001173 0.001429 0.001338 0.001411 0.002711 0.001594 0.001997 0.241920 0.001429
 0.002125 0.001283 0.002143 0.002107 0.001521 0.002619 0.001045 0.001832 0.001759 0.003958 0.000715 0.001173 0.001429 0.001338 0.001411 0.002711 0.001594 0.001997 0.965812 0.001429
 0.002125 0.242580 0.002143 0.002107 0.001521 0.002619 0.001045 0.001832 0.001759 0.003958 0.000715 0.001173 0.001429 0.242635 0.001411 0.002711 0.001594 0.484591 0.000623 0.001429
 0.243422 0.001283 0.002143 0.002107 0.001521 0.243917 0.001045 0.001832 0.001759 0.486552 0.000715 0.001173 0.001429 0.001338 0.001411 0.002711 0.001594 0.001997 0.000623 0.001429

********************************************************************************
Stopped because maximum number of motifs (2) reached.
********************************************************************************
COMMAND:	streme -p common/farntrans5.s -oc results/streme5 -objfun de -order 1 -nmotifs 2 -protein -maxw 25 -hofract 0.2 -verbosity 1 
********************************************************************************
CPU:		Timothys-iMac.local
********************************************************************************
FINALTIME:	0.31 seconds
********************************************************************************
