********************************************************************************
MEME - Motif discovery tool
********************************************************************************
MEME version 5.5.5 (Release date: Thu Sep 14 08:48:04 2023 +1000)

For further information on how to interpret these results please access https://meme-suite.org/meme.
To get a copy of the MEME Suite software please access https://meme-suite.org.

********************************************************************************


********************************************************************************
REFERENCE
********************************************************************************
If you use this program in your research, please cite:

Timothy L. Bailey and Charles Elkan,
"Fitting a mixture model by expectation maximization to
discover motifs in biopolymers",
Proceedings of the Second International Conference on Intelligent Systems
for Molecular Biology, pp. 28-36, AAAI Press, Menlo Park, California, 1994.
********************************************************************************


********************************************************************************
TRAINING SET
********************************************************************************
PRIMARY SEQUENCES= common/lipocalin.s
CONTROL SEQUENCES= --none--
ALPHABET= ACDEFGHIKLMNPQRSTVWY
Sequence name            Weight Length  Sequence name            Weight Length  
-------------            ------ ------  -------------            ------ ------  
ICYA_MANSE               1.0000    189  LACB_BOVIN               1.0000    178  
BBP_PIEBR                1.0000    173  RETB_BOVIN               1.0000    183  
MUP2_MOUSE               1.0000    180  
********************************************************************************

********************************************************************************
COMMAND LINE SUMMARY
********************************************************************************
This information can also be useful in the event you wish to report a
problem with the MEME software.

command: meme -p 4 common/lipocalin.s -oc results/meme16 -mod oops -protein -nmotifs 2 -objfun classic -minw 8 -nostatus 

model:  mod=          oops    nmotifs=         2    evt=           inf
objective function:           em=       E-value of product of p-values
                              starts=   E-value of product of p-values
width:  minw=            8    maxw=           50
nsites: minsites=        5    maxsites=        5    wnsites=       0.8
theta:  spmap=         pam    spfuzz=        120
em:     prior=        dmix    b=               0    maxiter=        50
        distance=    1e-05
trim:   wg=             11    ws=              1    endgaps=       yes
data:   n=             903    N=               5
sample: seed=            0    hsfrac=          0
        searchsize=    903    norand=         no    csites=       1000
Dirichlet mixture priors file: prior30.plib
Letter frequencies in dataset:
A 0.072 C 0.0288 D 0.0687 E 0.0775 F 0.0432 G 0.0576 H 0.0255 I 0.0476 K 0.0864 
L 0.0875 M 0.0177 N 0.0532 P 0.0321 Q 0.0288 R 0.031 S 0.0587 T 0.0476 V 0.0698 
W 0.0166 Y 0.0498 
Background letter frequencies (from file dataset with add-one prior applied):
A 0.0715 C 0.0293 D 0.0683 E 0.0769 F 0.0433 G 0.0574 H 0.026 I 0.0477 K 0.0856 
L 0.0867 M 0.0184 N 0.0531 P 0.0325 Q 0.0293 R 0.0314 S 0.0585 T 0.0477 V 0.0693 
W 0.0173 Y 0.0498 
Background model order: 0
********************************************************************************


********************************************************************************
MOTIF GACPEVKPVENFDISKFAGTWYEIAK MEME-1	width =  26  sites =   5  llr = 244  E-value = 5.0e-006
********************************************************************************
--------------------------------------------------------------------------------
	Motif GACPEVKPVENFDISKFAGTWYEIAK MEME-1 Description
--------------------------------------------------------------------------------
Simplified        A  :6::2:::::::::22:6:2::2:8:
pos.-specific     C  2:4:::::::::::::::::::::::
probability       D  ::::2::::22:8:::::::::::::
matrix            E  ::222::::2::::2::::2::4:::
                  F  :::::2:::::8::::4:::::::::
                  G  4:::::::2:2:::::::a:::::::
                  H  2::::::::::::::::2:::4::::
                  I  :::2:::::::::2::2::::::42:
                  K  ::::::4:22:::2:4:::2:::::6
                  L  ::2::::::::2:2:::::::::2:2
                  M  ::::::::2::::::::::::::2:2
                  N  :::::::::26:2::2:2::::::::
                  P  :::4:::4::::::::::::::::::
                  Q  2:::::2:::::::2:::::::::::
                  R  :2::::2::2:::::2::::::::::
                  S  :::2222:::::::4:::::::2:::
                  T  :::::2:4:::::::::::4::2:::
                  V  ::2:24:24::::2::2::::::2::
                  W  :::::::::::::2::::::a2::::
                  Y  :2::::::::::::::2::::4::::

         bits    5.9                     *     
                 5.3                     *     
                 4.7                     *     
                 4.1                   * *     
Relative         3.5            **     * **    
Entropy          2.9 **     *  ***    ** **  * 
(70.4 bits)      2.3 **** **** *** ***** ** ***
                 1.8 **************************
                 1.2 **************************
                 0.6 **************************
                 0.0 --------------------------

Multilevel           GACPAVKPVDNFDISKFAGTWHEIAK
consensus            CREEDFQTGEDLNKAAIH A YALIL
sequence             HYLIESRVKKG  LENVN E WSM M
                     Q VSSTS MN   VQRY  K  TV  
                         V    R   W            
--------------------------------------------------------------------------------

--------------------------------------------------------------------------------
	Motif GACPEVKPVENFDISKFAGTWYEIAK MEME-1 sites sorted by position p-value
--------------------------------------------------------------------------------
Sequence name             Start   P-value                       Site         
-------------             ----- ---------            --------------------------
BBP_PIEBR                     6  1.76e-24      NVYHD GACPEVKPVDNFDWSNYHGKWWEVAK YPNSVEKYGK
ICYA_MANSE                    7  2.29e-24     GDIFYP GYCPDVKPVNDFDLSAFAGAWHEIAK LPLENENQGK
RETB_BOVIN                    4  1.97e-19        ERD CRVSSFRVKENFDKARFAGTWYAMAK KDPEGLFLQD
LACB_BOVIN                   15  2.92e-18 LLALALTCGA QALIVTQTMKGLDIQKVAGTWYSLAM AASDISLLDA
MUP2_MOUSE                   17  6.60e-17 LCLGLTLVCV HAEEASSTGRNFNVEKINGEWHTIIL ASDKREKIED
--------------------------------------------------------------------------------

--------------------------------------------------------------------------------
	Motif GACPEVKPVENFDISKFAGTWYEIAK MEME-1 block diagrams
--------------------------------------------------------------------------------
SEQUENCE NAME            POSITION P-VALUE  MOTIF DIAGRAM
-------------            ----------------  -------------
BBP_PIEBR                         1.8e-24  5_[1]_142
ICYA_MANSE                        2.3e-24  6_[1]_157
RETB_BOVIN                          2e-19  3_[1]_154
LACB_BOVIN                        2.9e-18  14_[1]_138
MUP2_MOUSE                        6.6e-17  16_[1]_138
--------------------------------------------------------------------------------

--------------------------------------------------------------------------------
	Motif GACPEVKPVENFDISKFAGTWYEIAK MEME-1 in BLOCKS format
--------------------------------------------------------------------------------
BL   MOTIF GACPEVKPVENFDISKFAGTWYEIAK width=26 seqs=5
BBP_PIEBR                (    6) GACPEVKPVDNFDWSNYHGKWWEVAK  1 
ICYA_MANSE               (    7) GYCPDVKPVNDFDLSAFAGAWHEIAK  1 
RETB_BOVIN               (    4) CRVSSFRVKENFDKARFAGTWYAMAK  1 
LACB_BOVIN               (   15) QALIVTQTMKGLDIQKVAGTWYSLAM  1 
MUP2_MOUSE               (   17) HAEEASSTGRNFNVEKINGEWHTIIL  1 
//

--------------------------------------------------------------------------------

--------------------------------------------------------------------------------
	Motif GACPEVKPVENFDISKFAGTWYEIAK MEME-1 position-specific scoring matrix
--------------------------------------------------------------------------------
log-odds matrix: alength= 20 w= 26 n= 778 bayes= 7.2724 E= 5.0e-006 
   -99    144   -149   -133   -258    269    220   -210   -126   -235   -128    -87   -179    195    -34    -79   -105   -210   -298   -234 
   289   -172   -248   -188   -180   -145   -158   -164   -148   -197    -97   -189   -221    -78    150    -45   -105   -120   -261     74 
   -84    312   -314     44   -111   -230   -180     36   -244     92     33   -225   -204   -122   -125   -133    -66    134   -214   -197 
   -92   -302   -187     36   -266   -208   -155     70   -160   -213   -130   -170    388    -48    -75     72   -103   -192   -332   -302 
   115   -282     98    109   -244   -150    -77   -177    -69   -197    -86    -77   -126     44      3    111    -51     64   -285   -236 
   -68   -167   -316   -260    114   -226   -183     30   -258    -72     12   -219   -200   -135   -133     94    163    231   -223   -188 
  -144   -348   -210   -121   -328   -216    -91   -243    200   -239   -133   -129   -194    225    247    114   -111   -243   -308   -284 
   -92   -241   -296   -256   -247   -224   -228   -114   -258   -190   -105   -229    361   -140   -151    -72    242     70   -329   -324 
   -63   -187   -232   -163   -140     75   -134     22     37    -77    241   -166   -172    -50    -40   -100    -53    221   -226   -208 
   -71   -310    103    103   -254   -142    -60   -205     81   -207    -94    124   -126     52    201    -34    -50   -195   -285   -234 
  -242   -375     91   -196   -382     91    -98   -352   -244   -408   -311    349   -242   -122   -182    -80   -157   -389   -396   -351 
  -318   -290   -467   -456    425   -424   -363   -172   -484    -47   -115   -430   -331   -374   -362   -296   -352   -245   -202   -103 
  -301   -418    363   -117   -408   -310   -244   -367   -403   -415   -323    -21   -370   -260   -284   -260   -313   -381   -414   -410 
  -107   -180   -350   -287   -106   -249   -200    252     -6     95     46   -249   -222   -152   -148   -153    -77    137    216   -191 
    96   -298    -79    114   -258   -152    -75   -202    -65   -209    -96    -73   -125    216      7    200    -40   -190   -293   -244 
    64   -339   -187   -115   -314   -207    -99   -238    223   -242   -134    100   -185     18    221   -102   -106   -241   -310   -282 
  -181   -226   -378   -340    342   -310   -122     98   -351    -88    -39   -304   -258   -227   -212   -200   -176     42   -146    170 
   273   -215   -127   -140   -272   -123    195   -223   -154   -247   -141    118   -194    -56    -71    -37    -96   -174   -321   -276 
  -199   -393   -301   -366   -446    397   -329   -419   -374   -473   -336   -252   -326   -311   -240   -221   -320   -402   -399   -453 
    89   -295    -91    104   -246   -153    -67   -184     77   -196    -82    -70   -123     52     29    -26    223   -176   -280   -234 
  -388   -388   -438   -441   -134   -384   -353   -366   -445   -245   -239   -397   -380   -302   -275   -375   -361   -359    569   -207 
  -290   -318   -383   -376     73   -361    354   -252   -386   -230   -173   -259   -307   -176   -201   -252   -277   -283    286    292 
   106   -271    -98    173   -260   -150    -94   -198    -87   -214   -101    -85   -134     26    -13    137    156   -184   -300   -255 
  -245   -306   -430   -410   -197   -384   -361    357   -396     52    172   -359   -346   -288   -287   -287   -197    121   -336   -320 
   328   -140   -375   -329   -260   -140   -310     72   -352   -199   -114   -318   -308   -242   -222    -45   -138    -72   -331   -364 
  -192   -313   -316   -228   -235   -288   -185   -128    276     36    217   -224   -256    -77     45   -195   -163   -176   -307   -304 
--------------------------------------------------------------------------------

--------------------------------------------------------------------------------
	Motif GACPEVKPVENFDISKFAGTWYEIAK MEME-1 position-specific probability matrix
--------------------------------------------------------------------------------
letter-probability matrix: alength= 20 w= 26 nsites= 5 E= 5.0e-006 
 0.000000  0.200000  0.000000  0.000000  0.000000  0.400000  0.200000  0.000000  0.000000  0.000000  0.000000  0.000000  0.000000  0.200000  0.000000  0.000000  0.000000  0.000000  0.000000  0.000000 
 0.600000  0.000000  0.000000  0.000000  0.000000  0.000000  0.000000  0.000000  0.000000  0.000000  0.000000  0.000000  0.000000  0.000000  0.200000  0.000000  0.000000  0.000000  0.000000  0.200000 
 0.000000  0.400000  0.000000  0.200000  0.000000  0.000000  0.000000  0.000000  0.000000  0.200000  0.000000  0.000000  0.000000  0.000000  0.000000  0.000000  0.000000  0.200000  0.000000  0.000000 
 0.000000  0.000000  0.000000  0.200000  0.000000  0.000000  0.000000  0.200000  0.000000  0.000000  0.000000  0.000000  0.400000  0.000000  0.000000  0.200000  0.000000  0.000000  0.000000  0.000000 
 0.200000  0.000000  0.200000  0.200000  0.000000  0.000000  0.000000  0.000000  0.000000  0.000000  0.000000  0.000000  0.000000  0.000000  0.000000  0.200000  0.000000  0.200000  0.000000  0.000000 
 0.000000  0.000000  0.000000  0.000000  0.200000  0.000000  0.000000  0.000000  0.000000  0.000000  0.000000  0.000000  0.000000  0.000000  0.000000  0.200000  0.200000  0.400000  0.000000  0.000000 
 0.000000  0.000000  0.000000  0.000000  0.000000  0.000000  0.000000  0.000000  0.400000  0.000000  0.000000  0.000000  0.000000  0.200000  0.200000  0.200000  0.000000  0.000000  0.000000  0.000000 
 0.000000  0.000000  0.000000  0.000000  0.000000  0.000000  0.000000  0.000000  0.000000  0.000000  0.000000  0.000000  0.400000  0.000000  0.000000  0.000000  0.400000  0.200000  0.000000  0.000000 
 0.000000  0.000000  0.000000  0.000000  0.000000  0.200000  0.000000  0.000000  0.200000  0.000000  0.200000  0.000000  0.000000  0.000000  0.000000  0.000000  0.000000  0.400000  0.000000  0.000000 
 0.000000  0.000000  0.200000  0.200000  0.000000  0.000000  0.000000  0.000000  0.200000  0.000000  0.000000  0.200000  0.000000  0.000000  0.200000  0.000000  0.000000  0.000000  0.000000  0.000000 
 0.000000  0.000000  0.200000  0.000000  0.000000  0.200000  0.000000  0.000000  0.000000  0.000000  0.000000  0.600000  0.000000  0.000000  0.000000  0.000000  0.000000  0.000000  0.000000  0.000000 
 0.000000  0.000000  0.000000  0.000000  0.800000  0.000000  0.000000  0.000000  0.000000  0.200000  0.000000  0.000000  0.000000  0.000000  0.000000  0.000000  0.000000  0.000000  0.000000  0.000000 
 0.000000  0.000000  0.800000  0.000000  0.000000  0.000000  0.000000  0.000000  0.000000  0.000000  0.000000  0.200000  0.000000  0.000000  0.000000  0.000000  0.000000  0.000000  0.000000  0.000000 
 0.000000  0.000000  0.000000  0.000000  0.000000  0.000000  0.000000  0.200000  0.200000  0.200000  0.000000  0.000000  0.000000  0.000000  0.000000  0.000000  0.000000  0.200000  0.200000  0.000000 
 0.200000  0.000000  0.000000  0.200000  0.000000  0.000000  0.000000  0.000000  0.000000  0.000000  0.000000  0.000000  0.000000  0.200000  0.000000  0.400000  0.000000  0.000000  0.000000  0.000000 
 0.200000  0.000000  0.000000  0.000000  0.000000  0.000000  0.000000  0.000000  0.400000  0.000000  0.000000  0.200000  0.000000  0.000000  0.200000  0.000000  0.000000  0.000000  0.000000  0.000000 
 0.000000  0.000000  0.000000  0.000000  0.400000  0.000000  0.000000  0.200000  0.000000  0.000000  0.000000  0.000000  0.000000  0.000000  0.000000  0.000000  0.000000  0.200000  0.000000  0.200000 
 0.600000  0.000000  0.000000  0.000000  0.000000  0.000000  0.200000  0.000000  0.000000  0.000000  0.000000  0.200000  0.000000  0.000000  0.000000  0.000000  0.000000  0.000000  0.000000  0.000000 
 0.000000  0.000000  0.000000  0.000000  0.000000  1.000000  0.000000  0.000000  0.000000  0.000000  0.000000  0.000000  0.000000  0.000000  0.000000  0.000000  0.000000  0.000000  0.000000  0.000000 
 0.200000  0.000000  0.000000  0.200000  0.000000  0.000000  0.000000  0.000000  0.200000  0.000000  0.000000  0.000000  0.000000  0.000000  0.000000  0.000000  0.400000  0.000000  0.000000  0.000000 
 0.000000  0.000000  0.000000  0.000000  0.000000  0.000000  0.000000  0.000000  0.000000  0.000000  0.000000  0.000000  0.000000  0.000000  0.000000  0.000000  0.000000  0.000000  1.000000  0.000000 
 0.000000  0.000000  0.000000  0.000000  0.000000  0.000000  0.400000  0.000000  0.000000  0.000000  0.000000  0.000000  0.000000  0.000000  0.000000  0.000000  0.000000  0.000000  0.200000  0.400000 
 0.200000  0.000000  0.000000  0.400000  0.000000  0.000000  0.000000  0.000000  0.000000  0.000000  0.000000  0.000000  0.000000  0.000000  0.000000  0.200000  0.200000  0.000000  0.000000  0.000000 
 0.000000  0.000000  0.000000  0.000000  0.000000  0.000000  0.000000  0.400000  0.000000  0.200000  0.200000  0.000000  0.000000  0.000000  0.000000  0.000000  0.000000  0.200000  0.000000  0.000000 
 0.800000  0.000000  0.000000  0.000000  0.000000  0.000000  0.000000  0.200000  0.000000  0.000000  0.000000  0.000000  0.000000  0.000000  0.000000  0.000000  0.000000  0.000000  0.000000  0.000000 
 0.000000  0.000000  0.000000  0.000000  0.000000  0.000000  0.000000  0.000000  0.600000  0.200000  0.200000  0.000000  0.000000  0.000000  0.000000  0.000000  0.000000  0.000000  0.000000  0.000000 
--------------------------------------------------------------------------------

--------------------------------------------------------------------------------
	Motif GACPEVKPVENFDISKFAGTWYEIAK MEME-1 regular expression
--------------------------------------------------------------------------------
[GCHQ][ARY][CELV][PEIS][ADESV][VFST][KQRS][PTV][VGKM][DEKNR][NDG][FL][DN][IKLVW][SAEQ][KANR][FIVY][AHN]G[TAEK]W[HYW][EAST][ILMV][AI][KLM]
--------------------------------------------------------------------------------




Time  0.21 secs.

********************************************************************************


********************************************************************************
MOTIF FWVLDTDYKNY MEME-2	width =  11  sites =   5  llr = 116  E-value = 1.1e-002
********************************************************************************
--------------------------------------------------------------------------------
	Motif FWVLDTDYKNY MEME-2 Description
--------------------------------------------------------------------------------
Simplified        A  ::::2::::::
pos.-specific     C  :::::::::::
probability       D  ::::4:a:2::
matrix            E  ::::::::2::
                  F  4:::::::::4
                  G  :::::::::::
                  H  2::::::::::
                  I  ::42:::::::
                  K  ::::2:::62:
                  L  :2:6:::::::
                  M  :::::::::::
                  N  :2:::::2:6:
                  P  2::2:::::::
                  Q  :::::::::::
                  R  :::::::::::
                  S  ::::2::::::
                  T  :2:::a:::2:
                  V  2:6::::::::
                  W  :4:::::::::
                  Y  :::::::8::6

         bits    5.9            
                 5.3            
                 4.7      *     
                 4.1      **    
Relative         3.5      ***  *
Entropy          2.9 ***  *** **
(33.5 bits)      2.3 **** ******
                 1.8 ***********
                 1.2 ***********
                 0.6 ***********
                 0.0 -----------

Multilevel           FWVLDTDYKNY
consensus            HLIIA  NDKF
sequence             PN PK   ET 
                     VT  S      
                                
--------------------------------------------------------------------------------

--------------------------------------------------------------------------------
	Motif FWVLDTDYKNY MEME-2 sites sorted by position p-value
--------------------------------------------------------------------------------
Sequence name             Start   P-value               Site  
-------------             ----- ---------            -----------
ICYA_MANSE                  103  8.25e-13 KFGQRVVNLV PWVLATDYKNY AINYNCDYHP
RETB_BOVIN                  104  7.05e-11 ASFLQKGNDD HWIIDTDYETF AVQYSCRLLN
BBP_PIEBR                    99  1.28e-10 TYGGVTKENV FNVLSTDNKNY IIGYYCKYDE
MUP2_MOUSE                  108  4.00e-10 YSVTYDGFNT FTIPKTDYDNF LMAHLINEKD
LACB_BOVIN                  108  1.69e-09 FKIDALNENK VLVLDTDYKKY LLFCMENSAE
--------------------------------------------------------------------------------

--------------------------------------------------------------------------------
	Motif FWVLDTDYKNY MEME-2 block diagrams
--------------------------------------------------------------------------------
SEQUENCE NAME            POSITION P-VALUE  MOTIF DIAGRAM
-------------            ----------------  -------------
ICYA_MANSE                        8.2e-13  102_[2]_76
RETB_BOVIN                        7.1e-11  103_[2]_69
BBP_PIEBR                         1.3e-10  98_[2]_64
MUP2_MOUSE                          4e-10  107_[2]_62
LACB_BOVIN                        1.7e-09  107_[2]_60
--------------------------------------------------------------------------------

--------------------------------------------------------------------------------
	Motif FWVLDTDYKNY MEME-2 in BLOCKS format
--------------------------------------------------------------------------------
BL   MOTIF FWVLDTDYKNY width=11 seqs=5
ICYA_MANSE               (  103) PWVLATDYKNY  1 
RETB_BOVIN               (  104) HWIIDTDYETF  1 
BBP_PIEBR                (   99) FNVLSTDNKNY  1 
MUP2_MOUSE               (  108) FTIPKTDYDNF  1 
LACB_BOVIN               (  108) VLVLDTDYKKY  1 
//

--------------------------------------------------------------------------------

--------------------------------------------------------------------------------
	Motif FWVLDTDYKNY MEME-2 position-specific scoring matrix
--------------------------------------------------------------------------------
log-odds matrix: alength= 20 w= 11 n= 853 bayes= 7.40599 E= 1.1e-002 
  -125   -208   -290   -239    294   -248    179    -55   -244    -93    -23   -219    151   -123   -126   -139   -115     66   -140    111 
  -162   -256   -284   -238   -116   -257   -185   -103   -231     -1    -60     23   -238   -121   -123   -152     71   -126    495   -171 
  -187   -259   -460   -432   -253   -411   -393    294   -444   -100    -72   -409   -350   -345   -317   -333   -179    284   -423   -402 
  -241   -288   -462   -383   -126   -379   -302    114   -383    294     55   -375     97   -218   -225   -287   -207    -90   -286   -303 
    87   -310    199    -27   -267   -139    -74   -219     69   -226   -114    -38   -135     29     -1    118    -60   -209   -301   -248 
  -211   -289   -379   -410   -366   -321   -325   -239   -365   -355   -194   -226   -304   -238   -240    -26    413   -240   -397   -434 
  -314   -426    368   -127   -416   -332   -262   -376   -425   -423   -332   -102   -381   -278   -298   -284   -334   -389   -420   -421 
  -225   -294   -274   -298     78   -282    -38   -226   -307   -220   -157    120   -267   -192   -179   -191   -229   -254    -84    364 
  -140   -422    109    152   -378   -212   -152   -292    227   -299   -190   -123   -188     10    -34   -125   -141   -275   -395   -345 
  -219   -352   -147   -205   -340   -210    -87   -272     -9   -326   -217    360   -238    -85    -82    -95     66   -308   -341   -333 
  -252   -295   -377   -356    284   -344    -34   -222   -366   -206   -151   -294   -288   -226   -210   -233   -263   -256    -56    339 
--------------------------------------------------------------------------------

--------------------------------------------------------------------------------
	Motif FWVLDTDYKNY MEME-2 position-specific probability matrix
--------------------------------------------------------------------------------
letter-probability matrix: alength= 20 w= 11 nsites= 5 E= 1.1e-002 
 0.000000  0.000000  0.000000  0.000000  0.400000  0.000000  0.200000  0.000000  0.000000  0.000000  0.000000  0.000000  0.200000  0.000000  0.000000  0.000000  0.000000  0.200000  0.000000  0.000000 
 0.000000  0.000000  0.000000  0.000000  0.000000  0.000000  0.000000  0.000000  0.000000  0.200000  0.000000  0.200000  0.000000  0.000000  0.000000  0.000000  0.200000  0.000000  0.400000  0.000000 
 0.000000  0.000000  0.000000  0.000000  0.000000  0.000000  0.000000  0.400000  0.000000  0.000000  0.000000  0.000000  0.000000  0.000000  0.000000  0.000000  0.000000  0.600000  0.000000  0.000000 
 0.000000  0.000000  0.000000  0.000000  0.000000  0.000000  0.000000  0.200000  0.000000  0.600000  0.000000  0.000000  0.200000  0.000000  0.000000  0.000000  0.000000  0.000000  0.000000  0.000000 
 0.200000  0.000000  0.400000  0.000000  0.000000  0.000000  0.000000  0.000000  0.200000  0.000000  0.000000  0.000000  0.000000  0.000000  0.000000  0.200000  0.000000  0.000000  0.000000  0.000000 
 0.000000  0.000000  0.000000  0.000000  0.000000  0.000000  0.000000  0.000000  0.000000  0.000000  0.000000  0.000000  0.000000  0.000000  0.000000  0.000000  1.000000  0.000000  0.000000  0.000000 
 0.000000  0.000000  1.000000  0.000000  0.000000  0.000000  0.000000  0.000000  0.000000  0.000000  0.000000  0.000000  0.000000  0.000000  0.000000  0.000000  0.000000  0.000000  0.000000  0.000000 
 0.000000  0.000000  0.000000  0.000000  0.000000  0.000000  0.000000  0.000000  0.000000  0.000000  0.000000  0.200000  0.000000  0.000000  0.000000  0.000000  0.000000  0.000000  0.000000  0.800000 
 0.000000  0.000000  0.200000  0.200000  0.000000  0.000000  0.000000  0.000000  0.600000  0.000000  0.000000  0.000000  0.000000  0.000000  0.000000  0.000000  0.000000  0.000000  0.000000  0.000000 
 0.000000  0.000000  0.000000  0.000000  0.000000  0.000000  0.000000  0.000000  0.200000  0.000000  0.000000  0.600000  0.000000  0.000000  0.000000  0.000000  0.200000  0.000000  0.000000  0.000000 
 0.000000  0.000000  0.000000  0.000000  0.400000  0.000000  0.000000  0.000000  0.000000  0.000000  0.000000  0.000000  0.000000  0.000000  0.000000  0.000000  0.000000  0.000000  0.000000  0.600000 
--------------------------------------------------------------------------------

--------------------------------------------------------------------------------
	Motif FWVLDTDYKNY MEME-2 regular expression
--------------------------------------------------------------------------------
[FHPV][WLNT][VI][LIP][DAKS]TD[YN][KDE][NKT][YF]
--------------------------------------------------------------------------------




Time  0.33 secs.

********************************************************************************


********************************************************************************
SUMMARY OF MOTIFS
********************************************************************************

--------------------------------------------------------------------------------
	Combined block diagrams: non-overlapping sites with p-value < 0.0001
--------------------------------------------------------------------------------
SEQUENCE NAME            COMBINED P-VALUE  MOTIF DIAGRAM
-------------            ----------------  -------------
ICYA_MANSE                       4.05e-30  6_[1(2.29e-24)]_70_[2(8.25e-13)]_76
LACB_BOVIN                       6.54e-21  14_[1(2.92e-18)]_67_[2(1.69e-09)]_\
    60
BBP_PIEBR                        3.72e-28  5_[1(1.76e-24)]_67_[2(1.28e-10)]_64
RETB_BOVIN                       2.18e-23  3_[1(1.97e-19)]_74_[2(7.05e-11)]_69
MUP2_MOUSE                       3.46e-20  16_[1(6.60e-17)]_65_[2(4.00e-10)]_\
    62
--------------------------------------------------------------------------------

********************************************************************************


********************************************************************************
Stopped because requested number of motifs (2) found.
********************************************************************************

CPU: Timothys-iMac.local

********************************************************************************
