motif_id	motif_alt_id	sequence_name	start	stop	strand	score	p-value	q-value	matched_sequence
CGGYGGGG	MEME-2	Scer	1253	1260	-	-2.44898	0.000742	0	TGGAGGGG
GCATCRGRBSAGA	MEME-3	Scer	2080	2092	+	-15.3371	0.00116	0	GCATGGGCATAGA
GCATCRGRBSAGA	MEME-3	Scer	1760	1772	+	-16.2247	0.00121	0	GCATCGGAAGTTT
GCATCRGRBSAGA	MEME-3	Scer	1683	1695	-	-16.9213	0.00139	0	GCACCTTAGTAGA
GCATCRGRBSAGA	MEME-3	Scer	2290	2302	-	-17.7865	0.00214	0	GTATAGGACAAAA
GCATCRGRBSAGA	MEME-3	Scer	1719	1731	-	-17.809	0.00226	0	GCGTAGAAGGCGA
GCATCRGRBSAGA	MEME-3	Scer	1790	1802	+	-17.9213	0.00234	0	GCATTAGCACAGT
GCATCRGRBSAGA	MEME-3	Scer	2073	2085	-	-18.0674	0.00247	0	CCATGCTATGAGA
GCATCRGRBSAGA	MEME-3	Scer	811	823	+	-18.7865	0.00384	0	GTATGAGTTGGGA
GCATCRGRBSAGA	MEME-3	Scer	1663	1675	-	-18.809	0.00412	0	GAACAGGGTGTGA
GCATCRGRBSAGA	MEME-3	Scer	2035	2047	-	-18.809	0.00412	0	TCCTCGAGGGACA
GCATCRGRBSAGA	MEME-3	Scer	427	439	+	-19.0674	0.00426	0	ACATGAGACAAAA
CGGYGGGG	MEME-2	Scer	1256	1263	-	-3.73469	0.00441	0	CGTTGGAG
CGGYGGGG	MEME-2	Scer	2130	2137	+	-3.73469	0.00441	0	CTTTGGGG
GCATCRGRBSAGA	MEME-3	Scer	1728	1740	-	-19.0899	0.00461	0	GCATAAAACGCGT
GCATCRGRBSAGA	MEME-3	Scer	1951	1963	+	-19.3708	0.00506	0	TCAAAAAAGGAGA
GCATCRGRBSAGA	MEME-3	Scer	1151	1163	-	-19.5056	0.00528	0	GCTAAAGGTAAGA
GCATCRGRBSAGA	MEME-3	Scer	422	434	+	-19.6517	0.0055	0	GAACAACATGAGA
GCATCRGRBSAGA	MEME-3	Scer	277	289	+	-20.0899	0.00629	0	GCTTAAAAGCCGA
GCATCRGRBSAGA	MEME-3	Scer	1640	1652	-	-20.0899	0.00629	0	TATTCAAGCGAGA
GCATCRGRBSAGA	MEME-3	Scer	1736	1748	-	-20.6517	0.00667	0	TGATCATAGCATA
GCATCRGRBSAGA	MEME-3	Scer	1487	1499	-	-21.0899	0.00695	0	GGATAAGGCCATG
GCATCRGRBSAGA	MEME-3	Scer	1169	1181	-	-26.7191	0.00754	0	GCATGTGTTAAGT
CGGYGGGG	MEME-2	Scer	226	233	+	-12.2449	0.00808	0	CATAGGGG
CGGYGGGG	MEME-2	Scer	326	333	+	-12.2449	0.00808	0	CGGAGCGT
CGGYGGGG	MEME-2	Scer	440	447	-	-12.2449	0.00808	0	AGGACGGG
CGGYGGGG	MEME-2	Scer	640	647	-	-12.2449	0.00808	0	CGGAGTGT
CGGYGGGG	MEME-2	Scer	714	721	-	-12.2449	0.00808	0	CGGAAGGT
CGGYGGGG	MEME-2	Scer	972	979	+	-12.2449	0.00808	0	TGGAGTGG
CGGYGGGG	MEME-2	Scer	1696	1703	+	-12.2449	0.00808	0	CTTAGGGG
CGGYGGGG	MEME-2	Scer	2638	2645	-	-12.2449	0.00808	0	AGAGGGGG
CGGYGGGG	MEME-2	Scer	2639	2646	-	-12.2449	0.00808	0	GAGAGGGG
GCATCRGRBSAGA	MEME-3	Scer	2461	2473	-	-27.3034	0.00894	0	GCTTCAACAGATA
GCATCRGRBSAGA	MEME-3	Scer	1974	1986	-	-27.3258	0.00935	0	GATTCGGTCGCTA
GCATCRGRBSAGA	MEME-3	Scer	8	20	-	-27.5843	0.00961	0	GAGTCTAATTAGA
GCATCRGRBSAGA	MEME-3	Scer	1830	1842	-	-27.5843	0.00961	0	GTGTTTGATTAGA
GCATCRGRBSAGA	MEME-3	Scer	2070	2082	+	-27.5843	0.00961	0	GCATCTCATAGCA

# FIMO (Find Individual Motif Occurrences): Version 5.5.4 compiled on Jul 21 2023 at 12:04:27
# The format of this file is described at https://meme-suite.org/meme/doc/fimo-output-format.html#tsv_results.
# fimo --oc results/fimo2 --motif CGGYGGGG --motif GCATCRGRBSAGA --no-qvalue --motif-pseudo 0.01 --thresh 0.01 common/crp0.meme.xml /Users/t.bailey/meme_git/meme/tests/motiph/spiked.fasta
