motif_id	motif_alt_id	sequence_name	start	stop	strand	score	p-value	q-value	matched_sequence
MA0303.1	GCN4	iYHR018C	181	201	+	8.08065	5.7e-07	0.0181	CAAAAAGTGAGTCATTCATCT
MA0303.1	GCN4	iYJL089W	80	100	+	8.04839	5.96e-07	0.0181	CACGTCGTGACTCATATGCTT
MA0303.1	GCN4	iYGR267C	43	63	+	7.77419	8.57e-07	0.0181	CAAAAAATGAGTCACGCACGC
MA0303.1	GCN4	iYNL005C	610	630	+	7.16129	1.8e-06	0.0195	CGAATGGTGAGTCACCATTTA
MA0303.1	GCN4	iYDR126W	3	23	-	7.12903	1.87e-06	0.0195	TTCGGGATGAGTCATATGCAT
MA0303.1	GCN4	iYER052C	287	307	+	7.08065	1.97e-06	0.0195	GAAAAGGTGAGTCATGGGCCT
MA0303.1	GCN4	iYNL005C	610	630	-	7	2.15e-06	0.0195	TAAATGGTGACTCACCATTCG
MA0303.1	GCN4	iYOL141W	39	59	+	6.75806	2.78e-06	0.022	CGCTATGTGACTCACTTAAAG
MA0303.1	GCN4	iYOL141W	39	59	-	6.54839	3.44e-06	0.0241	CTTTAAGTGAGTCACATAGCG
MA0303.1	GCN4	iYEL063C	359	379	-	6.01613	5.6e-06	0.035	TTCCGGGTGAGTCATACGGCT
MA0303.1	GCN4	iYCL030C	198	218	+	5.74194	7.01e-06	0.035	AAAAACGTGAGTCACTGTGCA
MA0303.1	GCN4	iYEL063C	359	379	+	5.72581	7.1e-06	0.035	AGCCGTATGACTCACCCGGAA
MA0303.1	GCN4	iYDL198C	135	155	-	5.62903	7.66e-06	0.035	AAACTCGTGAGTCACTGTGCA
MA0303.1	GCN4	iYGR267C	43	63	-	5.6129	7.75e-06	0.035	GCGTGCGTGACTCATTTTTTG
MA0303.1	GCN4	iYJR109C	343	363	-	5.45161	8.75e-06	0.0354	GAGAAAATGACTCATCCACCA
MA0303.1	GCN4	iYJL072C	134	154	+	5.41935	8.96e-06	0.0354	AAAAAGGTTAGTCATCACTGA
MA0303.1	GCN4	iYHR018C	181	201	-	5.04839	1.16e-05	0.0397	AGATGAATGACTCACTTTTTG
MA0303.1	GCN4	iYMR062C	146	166	+	5.03226	1.17e-05	0.0397	TACGCAGTGAGTCATCCTACC
MA0303.1	GCN4	iYJL089W	80	100	-	4.85484	1.31e-05	0.0397	AAGCATATGAGTCACGACGTG
MA0303.1	GCN4	iYJL089W	28	48	-	4.72581	1.41e-05	0.0397	AGCTGAATGAGTAATACGAAG
MA0303.1	GCN4	iYER055C	188	208	+	4.6129	1.51e-05	0.0397	GTAGAGGTGACTCACTTGGAA
MA0303.1	GCN4	iYPL274W	233	253	+	4.54839	1.57e-05	0.0397	CAGAGTATTAGTCATTTTTGA
MA0303.1	GCN4	iYJL072C	134	154	-	4.51613	1.59e-05	0.0397	TCAGTGATGACTAACCTTTTT
MA0303.1	GCN4	iYOR107W	487	507	-	4.46774	1.64e-05	0.0397	AAAAATATGAGTCATTCACTA
MA0303.1	GCN4	iYBR043C	342	362	-	4.40323	1.7e-05	0.0397	GTCAGAATGAGTCATTGTAAA
MA0303.1	GCN4	iYDR126W	3	23	+	4.35484	1.74e-05	0.0397	ATGCATATGACTCATCCCGAA
MA0303.1	GCN4	iYOL059W	518	538	+	4.35484	1.74e-05	0.0397	AGAGAGATTACTCATCTTCAT
MA0303.1	GCN4	iYMR062C	146	166	-	4.30645	1.79e-05	0.0397	GGTAGGATGACTCACTGCGTA
MA0303.1	GCN4	iYDL198C	135	155	+	4.22581	1.87e-05	0.0397	TGCACAGTGACTCACGAGTTT
MA0303.1	GCN4	iYJL089W	28	48	+	4.20968	1.88e-05	0.0397	CTTCGTATTACTCATTCAGCT
MA0303.1	GCN4	iYOL059W	420	440	-	3.98387	2.11e-05	0.0431	TGCGACATGAGTCACTAAAAA
MA0303.1	GCN4	iYOR130C	225	245	+	3.72581	2.39e-05	0.0443	CTCAAGGTGAGTCACGATGCA
MA0303.1	GCN4	iYJR109C	343	363	+	3.72581	2.39e-05	0.0443	TGGTGGATGAGTCATTTTCTC
MA0303.1	GCN4	iYLR355C	296	316	-	3.67742	2.45e-05	0.0443	CTGTCAGTGACTCATCCGCGT
MA0303.1	GCN4	iYCL030C	198	218	-	3.62903	2.5e-05	0.0443	TGCACAGTGACTCACGTTTTT
MA0303.1	GCN4	iYLR355C	296	316	+	3.6129	2.52e-05	0.0443	ACGCGGATGAGTCACTGACAG
MA0303.1	GCN4	iYBR043C	342	362	+	3.03226	3.29e-05	0.0545	TTTACAATGACTCATTCTGAC
MA0303.1	GCN4	iYOR107W	487	507	+	3.01613	3.31e-05	0.0545	TAGTGAATGACTCATATTTTT
MA0303.1	GCN4	iYER072W	597	617	-	2.95161	3.41e-05	0.0545	GTAGTGATGAGTCAGAAGTCT
MA0303.1	GCN4	iYPL274W	233	253	-	2.8871	3.51e-05	0.0545	TCAAAAATGACTAATACTCTG
MA0303.1	GCN4	iYOL059W	518	538	-	2.87097	3.53e-05	0.0545	ATGAAGATGAGTAATCTCTCT
MA0303.1	GCN4	iYOR336W	202	222	-	2.64516	3.91e-05	0.0562	AATCTAATGAGTCATGGGGAG
MA0303.1	GCN4	iYBR113W	483	503	-	2.64516	3.91e-05	0.0562	GATTGGCTGAGTCACCTTCAT
MA0303.1	GCN4	iYNR050C	209	229	+	2.59677	4e-05	0.0562	CAGAGTATGAGTAATTCTTTT
MA0303.1	GCN4	iYOR130C	225	245	-	2.54839	4.09e-05	0.0562	TGCATCGTGACTCACCTTGAG
MA0303.1	GCN4	iYER052C	287	307	-	2.54839	4.09e-05	0.0562	AGGCCCATGACTCACCTTTTC
MA0303.1	GCN4	iYNL104C	414	434	-	2.3871	4.4e-05	0.0586	TAGTAGGTTAGTCATCGCTCT
MA0303.1	GCN4	iYER055C	188	208	-	2.25806	4.67e-05	0.0586	TTCCAAGTGAGTCACCTCTAC
MA0303.1	GCN4	iYOL064C	146	166	+	2.20968	4.78e-05	0.0586	GCTCGTCTGAGTCATTCGCGC
MA0303.1	GCN4	iYOL059W	375	395	+	2.20968	4.78e-05	0.0586	CGCTATGTTAGTCACTACTGA
MA0303.1	GCN4	iYHR070W	36	56	+	2.19355	4.82e-05	0.0586	AACGAGATGACTAACACCTTT
MA0303.1	GCN4	iYHR070W	89	109	+	2.19355	4.82e-05	0.0586	TGCGCGATGCGTCATACTACT
MA0303.1	GCN4	iYOL059W	420	440	+	2.06452	5.12e-05	0.0611	TTTTTAGTGACTCATGTCGCA
MA0303.1	GCN4	iYER068W	371	391	-	2	5.28e-05	0.0618	TGTAGACTGAGTCATTCGGAT
MA0303.1	GCN4	iYDL171C	569	589	+	1.85484	5.67e-05	0.0649	CAGGGTCTGAGTCATCAAAGA
MA0303.1	GCN4	iYNR050C	209	229	-	1.79032	5.85e-05	0.0649	AAAAGAATTACTCATACTCTG
MA0303.1	GCN4	iYNL104C	414	434	+	1.79032	5.85e-05	0.0649	AGAGCGATGACTAACCTACTA
MA0303.1	GCN4	iYOR336W	202	222	+	1.5	6.76e-05	0.073	CTCCCCATGACTCATTAGATT
MA0303.1	GCN4	iYHR070W	36	56	-	1.45161	6.93e-05	0.073	AAAGGTGTTAGTCATCTCGTT
MA0303.1	GCN4	iYGL184C	266	286	+	1.45161	6.93e-05	0.073	GATGCGATGAGTCTTCCAAGG
MA0303.1	GCN4	iYGL184C	382	402	+	1.3871	7.16e-05	0.0741	GTCAGAATGAGTCAGCCGGAT
MA0303.1	GCN4	iYJR111C	156	176	-	1.27419	7.58e-05	0.076	AAATGTGTGACTAATAATTAC
MA0303.1	GCN4	iYOL059W	375	395	-	1.27419	7.58e-05	0.076	TCAGTAGTGACTAACATAGCG
MA0303.1	GCN4	iYHR161C	405	425	+	1.24194	7.7e-05	0.0761	GCCAGGCTGAGTCACGTCAGT
MA0303.1	GCN4	iYJR111C	156	176	+	1.08065	8.37e-05	0.0814	GTAATTATTAGTCACACATTT
MA0303.1	GCN4	iYER068W	240	260	+	0.983871	8.8e-05	0.0843	GCAAGAATGACTAATTCATAG
MA0303.1	GCN4	iYOR301W	129	149	-	0.951613	8.95e-05	0.0844	GCGATGATGAGTCAAACACCC
MA0303.1	GCN4	iYOL064C	146	166	-	0.870968	9.33e-05	0.0867	GCGCGAATGACTCAGACGAGC
MA0303.1	GCN4	iYBR115C	163	183	+	0.741935	9.98e-05	0.0914	TCGACATTGAGTCACACGCGA

# FIMO (Find Individual Motif Occurrences): Version 5.5.4 compiled on Jul 21 2023 at 12:04:27
# The format of this file is described at https://meme-suite.org/meme/doc/fimo-output-format.html#tsv_results.
# fimo --oc results/fimo3 --psp /Users/t.bailey/meme_git/meme/tests/fimo/GCN4_YPD.psp --prior-dist /Users/t.bailey/meme_git/meme/tests/fimo/prior.dist.txt /Users/t.bailey/meme_git/meme/tests/fimo/GCN4.meme.txt /Users/t.bailey/meme_git/meme/tests/fimo/GCN4_YPD.fasta
